{

           "_control_vocabulary_file": "SNAPSI_CV.json",
           "_AXIS_ENTRY_FILE":         "SNAPSI_coordinate.json",
           "_FORMULA_VAR_FILE":        "SNAPSI_formula_terms.json",
           "_cmip6_option":           "SNAPSI",

           "tracking_prefix":        "hdl:21.14100",
           "activity_id":            "SNAPSI",


           "#outpath":               "Output Path where files are written",
           "outpath":                "output",

           "#experiment_id":         "SNAPSI valid experiment_ids are found in SNAPSI_CV.json",
           "experiment_id":          "nudged",
           "sub_experiment_id":      "none",
           "sub_experiment":         "none",

           "source_type":            "AOGCM",
           "mip_era":                "SNAPSI",

           "#time_axis_origin":      "days since 1850-01-01 0:0:0.0",
           "calendar":               "365_day",

           "realization_index":      "1",
           "initialization_index":   "1",
           "physics_index":          "1",
           "forcing_index":          "1",

           "#contact ":              "Not required",
           "contact ":               "ec.cccma.info-info.ccmac.ec@canada.ca",

           "#history":               "not required, supplemented by CMOR",
           "history":                "",

           "#comment":               "Not required",
           "comment":                "",

           "#references":            "Not required",
           "references":             "Geoscientific Model Development Special issue on CanESM5 (https://www.geosci-model-dev.net/special_issue989.html)",

           "grid":                   "ORCA1",
           "grid_label":             "gn",
           "nominal_resolution":     "100 km",

           "institution_id":         "CCCma",

           "parent_experiment_id":   "adaptation",
           "parent_activity_id":     "SNAPSI",
           "parent_mip_era":         "SNAPSI",

           "parent_source_id":       "CanESM5",
           "parent_time_units":      "days since 1850-01-01",
           "parent_variant_label":   "r1i1p1f1",

           "branch_method":          "Forecast initialized from adaptation run",

           "#run_variant":           "Description of run variant (Recommended).",
           "run_variant":            "",

           "#source_id":              "Model Source",
           "source_id":               "CanESM5",

           "#source":                "source title, first part is source_id",
           "source":                 "CanESM5 (2018)",

           "title" :                 "CanESM5 output prepared for SNAPSI",
           "further_info_url" :      "N/A",

           "_history_template":       "%s ;rewrote data to be consistent with <activity_id> for variable <variable_id> found in table <table_id>.",
           "#output_path_template":   "Template for output path directory using tables keys or global attributes",
           "output_path_template":    "<activity_id><institution_id><source_id><experiment_id><_member_id><table><variable_id><grid_label><version>",
           "output_file_template":    "<variable_id><table><source_id><experiment_id><_member_id><grid_label>",

           "license":                 "SNAPSI model data produced by The Government of Canada (Canadian Centre for Climate Modelling and Analysis, Environment and Climate Change Canada) is licensed under a Creative Commons Attribution ShareAlike 4.0 International License (https://creativecommons.org/licenses). Consult _ for terms of use governing SNAPSI output, including citation requirements and proper acknowledgment. The data producers and data providers make no warranty, either express or implied, including, but not limited to, warranties of merchantability and fitness for a particular purpose. All liabilities arising from the supply of the information (including any liability arising in negligence) are excluded to the fullest extent permitted by law."

}
