{
    "_comment" : "Example of user input arguments for create_cccma_tables.json. Users can copy and edit this example file as needed. Note, some of these arguments can be passed by command-line input (-h to list these) and if so they will override arguments set here! See documentation for more info.",
    "project" : "CMIP6",
    "source_id" : "CanESM5",
    "cmor_tables" : ["Amon", "day"],
    "cmor_vars" : {
        "Amon" : ["pr", "tas"],
        "day" : ["uas", "zg", "ta"]
    },
    "previous_cccma_tables" : "name_of_previous_project",
    "pct_path_template" : "../{project}/cccma-tables/{source_id}",
    "pct_filename_template" : "{project}-CCCma_{cmor_table}.json",
    "pct_exclude_parameters" : ["MIPs (requesting)", "experiments"],
    "pct_tables" : {
        "new_table_name" : "previous_table_name"
    },
    "pct_check_mismatch" : []
}
