{
  "albisccp": {
    "CCCma TS var name": "ICCA ICCF",
    "CCCma diag file": "gp",
    "CCCma optional deck": "cospmask",
    "CCCma hist file": "gs",
    "CCCma hist var names": "ICCA ICCF",
    "CCCma hist var frequency": "ISRAD",
    "CCCma check": "Jason",
    "CCCma comment": "Need to turn on use_cosp and adjust namelist.",
    "MIPs (requesting)": "  AerChemMIP(1,1,1,1,1), CFMIP(1,1,1,1,1), DAMIP(1,1), HighResMIP(1,1,1)",
    "experiments": "  abrupt-4xCO2 (AerChemMIP:1,CFMIP:1), amip (AerChemMIP:1,CFMIP:1,HighResMIP:1), 1pctCO2 (AerChemMIP:1,CFMIP:1), historical (AerChemMIP:1,CFMIP:1,DAMIP:1,HighResMIP:1), piControl (AerChemMIP:1,CFMIP:1,DAMIP:1,HighResMIP:1)"
  },
  "clc": {
    "CCCma TS var name": null,
    "CCCma diag file": null,
    "CCCma check": "N/A",
    "MIPs (requesting)": "  AerChemMIP(1,1,1,1,1,2,2,2,2,2), CFMIP(2,2,2), DAMIP(1,1,2,2), GeoMIP(2,2,2), HighResMIP(2,2,2), PMIP(1,1,1,1)",
    "experiments": "  abrupt-4xCO2 (AerChemMIP:1,AerChemMIP:2,CFMIP:2,GeoMIP:2), amip (AerChemMIP:1,PMIP:1,AerChemMIP:2,CFMIP:2,HighResMIP:2), 1pctCO2 (AerChemMIP:1,PMIP:1,AerChemMIP:2), historical (AerChemMIP:1,DAMIP:1,PMIP:1,AerChemMIP:2,DAMIP:2,GeoMIP:2,HighResMIP:2), piControl (AerChemMIP:1,DAMIP:1,PMIP:1,AerChemMIP:2,CFMIP:2,DAMIP:2,GeoMIP:2,HighResMIP:2)"
  },
  "clcalipso": {
    "CCCma TS var name": "CLCP CLCM",
    "CCCma diag file": "gp",
    "CCCma optional deck": "cospmask",
    "CCCma hist file": "gs",
    "CCCma hist var names": "CLCP CLCM",
    "CCCma hist var frequency": "ISRAD",
    "CCCma check": "Jason",
    "CCCma comment": "Need to turn on use_cosp and adjust namelist.",
    "MIPs (requesting)": "  AerChemMIP(1,1,1,1,1), CFMIP(1,1,1,1,1), DAMIP(1,1), HighResMIP(1,1,1), VIACSAB(1,1,1)",
    "experiments": "  abrupt-4xCO2 (AerChemMIP:1,CFMIP:1), amip (AerChemMIP:1,CFMIP:1,HighResMIP:1,VIACSAB:1), 1pctCO2 (AerChemMIP:1,CFMIP:1,VIACSAB:1), historical (AerChemMIP:1,CFMIP:1,DAMIP:1,HighResMIP:1,VIACSAB:1), piControl (AerChemMIP:1,CFMIP:1,DAMIP:1,HighResMIP:1)"
  },
  "clhcalipso": {
    "CCCma TS var name": "CLHC CLHM ",
    "CCCma diag file": "gp",
    "CCCma optional deck": "cospmask",
    "CCCma hist file": "gs",
    "CCCma hist var names": "CLHC CLHM ",
    "CCCma hist var frequency": "ISRAD",
    "CCCma check": "Jason",
    "CCCma comment": "Need to turn on use_cosp and adjust namelist.",
    "MIPs (requesting)": "  AerChemMIP(1,1,1,1,1), CFMIP(1,1,1,1,1), DAMIP(1,1), HighResMIP(1,1,1)",
    "experiments": "  abrupt-4xCO2 (AerChemMIP:1,CFMIP:1), amip (AerChemMIP:1,CFMIP:1,HighResMIP:1), 1pctCO2 (AerChemMIP:1,CFMIP:1), historical (AerChemMIP:1,CFMIP:1,DAMIP:1,HighResMIP:1), piControl (AerChemMIP:1,CFMIP:1,DAMIP:1,HighResMIP:1)"
  },
  "clic": {
    "CCCma TS var name": null,
    "CCCma diag file": null,
    "CCCma check": "N/A",
    "priority": 2.0,
    "MIPs (requesting)": "  AerChemMIP(2,2,2,2,2), CFMIP(2,2,2), DAMIP(2,2), GeoMIP(2,2,2), HighResMIP(2,2,2)",
    "experiments": "  abrupt-4xCO2 (AerChemMIP:2,CFMIP:2,GeoMIP:2), amip (AerChemMIP:2,CFMIP:2,HighResMIP:2), 1pctCO2 (AerChemMIP:2), historical (AerChemMIP:2,DAMIP:2,GeoMIP:2,HighResMIP:2), piControl (AerChemMIP:2,CFMIP:2,DAMIP:2,GeoMIP:2,HighResMIP:2)"
  },
  "clis": {
    "CCCma TS var name": "CIC",
    "CCCma diag file": "gp",
    "CCCma hist file": "gs",
    "CCCma hist var names": "CIC",
    "CCCma hist var frequency": "ISGG",
    "CCCma check": "Jason",
    "priority": 2.0,
    "MIPs (requesting)": "  AerChemMIP(2,2,2,2,2), CFMIP(2,2,2), DAMIP(2,2), GeoMIP(2,2,2), HighResMIP(2,2,2)",
    "experiments": "  abrupt-4xCO2 (AerChemMIP:2,CFMIP:2,GeoMIP:2), amip (AerChemMIP:2,CFMIP:2,HighResMIP:2), 1pctCO2 (AerChemMIP:2), historical (AerChemMIP:2,DAMIP:2,GeoMIP:2,HighResMIP:2), piControl (AerChemMIP:2,CFMIP:2,DAMIP:2,GeoMIP:2,HighResMIP:2)"
  },
  "clisccp": {
    "CCCma TS var name": "ICTP SUNL",
    "CCCma diag file": "gp",
    "CCCma optional deck": "cospmask_prestau_v2",
    "CCCma hist file": "gs",
    "CCCma hist var names": "ICTP SUNL",
    "CCCma hist var frequency": "ISRAD",
    "CCCma check": "Jason",
    "CCCma comment": "Need to turn on use_cosp and adjust namelist.",
    "MIPs (requesting)": "  AerChemMIP(1,1,1,1,1), CFMIP(1,1,1,1,1), DAMIP(1,1), HighResMIP(1,1,1), PMIP(1,1,1,1), VIACSAB(1,1,1)",
    "experiments": "  abrupt-4xCO2 (AerChemMIP:1,CFMIP:1), amip (AerChemMIP:1,CFMIP:1,HighResMIP:1,PMIP:1,VIACSAB:1), 1pctCO2 (AerChemMIP:1,CFMIP:1,PMIP:1,VIACSAB:1), historical (AerChemMIP:1,CFMIP:1,DAMIP:1,HighResMIP:1,PMIP:1,VIACSAB:1), piControl (AerChemMIP:1,CFMIP:1,DAMIP:1,HighResMIP:1,PMIP:1)"
  },
  "cllcalipso": {
    "CCCma TS var name": "CLLC CLLM ",
    "CCCma diag file": "gp",
    "CCCma optional deck": "cospmask",
    "CCCma hist file": "gs",
    "CCCma hist var names": "CLLC CLLM ",
    "CCCma hist var frequency": "ISRAD",
    "CCCma check": "Jason",
    "CCCma comment": "Need to turn on use_cosp and adjust namelist.",
    "MIPs (requesting)": "  AerChemMIP(1,1,1,1,1), CFMIP(1,1,1,1,1), DAMIP(1,1), HighResMIP(1,1,1)",
    "experiments": "  abrupt-4xCO2 (AerChemMIP:1,CFMIP:1), amip (AerChemMIP:1,CFMIP:1,HighResMIP:1), 1pctCO2 (AerChemMIP:1,CFMIP:1), historical (AerChemMIP:1,CFMIP:1,DAMIP:1,HighResMIP:1), piControl (AerChemMIP:1,CFMIP:1,DAMIP:1,HighResMIP:1)"
  },
  "clmcalipso": {
    "CCCma TS var name": "CLMC CLMM ",
    "CCCma diag file": "gp",
    "CCCma optional deck": "cospmask",
    "CCCma hist file": "gs",
    "CCCma hist var names": "CLMC CLMM ",
    "CCCma hist var frequency": "ISRAD",
    "CCCma check": "Jason",
    "CCCma comment": "Need to turn on use_cosp and adjust namelist.",
    "MIPs (requesting)": "  AerChemMIP(1,1,1,1,1), CFMIP(1,1,1,1,1), DAMIP(1,1), HighResMIP(1,1,1)",
    "experiments": "  abrupt-4xCO2 (AerChemMIP:1,CFMIP:1), amip (AerChemMIP:1,CFMIP:1,HighResMIP:1), 1pctCO2 (AerChemMIP:1,CFMIP:1), historical (AerChemMIP:1,CFMIP:1,DAMIP:1,HighResMIP:1), piControl (AerChemMIP:1,CFMIP:1,DAMIP:1,HighResMIP:1)"
  },
  "cls": {
    "CCCma TS var name": "SCLD",
    "CCCma diag file": "gp",
    "CCCma optional deck": "mltby100",
    "CCCma hist file": "gs",
    "CCCma hist var names": "CLD",
    "CCCma hist var frequency": "ISGG",
    "CCCma check": "Jason",
    "MIPs (requesting)": "  AerChemMIP(2,2,2,2,2), CFMIP(2,2,2), DAMIP(2,2), GeoMIP(2,2,2), HighResMIP(2,2,2), PMIP(1,1,1,1)",
    "experiments": "  abrupt-4xCO2 (AerChemMIP:2,CFMIP:2,GeoMIP:2), amip (PMIP:1,AerChemMIP:2,CFMIP:2,HighResMIP:2), 1pctCO2 (PMIP:1,AerChemMIP:2), historical (PMIP:1,AerChemMIP:2,DAMIP:2,GeoMIP:2,HighResMIP:2), piControl (PMIP:1,AerChemMIP:2,CFMIP:2,DAMIP:2,GeoMIP:2,HighResMIP:2)"
  },
  "cltcalipso": {
    "CCCma TS var name": "CLTC CLTM ",
    "CCCma diag file": "gp",
    "CCCma optional deck": "cospmask",
    "CCCma hist file": "gs",
    "CCCma hist var names": "CLTC CLTM ",
    "CCCma hist var frequency": "ISRAD",
    "CCCma check": "Jason",
    "CCCma comment": "Need to turn on use_cosp and adjust namelist.",
    "MIPs (requesting)": "  AerChemMIP(1,1,1,1,1), CFMIP(1,1,1,1,1), DAMIP(1,1), HighResMIP(1,1,1), VIACSAB(1,1,1)",
    "experiments": "  abrupt-4xCO2 (AerChemMIP:1,CFMIP:1), amip (AerChemMIP:1,CFMIP:1,HighResMIP:1,VIACSAB:1), 1pctCO2 (AerChemMIP:1,CFMIP:1,VIACSAB:1), historical (AerChemMIP:1,CFMIP:1,DAMIP:1,HighResMIP:1,VIACSAB:1), piControl (AerChemMIP:1,CFMIP:1,DAMIP:1,HighResMIP:1)"
  },
  "cltisccp": {
    "CCCma TS var name": "ICCF SUNL",
    "CCCma diag file": "gp",
    "CCCma optional deck": "cospmask",
    "CCCma hist file": "gs",
    "CCCma hist var names": "ICCF SUNL",
    "CCCma hist var frequency": "ISRAD",
    "CCCma check": "Jason",
    "CCCma comment": "Need to turn on use_cosp and adjust namelist.",
    "MIPs (requesting)": "  AerChemMIP(1,1,1,1,1), CFMIP(1,1,1,1,1), DAMIP(1,1), HighResMIP(1,1,1), PMIP(1,1,1,1), VIACSAB(1,1,1)",
    "experiments": "  abrupt-4xCO2 (AerChemMIP:1,CFMIP:1), amip (AerChemMIP:1,CFMIP:1,HighResMIP:1,PMIP:1,VIACSAB:1), 1pctCO2 (AerChemMIP:1,CFMIP:1,PMIP:1,VIACSAB:1), historical (AerChemMIP:1,CFMIP:1,DAMIP:1,HighResMIP:1,PMIP:1,VIACSAB:1), piControl (AerChemMIP:1,CFMIP:1,DAMIP:1,HighResMIP:1,PMIP:1)"
  },
  "clwc": {
    "CCCma TS var name": null,
    "CCCma diag file": null,
    "CCCma check": "N/A",
    "priority": 2.0,
    "MIPs (requesting)": "  AerChemMIP(2,2,2,2,2), CFMIP(2,2,2), DAMIP(2,2), GeoMIP(2,2,2), HighResMIP(2,2,2)",
    "experiments": "  abrupt-4xCO2 (AerChemMIP:2,CFMIP:2,GeoMIP:2), amip (AerChemMIP:2,CFMIP:2,HighResMIP:2), 1pctCO2 (AerChemMIP:2), historical (AerChemMIP:2,DAMIP:2,GeoMIP:2,HighResMIP:2), piControl (AerChemMIP:2,CFMIP:2,DAMIP:2,GeoMIP:2,HighResMIP:2)"
  },
  "clws": {
    "CCCma TS var name": "CLW",
    "CCCma diag file": "gp",
    "CCCma hist file": "gs",
    "CCCma hist var names": "CLW",
    "CCCma hist var frequency": "ISGG",
    "CCCma check": "Jason",
    "priority": 2.0,
    "MIPs (requesting)": "  AerChemMIP(2,2,2,2,2), CFMIP(2,2,2), DAMIP(2,2), GeoMIP(2,2,2), HighResMIP(2,2,2)",
    "experiments": "  abrupt-4xCO2 (AerChemMIP:2,CFMIP:2,GeoMIP:2), amip (AerChemMIP:2,CFMIP:2,HighResMIP:2), 1pctCO2 (AerChemMIP:2), historical (AerChemMIP:2,DAMIP:2,GeoMIP:2,HighResMIP:2), piControl (AerChemMIP:2,CFMIP:2,DAMIP:2,GeoMIP:2,HighResMIP:2)"
  },
  "dmc": {
    "CCCma TS var name": "TDMC",
    "CCCma diag file": "gp",
    "CCCma hist file": "gs",
    "CCCma hist var names": "DMC",
    "CCCma hist var frequency": "ISRAD",
    "CCCma check": "Jason",
    "CCCma comment": "cpp   xtraconv",
    "priority": 2.0,
    "MIPs (requesting)": "  AerChemMIP(2,2,2,2,2), CFMIP(2,2,2), DAMIP(2,2), GeoMIP(2,2,2), HighResMIP(2,2,2)",
    "experiments": "  abrupt-4xCO2 (AerChemMIP:2,CFMIP:2,GeoMIP:2), amip (AerChemMIP:2,CFMIP:2,HighResMIP:2), 1pctCO2 (AerChemMIP:2), historical (AerChemMIP:2,DAMIP:2,GeoMIP:2,HighResMIP:2), piControl (AerChemMIP:2,CFMIP:2,DAMIP:2,GeoMIP:2,HighResMIP:2)"
  },
  "edt": {
    "CCCma TS var name": "RKH",
    "CCCma diag file": "gp",
    "CCCma hist file": "gs",
    "CCCma hist var names": "RKH",
    "CCCma hist var frequency": "ISRAD",
    "CCCma check": "Jason",
    "MIPs (requesting)": "  AerChemMIP(1,1,1,1,1), CFMIP(1,1,1), DAMIP(1,1), GeoMIP(1,1,1), HighResMIP(1,1,1)",
    "experiments": "  abrupt-4xCO2 (AerChemMIP:1,CFMIP:1,GeoMIP:1), amip (AerChemMIP:1,CFMIP:1,HighResMIP:1), 1pctCO2 (AerChemMIP:1), historical (AerChemMIP:1,DAMIP:1,GeoMIP:1,HighResMIP:1), piControl (AerChemMIP:1,CFMIP:1,DAMIP:1,GeoMIP:1,HighResMIP:1)"
  },
  "evu": {
    "CCCma TS var name": "RKM",
    "CCCma diag file": "gp",
    "CCCma hist file": "gs",
    "CCCma hist var names": "RKM",
    "CCCma hist var frequency": "ISRAD",
    "CCCma check": "Jason",
    "MIPs (requesting)": "  AerChemMIP(1,1,1,1,1), CFMIP(1,1,1), DAMIP(1,1), GeoMIP(1,1,1), HighResMIP(1,1,1)",
    "experiments": "  abrupt-4xCO2 (AerChemMIP:1,CFMIP:1,GeoMIP:1), amip (AerChemMIP:1,CFMIP:1,HighResMIP:1), 1pctCO2 (AerChemMIP:1), historical (AerChemMIP:1,DAMIP:1,GeoMIP:1,HighResMIP:1), piControl (AerChemMIP:1,CFMIP:1,DAMIP:1,GeoMIP:1,HighResMIP:1)"
  },
  "hur": {
    "CCCma TS var name": "RHML",
    "CCCma diag file": "gp",
    "CCCma optional deck": "mltby100",
    "CCCma hist file": "ss",
    "CCCma check": "Jason",
    "CCCma comment": "need rhs_cmip6.dk, gssave=on",
    "MIPs (requesting)": "  AerChemMIP(1,1,1,1,1), CFMIP(1,1,1), DAMIP(1,1), GeoMIP(1,1,1), HighResMIP(1,1,1)",
    "experiments": "  abrupt-4xCO2 (AerChemMIP:1,CFMIP:1,GeoMIP:1), amip (AerChemMIP:1,CFMIP:1,HighResMIP:1), 1pctCO2 (AerChemMIP:1), historical (AerChemMIP:1,DAMIP:1,GeoMIP:1,HighResMIP:1), piControl (AerChemMIP:1,CFMIP:1,DAMIP:1,GeoMIP:1,HighResMIP:1)"
  },
  "hus": {
    "CCCma TS var name": "Q_ML",
    "CCCma diag file": "gp",
    "CCCma hist file": "ss",
    "CCCma hist var names": "Q",
    "CCCma hist var frequency": "ISSP",
    "CCCma check": "Jason",
    "CCCma comment": "need rhs_cmip6.dk, gssave=on",
    "MIPs (requesting)": "  AerChemMIP(1,1,1,1,1), CFMIP(1,1,1), DAMIP(1,1,1,1), GeoMIP(1,1,1), HighResMIP(1,1,1)",
    "experiments": "  abrupt-4xCO2 (AerChemMIP:1,CFMIP:1,GeoMIP:1), amip (AerChemMIP:1,CFMIP:1,HighResMIP:1), 1pctCO2 (AerChemMIP:1), historical (AerChemMIP:1,DAMIP:1,DAMIP:1,GeoMIP:1,HighResMIP:1), piControl (AerChemMIP:1,CFMIP:1,DAMIP:1,DAMIP:1,GeoMIP:1,HighResMIP:1)"
  },
  "mcd": {
    "CCCma TS var name": "TDMCD",
    "CCCma diag file": "gp",
    "CCCma hist file": "gs",
    "CCCma hist var names": "DMCD",
    "CCCma hist var frequency": "ISRAD",
    "CCCma check": "Jason",
    "CCCma comment": "cpp   xtraconv",
    "priority": 2.0,
    "MIPs (requesting)": "  AerChemMIP(2,2,2,2,2), CFMIP(2,2,2), DAMIP(2,2), GeoMIP(2,2,2), HighResMIP(2,2,2,2)",
    "experiments": "  abrupt-4xCO2 (AerChemMIP:2,CFMIP:2,GeoMIP:2), amip (AerChemMIP:2,CFMIP:2,HighResMIP:2,HighResMIP:2), 1pctCO2 (AerChemMIP:2), historical (AerChemMIP:2,DAMIP:2,GeoMIP:2,HighResMIP:2), piControl (AerChemMIP:2,CFMIP:2,DAMIP:2,GeoMIP:2,HighResMIP:2)"
  },
  "mcu": {
    "CCCma TS var name": "TDMCU",
    "CCCma diag file": "gp",
    "CCCma hist file": "gs",
    "CCCma hist var names": "DMCU",
    "CCCma hist var frequency": "ISRAD",
    "CCCma check": "Jason",
    "CCCma comment": "cpp xtraconv",
    "MIPs (requesting)": "  AerChemMIP(1,1,1,1,1,2,2,2,2,2), CFMIP(2,2,2), DAMIP(1,1,2,2), GeoMIP(2,2,2), HighResMIP(2,2,2,2)",
    "experiments": "  abrupt-4xCO2 (AerChemMIP:1,AerChemMIP:2,CFMIP:2,GeoMIP:2), amip (AerChemMIP:1,AerChemMIP:2,CFMIP:2,HighResMIP:2,HighResMIP:2), 1pctCO2 (AerChemMIP:1,AerChemMIP:2), historical (AerChemMIP:1,DAMIP:1,AerChemMIP:2,DAMIP:2,GeoMIP:2,HighResMIP:2), piControl (AerChemMIP:1,DAMIP:1,AerChemMIP:2,CFMIP:2,DAMIP:2,GeoMIP:2,HighResMIP:2)"
  },
  "pctisccp": {
    "CCCma TS var name": "ICCP ICCF",
    "CCCma diag file": "gp",
    "CCCma optional deck": "cospmask",
    "CCCma hist file": "gs",
    "CCCma hist var names": "ICCP ICCF",
    "CCCma hist var frequency": "ISRAD",
    "CCCma check": "Jason",
    "CCCma comment": "Need to turn on use_cosp and adjust namelist.",
    "MIPs (requesting)": "  AerChemMIP(1,1,1,1,1), CFMIP(1,1,1,1,1), DAMIP(1,1), HighResMIP(1,1,1)",
    "experiments": "  abrupt-4xCO2 (AerChemMIP:1,CFMIP:1), amip (AerChemMIP:1,CFMIP:1,HighResMIP:1), 1pctCO2 (AerChemMIP:1,CFMIP:1), historical (AerChemMIP:1,CFMIP:1,DAMIP:1,HighResMIP:1), piControl (AerChemMIP:1,CFMIP:1,DAMIP:1,HighResMIP:1)"
  },
  "ps": {
    "CCCma TS var name": "PS",
    "CCCma diag file": "gp",
    "CCCma optional deck": "mltby100",
    "CCCma units": "mb",
    "CCCma hist file": "ss",
    "CCCma hist var names": "LNSP",
    "CCCma hist var frequency": "Spectral at ISSP",
    "CCCma check": "Done.",
    "CCCma comment": "PS*100",
    "MIPs (requesting)": "  AerChemMIP(1,1,1,1,1), CFMIP(1,1,1,1,1), CMIP(1,1,1,1,1,1), DAMIP(1,1,1,1,1), DCPP(2), FAFMIP(1,1,1), GeoMIP(1,1,1), GMMIP(1), HighResMIP(1,1,1), LUMIP(1), PAMIP(2), PMIP(1,1,1,1,1), RFMIP(1,1,1,1,1), VIACSAB(1,1,1,2,2,2,2), VolMIP(1,1)",
    "experiments": "  abrupt-4xCO2 (AerChemMIP:1,CFMIP:1,CMIP:1,CMIP:1,DAMIP:1,FAFMIP:1,GeoMIP:1,PMIP:1,RFMIP:1), amip (AerChemMIP:1,CFMIP:1,CMIP:1,DAMIP:1,GMMIP:1,HighResMIP:1,PMIP:1,RFMIP:1,VIACSAB:1,VIACSAB:2), 1pctCO2 (AerChemMIP:1,CFMIP:1,CMIP:1,DAMIP:1,FAFMIP:1,PMIP:1,RFMIP:1,VIACSAB:1), historical (AerChemMIP:1,CFMIP:1,CMIP:1,DAMIP:1,GeoMIP:1,HighResMIP:1,LUMIP:1,PMIP:1,RFMIP:1,VIACSAB:1,VolMIP:1,DCPP:2,PAMIP:2,VIACSAB:2,VIACSAB:2), piControl (AerChemMIP:1,CFMIP:1,CMIP:1,DAMIP:1,FAFMIP:1,GeoMIP:1,HighResMIP:1,PMIP:1,RFMIP:1,VolMIP:1,VIACSAB:2)"
  },
  "rld": {
    "CCCma TS var name": "FLAD",
    "CCCma diag file": "gp",
    "CCCma hist file": "gs",
    "CCCma hist var names": "FLAD",
    "CCCma hist var frequency": "ISRAD",
    "CCCma check": "Jason",
    "CCCma comment": "cpp   rad_flux_profs, radprof_radforce_cmip6.dk",
    "MIPs (requesting)": "  AerChemMIP(1,1,1,1,1), CFMIP(1,1,1), DAMIP(1,1), GeoMIP(1,1,1), HighResMIP(1,1,1), PMIP(1,1,1,1), VIACSAB(1,1,1)",
    "experiments": "  abrupt-4xCO2 (AerChemMIP:1,CFMIP:1,GeoMIP:1), amip (AerChemMIP:1,CFMIP:1,HighResMIP:1,PMIP:1,VIACSAB:1), 1pctCO2 (AerChemMIP:1,PMIP:1,VIACSAB:1), historical (AerChemMIP:1,DAMIP:1,GeoMIP:1,HighResMIP:1,PMIP:1,VIACSAB:1), piControl (AerChemMIP:1,CFMIP:1,DAMIP:1,GeoMIP:1,HighResMIP:1,PMIP:1)"
  },
  "rld4co2": {
    "CCCma TS var name": "LAD4",
    "CCCma diag file": "gp",
    "CCCma hist file": "gs",
    "CCCma hist var names": "LAD1",
    "CCCma hist var frequency": "ISRAD",
    "CCCma check": "Jason",
    "CCCma comment": "cpp   radforce,radprof_radforce_cmip6.dk",
    "MIPs (requesting)": "  AerChemMIP(1,1,1,1,1), CFMIP(1), HighResMIP(1,1,1)",
    "experiments": "  abrupt-4xCO2 (AerChemMIP:1), amip (AerChemMIP:1,CFMIP:1,HighResMIP:1), 1pctCO2 (AerChemMIP:1), historical (AerChemMIP:1,HighResMIP:1), piControl (AerChemMIP:1,HighResMIP:1)"
  },
  "rldcs": {
    "CCCma TS var name": "FLCD",
    "CCCma diag file": "gp",
    "CCCma hist file": "gs",
    "CCCma hist var names": "FLCD",
    "CCCma hist var frequency": "ISRAD",
    "CCCma check": "Jason",
    "CCCma comment": "cpp   rad_flux_profs, radprof_radforce_cmip6.dk",
    "MIPs (requesting)": "  AerChemMIP(1,1,1,1,1), CFMIP(1,1,1), DAMIP(1,1), GeoMIP(1,1,1), HighResMIP(1,1,1), PMIP(1,1,1,1), VIACSAB(1,1,1)",
    "experiments": "  abrupt-4xCO2 (AerChemMIP:1,CFMIP:1,GeoMIP:1), amip (AerChemMIP:1,CFMIP:1,HighResMIP:1,PMIP:1,VIACSAB:1), 1pctCO2 (AerChemMIP:1,PMIP:1,VIACSAB:1), historical (AerChemMIP:1,DAMIP:1,GeoMIP:1,HighResMIP:1,PMIP:1,VIACSAB:1), piControl (AerChemMIP:1,CFMIP:1,DAMIP:1,GeoMIP:1,HighResMIP:1,PMIP:1)"
  },
  "rldcs4co2": {
    "CCCma TS var name": "LCD4",
    "CCCma diag file": "gp",
    "CCCma hist file": "gs",
    "CCCma hist var names": "LCD1",
    "CCCma hist var frequency": "ISRAD",
    "CCCma check": "Jason",
    "CCCma comment": "cpp   radforce,radprof_radforce_cmip6.dk",
    "MIPs (requesting)": "  AerChemMIP(1,1,1,1,1), CFMIP(1), HighResMIP(1,1,1)",
    "experiments": "  abrupt-4xCO2 (AerChemMIP:1), amip (AerChemMIP:1,CFMIP:1,HighResMIP:1), 1pctCO2 (AerChemMIP:1), historical (AerChemMIP:1,HighResMIP:1), piControl (AerChemMIP:1,HighResMIP:1)"
  },
  "rlu": {
    "CCCma TS var name": "FLAU",
    "CCCma diag file": "gp",
    "CCCma hist file": "gs",
    "CCCma hist var names": "FLAU",
    "CCCma hist var frequency": "ISRAD",
    "CCCma check": "Jason",
    "CCCma comment": "cpp   rad_flux_profs, radprof_radforce_cmip6.dk",
    "MIPs (requesting)": "  AerChemMIP(1,1,1,1,1), CFMIP(1,1,1), DAMIP(1,1), GeoMIP(1,1,1), HighResMIP(1,1,1), PMIP(1,1,1,1), VIACSAB(1,1,1)",
    "experiments": "  abrupt-4xCO2 (AerChemMIP:1,CFMIP:1,GeoMIP:1), amip (AerChemMIP:1,CFMIP:1,HighResMIP:1,PMIP:1,VIACSAB:1), 1pctCO2 (AerChemMIP:1,PMIP:1,VIACSAB:1), historical (AerChemMIP:1,DAMIP:1,GeoMIP:1,HighResMIP:1,PMIP:1,VIACSAB:1), piControl (AerChemMIP:1,CFMIP:1,DAMIP:1,GeoMIP:1,HighResMIP:1,PMIP:1)"
  },
  "rlu4co2": {
    "CCCma TS var name": "LAU4",
    "CCCma diag file": "gp",
    "CCCma hist file": "gs",
    "CCCma hist var names": "LAU1",
    "CCCma hist var frequency": "ISRAD",
    "CCCma check": "Jason",
    "CCCma comment": "cpp   radforce,radprof_radforce_cmip6.dk",
    "MIPs (requesting)": "  AerChemMIP(1,1,1,1,1), CFMIP(1), HighResMIP(1,1,1)",
    "experiments": "  abrupt-4xCO2 (AerChemMIP:1), amip (AerChemMIP:1,CFMIP:1,HighResMIP:1), 1pctCO2 (AerChemMIP:1), historical (AerChemMIP:1,HighResMIP:1), piControl (AerChemMIP:1,HighResMIP:1)"
  },
  "rlucs": {
    "CCCma TS var name": "FLCU",
    "CCCma diag file": "gp",
    "CCCma hist file": "gs",
    "CCCma hist var names": "FLCU",
    "CCCma hist var frequency": "ISRAD",
    "CCCma check": "Jason",
    "CCCma comment": "cpp   rad_flux_profs, radprof_radforce_cmip6.dk",
    "MIPs (requesting)": "  AerChemMIP(1,1,1,1,1), CFMIP(1,1,1), DAMIP(1,1), GeoMIP(1,1,1), HighResMIP(1,1,1), PMIP(1,1,1,1), VIACSAB(1,1,1)",
    "experiments": "  abrupt-4xCO2 (AerChemMIP:1,CFMIP:1,GeoMIP:1), amip (AerChemMIP:1,CFMIP:1,HighResMIP:1,PMIP:1,VIACSAB:1), 1pctCO2 (AerChemMIP:1,PMIP:1,VIACSAB:1), historical (AerChemMIP:1,DAMIP:1,GeoMIP:1,HighResMIP:1,PMIP:1,VIACSAB:1), piControl (AerChemMIP:1,CFMIP:1,DAMIP:1,GeoMIP:1,HighResMIP:1,PMIP:1)"
  },
  "rlucs4co2": {
    "CCCma TS var name": "LCU4",
    "CCCma diag file": "gp",
    "CCCma hist file": "gs",
    "CCCma hist var names": "LCU1",
    "CCCma hist var frequency": "ISRAD",
    "CCCma check": "Jason",
    "CCCma comment": "cpp   radforce,radprof_radforce_cmip6.dk",
    "MIPs (requesting)": "  AerChemMIP(1,1,1,1,1), CFMIP(1), HighResMIP(1,1,1)",
    "experiments": "  abrupt-4xCO2 (AerChemMIP:1), amip (AerChemMIP:1,CFMIP:1,HighResMIP:1), 1pctCO2 (AerChemMIP:1), historical (AerChemMIP:1,HighResMIP:1), piControl (AerChemMIP:1,HighResMIP:1)"
  },
  "rlut4co2": {
    "CCCma TS var name": "TAL4",
    "CCCma diag file": "gp",
    "CCCma hist file": "gs",
    "CCCma hist var names": "LAU1",
    "CCCma hist var frequency": "ISRAD",
    "CCCma check": "Jason",
    "CCCma comment": "cpp   radforce,radprof_radforce_cmip6.dk",
    "MIPs (requesting)": "  AerChemMIP(1,1,1,1,1), CFMIP(1), HighResMIP(1,1,1), VIACSAB(1,1,1)",
    "experiments": "  abrupt-4xCO2 (AerChemMIP:1), amip (AerChemMIP:1,CFMIP:1,HighResMIP:1,VIACSAB:1), 1pctCO2 (AerChemMIP:1), historical (AerChemMIP:1,HighResMIP:1,VIACSAB:1), piControl (AerChemMIP:1,HighResMIP:1,VIACSAB:1)"
  },
  "rlutcs4co2": {
    "CCCma TS var name": "TCL4",
    "CCCma diag file": "gp",
    "CCCma hist file": "gs",
    "CCCma hist var names": "LCU1",
    "CCCma hist var frequency": "ISRAD",
    "CCCma check": "Jason",
    "CCCma comment": "cpp   radforce,radprof_radforce_cmip6.dk",
    "MIPs (requesting)": "  AerChemMIP(1,1,1,1,1), CFMIP(1), HighResMIP(1,1,1), VIACSAB(1,1,1)",
    "experiments": "  abrupt-4xCO2 (AerChemMIP:1), amip (AerChemMIP:1,CFMIP:1,HighResMIP:1,VIACSAB:1), 1pctCO2 (AerChemMIP:1), historical (AerChemMIP:1,HighResMIP:1,VIACSAB:1), piControl (AerChemMIP:1,HighResMIP:1,VIACSAB:1)"
  },
  "rsd": {
    "CCCma TS var name": "FSAD",
    "CCCma diag file": "gp",
    "CCCma hist file": "gs",
    "CCCma hist var names": "FSAD",
    "CCCma hist var frequency": "ISRAD",
    "CCCma check": "Jason",
    "CCCma comment": "cpp   rad_flux_profs, radprof_radforce_cmip6.dk",
    "MIPs (requesting)": "  AerChemMIP(1,1,1,1,1), CFMIP(1,1,1), DAMIP(1,1), GeoMIP(1,1,1), HighResMIP(1,1,1), PMIP(1,1,1,1), VIACSAB(1,1,1)",
    "experiments": "  abrupt-4xCO2 (AerChemMIP:1,CFMIP:1,GeoMIP:1), amip (AerChemMIP:1,CFMIP:1,HighResMIP:1,PMIP:1,VIACSAB:1), 1pctCO2 (AerChemMIP:1,PMIP:1,VIACSAB:1), historical (AerChemMIP:1,DAMIP:1,GeoMIP:1,HighResMIP:1,PMIP:1,VIACSAB:1), piControl (AerChemMIP:1,CFMIP:1,DAMIP:1,GeoMIP:1,HighResMIP:1,PMIP:1)"
  },
  "rsd4co2": {
    "CCCma TS var name": "SAD4",
    "CCCma diag file": "gp",
    "CCCma hist file": "gs",
    "CCCma hist var names": "SAD1",
    "CCCma hist var frequency": "ISRAD",
    "CCCma check": "Jason",
    "CCCma comment": "cpp   radforce,radprof_radforce_cmip6.dk",
    "MIPs (requesting)": "  AerChemMIP(1,1,1,1,1), CFMIP(1), HighResMIP(1,1,1)",
    "experiments": "  abrupt-4xCO2 (AerChemMIP:1), amip (AerChemMIP:1,CFMIP:1,HighResMIP:1), 1pctCO2 (AerChemMIP:1), historical (AerChemMIP:1,HighResMIP:1), piControl (AerChemMIP:1,HighResMIP:1)"
  },
  "rsdcs": {
    "CCCma TS var name": "FSCD",
    "CCCma diag file": "gp",
    "CCCma hist file": "gs",
    "CCCma hist var names": "FSCD",
    "CCCma hist var frequency": "ISRAD",
    "CCCma check": "Jason",
    "CCCma comment": "cpp   rad_flux_profs, radprof_radforce_cmip6.dk",
    "MIPs (requesting)": "  AerChemMIP(1,1,1,1,1), CFMIP(1,1,1), DAMIP(1,1), GeoMIP(1,1,1), HighResMIP(1,1,1), PMIP(1,1,1,1), VIACSAB(1,1,1)",
    "experiments": "  abrupt-4xCO2 (AerChemMIP:1,CFMIP:1,GeoMIP:1), amip (AerChemMIP:1,CFMIP:1,HighResMIP:1,PMIP:1,VIACSAB:1), 1pctCO2 (AerChemMIP:1,PMIP:1,VIACSAB:1), historical (AerChemMIP:1,DAMIP:1,GeoMIP:1,HighResMIP:1,PMIP:1,VIACSAB:1), piControl (AerChemMIP:1,CFMIP:1,DAMIP:1,GeoMIP:1,HighResMIP:1,PMIP:1)"
  },
  "rsdcs4co2": {
    "CCCma TS var name": "SCD4",
    "CCCma diag file": "gp",
    "CCCma hist file": "gs",
    "CCCma hist var names": "SCD1",
    "CCCma hist var frequency": "ISRAD",
    "CCCma check": "Jason",
    "CCCma comment": "cpp   radforce,radprof_radforce_cmip6.dk",
    "MIPs (requesting)": "  AerChemMIP(1,1,1,1,1), CFMIP(1), HighResMIP(1,1,1)",
    "experiments": "  abrupt-4xCO2 (AerChemMIP:1), amip (AerChemMIP:1,CFMIP:1,HighResMIP:1), 1pctCO2 (AerChemMIP:1), historical (AerChemMIP:1,HighResMIP:1), piControl (AerChemMIP:1,HighResMIP:1)"
  },
  "rsu": {
    "CCCma TS var name": "FSAU",
    "CCCma diag file": "gp",
    "CCCma hist file": "gs",
    "CCCma hist var names": "FSAU",
    "CCCma hist var frequency": "ISRAD",
    "CCCma check": "Jason",
    "CCCma comment": "cpp   rad_flux_profs, radprof_radforce_cmip6.dk",
    "MIPs (requesting)": "  AerChemMIP(1,1,1,1,1), CFMIP(1,1,1), DAMIP(1,1), GeoMIP(1,1,1), HighResMIP(1,1,1), PMIP(1,1,1,1), VIACSAB(1,1,1)",
    "experiments": "  abrupt-4xCO2 (AerChemMIP:1,CFMIP:1,GeoMIP:1), amip (AerChemMIP:1,CFMIP:1,HighResMIP:1,PMIP:1,VIACSAB:1), 1pctCO2 (AerChemMIP:1,PMIP:1,VIACSAB:1), historical (AerChemMIP:1,DAMIP:1,GeoMIP:1,HighResMIP:1,PMIP:1,VIACSAB:1), piControl (AerChemMIP:1,CFMIP:1,DAMIP:1,GeoMIP:1,HighResMIP:1,PMIP:1)"
  },
  "rsu4co2": {
    "CCCma TS var name": "SAU4",
    "CCCma diag file": "gp",
    "CCCma hist file": "gs",
    "CCCma hist var names": "SAU1",
    "CCCma hist var frequency": "ISRAD",
    "CCCma check": "Jason",
    "CCCma comment": "cpp   radforce,radprof_radforce_cmip6.dk",
    "MIPs (requesting)": "  AerChemMIP(1,1,1,1,1), CFMIP(1), HighResMIP(1,1,1)",
    "experiments": "  abrupt-4xCO2 (AerChemMIP:1), amip (AerChemMIP:1,CFMIP:1,HighResMIP:1), 1pctCO2 (AerChemMIP:1), historical (AerChemMIP:1,HighResMIP:1), piControl (AerChemMIP:1,HighResMIP:1)"
  },
  "rsucs": {
    "CCCma TS var name": "FSCU",
    "CCCma diag file": "gp",
    "CCCma hist file": "gs",
    "CCCma hist var names": "FSCU",
    "CCCma hist var frequency": "ISRAD",
    "CCCma check": "Jason",
    "CCCma comment": "cpp   rad_flux_profs, radprof_radforce_cmip6.dk",
    "MIPs (requesting)": "  AerChemMIP(1,1,1,1,1), CFMIP(1,1,1), DAMIP(1,1), GeoMIP(1,1,1), HighResMIP(1,1,1), PMIP(1,1,1,1), VIACSAB(1,1,1)",
    "experiments": "  abrupt-4xCO2 (AerChemMIP:1,CFMIP:1,GeoMIP:1), amip (AerChemMIP:1,CFMIP:1,HighResMIP:1,PMIP:1,VIACSAB:1), 1pctCO2 (AerChemMIP:1,PMIP:1,VIACSAB:1), historical (AerChemMIP:1,DAMIP:1,GeoMIP:1,HighResMIP:1,PMIP:1,VIACSAB:1), piControl (AerChemMIP:1,CFMIP:1,DAMIP:1,GeoMIP:1,HighResMIP:1,PMIP:1)"
  },
  "rsucs4co2": {
    "CCCma TS var name": "SCU4",
    "CCCma diag file": "gp",
    "CCCma hist file": "gs",
    "CCCma hist var names": "SCU1",
    "CCCma hist var frequency": "ISRAD",
    "CCCma check": "Jason",
    "CCCma comment": "cpp   radforce,radprof_radforce_cmip6.dk",
    "MIPs (requesting)": "  AerChemMIP(1,1,1,1,1), CFMIP(1), HighResMIP(1,1,1)",
    "experiments": "  abrupt-4xCO2 (AerChemMIP:1), amip (AerChemMIP:1,CFMIP:1,HighResMIP:1), 1pctCO2 (AerChemMIP:1), historical (AerChemMIP:1,HighResMIP:1), piControl (AerChemMIP:1,HighResMIP:1)"
  },
  "rsut4co2": {
    "CCCma TS var name": "TAS4",
    "CCCma diag file": "gp",
    "CCCma hist file": "gs",
    "CCCma hist var names": "SAU1",
    "CCCma hist var frequency": "ISRAD",
    "CCCma check": "Jason",
    "CCCma comment": "cpp   radforce,radprof_radforce_cmip6.dk",
    "MIPs (requesting)": "  AerChemMIP(1,1,1,1,1), CFMIP(1), HighResMIP(1,1,1), VIACSAB(1,1,1)",
    "experiments": "  abrupt-4xCO2 (AerChemMIP:1), amip (AerChemMIP:1,CFMIP:1,HighResMIP:1,VIACSAB:1), 1pctCO2 (AerChemMIP:1), historical (AerChemMIP:1,HighResMIP:1,VIACSAB:1), piControl (AerChemMIP:1,HighResMIP:1,VIACSAB:1)"
  },
  "rsutcs4co2": {
    "CCCma TS var name": "TCS4",
    "CCCma diag file": "gp",
    "CCCma hist file": "gs",
    "CCCma hist var names": "SCU1",
    "CCCma hist var frequency": "ISRAD",
    "CCCma check": "Jason",
    "CCCma comment": "cpp   radforce,radprof_radforce_cmip6.dk",
    "MIPs (requesting)": "  AerChemMIP(1,1,1,1,1), CFMIP(1), HighResMIP(1,1,1), VIACSAB(1,1,1)",
    "experiments": "  abrupt-4xCO2 (AerChemMIP:1), amip (AerChemMIP:1,CFMIP:1,HighResMIP:1,VIACSAB:1), 1pctCO2 (AerChemMIP:1), historical (AerChemMIP:1,HighResMIP:1,VIACSAB:1), piControl (AerChemMIP:1,HighResMIP:1,VIACSAB:1)"
  },
  "smc": {
    "CCCma TS var name": "TSMC",
    "CCCma diag file": "gp",
    "CCCma hist file": "gs",
    "CCCma hist var names": "SMC",
    "CCCma hist var frequency": "daily",
    "CCCma check": "Jason",
    "CCCma comment": "cpp   xtraconv",
    "priority": 2.0,
    "MIPs (requesting)": "  AerChemMIP(2,2,2,2,2), CFMIP(2,2,2), DAMIP(2,2), GeoMIP(2,2,2), HighResMIP(2,2,2)",
    "experiments": "  abrupt-4xCO2 (AerChemMIP:2,CFMIP:2,GeoMIP:2), amip (AerChemMIP:2,CFMIP:2,HighResMIP:2), 1pctCO2 (AerChemMIP:2), historical (AerChemMIP:2,DAMIP:2,GeoMIP:2,HighResMIP:2), piControl (AerChemMIP:2,CFMIP:2,DAMIP:2,GeoMIP:2,HighResMIP:2)"
  },
  "ta": {
    "CCCma TS var name": "T_ML",
    "CCCma diag file": "gp",
    "CCCma units": "K",
    "CCCma hist file": "ss",
    "CCCma hist var names": "TEMP",
    "CCCma hist var frequency": "Spectral at ISSP",
    "CCCma check": "Jason",
    "CCCma comment": "radprof_radforce_cmip6.dk",
    "MIPs (requesting)": "  AerChemMIP(1,1,1,1,1), CFMIP(1,1,1), DAMIP(1,1,1,1), GeoMIP(1,1,1), HighResMIP(1,1,1,2,2), VIACSAB(1,1,1)",
    "experiments": "  abrupt-4xCO2 (AerChemMIP:1,CFMIP:1,GeoMIP:1), amip (AerChemMIP:1,CFMIP:1,HighResMIP:1,VIACSAB:1,HighResMIP:2), 1pctCO2 (AerChemMIP:1,VIACSAB:1), historical (AerChemMIP:1,DAMIP:1,DAMIP:1,GeoMIP:1,HighResMIP:1,VIACSAB:1), piControl (AerChemMIP:1,CFMIP:1,DAMIP:1,DAMIP:1,GeoMIP:1,HighResMIP:1,HighResMIP:2)"
  },
  "tnhus": {
    "CCCma TS var name": "QTOT",
    "CCCma diag file": "gp",
    "CCCma hist file": "ss",
    "CCCma check": "Jason",
    "CCCma comment": "rhs_cmip6.dk",
    "MIPs (requesting)": "  AerChemMIP(1,1,1,1,1), CFMIP(1,1,1), DAMIP(1,1), GeoMIP(1,1,1), HighResMIP(1,1,1), PMIP(1,1,1,1)",
    "experiments": "  abrupt-4xCO2 (AerChemMIP:1,CFMIP:1,GeoMIP:1), amip (AerChemMIP:1,CFMIP:1,HighResMIP:1,PMIP:1), 1pctCO2 (AerChemMIP:1,PMIP:1), historical (AerChemMIP:1,DAMIP:1,GeoMIP:1,HighResMIP:1,PMIP:1), piControl (AerChemMIP:1,CFMIP:1,DAMIP:1,GeoMIP:1,HighResMIP:1,PMIP:1)"
  },
  "tnhusa": {
    "CCCma TS var name": "ESTD",
    "CCCma diag file": "gp",
    "CCCma hist file": "td",
    "CCCma hist var names": "ESTD",
    "CCCma check": "Jason",
    "CCCma comment": "cpp   dynrhs, rhs_cmip6.dk",
    "MIPs (requesting)": "  AerChemMIP(1,1,1,1,1), CFMIP(1,1,1), DAMIP(1,1), GeoMIP(1,1,1), HighResMIP(1,1,1), PMIP(1,1,1,1)",
    "experiments": "  abrupt-4xCO2 (AerChemMIP:1,CFMIP:1,GeoMIP:1), amip (AerChemMIP:1,CFMIP:1,HighResMIP:1,PMIP:1), 1pctCO2 (AerChemMIP:1,PMIP:1), historical (AerChemMIP:1,DAMIP:1,GeoMIP:1,HighResMIP:1,PMIP:1), piControl (AerChemMIP:1,CFMIP:1,DAMIP:1,GeoMIP:1,HighResMIP:1,PMIP:1)"
  },
  "tnhusc": {
    "CCCma TS var name": "QTPM QTPC",
    "CCCma diag file": "gp",
    "CCCma optional deck": "addtwo",
    "CCCma hist file": "td",
    "CCCma hist var names": "QTPM QTPC",
    "CCCma check": "Jason",
    "CCCma comment": "cpp   qprhsc, rhs_cmip6.dk, add together",
    "MIPs (requesting)": "  AerChemMIP(1,1,1,1,1), CFMIP(1,1,1), DAMIP(1,1), GeoMIP(1,1,1), HighResMIP(1,1,1,2,2), PMIP(1,1,1,1)",
    "experiments": "  abrupt-4xCO2 (AerChemMIP:1,CFMIP:1,GeoMIP:1), amip (AerChemMIP:1,CFMIP:1,HighResMIP:1,PMIP:1,HighResMIP:2), 1pctCO2 (AerChemMIP:1,PMIP:1), historical (AerChemMIP:1,DAMIP:1,GeoMIP:1,HighResMIP:1,PMIP:1), piControl (AerChemMIP:1,CFMIP:1,DAMIP:1,GeoMIP:1,HighResMIP:1,PMIP:1,HighResMIP:2)"
  },
  "tnhusd": {
    "CCCma TS var name": null,
    "CCCma diag file": null,
    "CCCma check": "N/A",
    "MIPs (requesting)": "  AerChemMIP(1,1,1,1,1), CFMIP(1,1,1), DAMIP(1,1), GeoMIP(1,1,1), HighResMIP(1,1,1), PMIP(1,1,1,1)",
    "experiments": "  abrupt-4xCO2 (AerChemMIP:1,CFMIP:1,GeoMIP:1), amip (AerChemMIP:1,CFMIP:1,HighResMIP:1,PMIP:1), 1pctCO2 (AerChemMIP:1,PMIP:1), historical (AerChemMIP:1,DAMIP:1,GeoMIP:1,HighResMIP:1,PMIP:1), piControl (AerChemMIP:1,CFMIP:1,DAMIP:1,GeoMIP:1,HighResMIP:1,PMIP:1)"
  },
  "tnhusmp": {
    "CCCma TS var name": "QTP",
    "CCCma diag file": "gp",
    "CCCma hist file": "td",
    "CCCma hist var names": "QTP",
    "CCCma check": "Jason",
    "CCCma comment": "cpp   qprhs, rhs_cmip6.dk",
    "MIPs (requesting)": "  AerChemMIP(1,1,1,1,1), CFMIP(1,1,1), DAMIP(1,1), GeoMIP(1,1,1), HighResMIP(1,1,1), PMIP(1,1,1,1)",
    "experiments": "  abrupt-4xCO2 (AerChemMIP:1,CFMIP:1,GeoMIP:1), amip (AerChemMIP:1,CFMIP:1,HighResMIP:1,PMIP:1), 1pctCO2 (AerChemMIP:1,PMIP:1), historical (AerChemMIP:1,DAMIP:1,GeoMIP:1,HighResMIP:1,PMIP:1), piControl (AerChemMIP:1,CFMIP:1,DAMIP:1,GeoMIP:1,HighResMIP:1,PMIP:1)"
  },
  "tnhusscpbl": {
    "CCCma TS var name": "QTPP QTPV",
    "CCCma diag file": "gp",
    "CCCma optional deck": "addtwo",
    "CCCma hist file": "td",
    "CCCma hist var names": "QTPP QTPV",
    "CCCma check": "Jason",
    "CCCma comment": "cpp   qprhsc, rhs_cmip6.dk",
    "MIPs (requesting)": "  AerChemMIP(1,1,1,1,1), CFMIP(1,1,1), DAMIP(1,1), GeoMIP(1,1,1), HighResMIP(1,1,1), PMIP(1,1,1,1)",
    "experiments": "  abrupt-4xCO2 (AerChemMIP:1,CFMIP:1,GeoMIP:1), amip (AerChemMIP:1,CFMIP:1,HighResMIP:1,PMIP:1), 1pctCO2 (AerChemMIP:1,PMIP:1), historical (AerChemMIP:1,DAMIP:1,GeoMIP:1,HighResMIP:1,PMIP:1), piControl (AerChemMIP:1,CFMIP:1,DAMIP:1,GeoMIP:1,HighResMIP:1,PMIP:1)"
  },
  "tnt": {
    "CCCma TS var name": "TTOT",
    "CCCma diag file": "gp",
    "CCCma check": "Jason",
    "CCCma comment": "rhs_cmip6.dk",
    "MIPs (requesting)": "  AerChemMIP(1,1,1,1,1), CFMIP(1,1,1), DAMIP(1,1), GeoMIP(1,1,1), HighResMIP(1,1,1), PMIP(1,1,1,1)",
    "experiments": "  abrupt-4xCO2 (AerChemMIP:1,CFMIP:1,GeoMIP:1), amip (AerChemMIP:1,CFMIP:1,HighResMIP:1,PMIP:1), 1pctCO2 (AerChemMIP:1,PMIP:1), historical (AerChemMIP:1,DAMIP:1,GeoMIP:1,HighResMIP:1,PMIP:1), piControl (AerChemMIP:1,CFMIP:1,DAMIP:1,GeoMIP:1,HighResMIP:1,PMIP:1)"
  },
  "tnta": {
    "CCCma TS var name": "TTD",
    "CCCma diag file": "gp",
    "CCCma hist file": "ss",
    "CCCma hist var names": "TTD",
    "CCCma check": "Jason",
    "CCCma comment": "cpp   dynrhs, rhs_cmip6.dk",
    "MIPs (requesting)": "  AerChemMIP(1,1,1,1,1), CFMIP(1,1,1), DAMIP(1,1), GeoMIP(1,1,1), HighResMIP(1,1,1), PMIP(1,1,1,1)",
    "experiments": "  abrupt-4xCO2 (AerChemMIP:1,CFMIP:1,GeoMIP:1), amip (AerChemMIP:1,CFMIP:1,HighResMIP:1,PMIP:1), 1pctCO2 (AerChemMIP:1,PMIP:1), historical (AerChemMIP:1,DAMIP:1,GeoMIP:1,HighResMIP:1,PMIP:1), piControl (AerChemMIP:1,CFMIP:1,DAMIP:1,GeoMIP:1,HighResMIP:1,PMIP:1)"
  },
  "tntc": {
    "CCCma TS var name": "TTPM TTPC",
    "CCCma diag file": "gp",
    "CCCma optional deck": "addtwo",
    "CCCma hist file": "td",
    "CCCma hist var names": "TTPM TTPC",
    "CCCma check": "Jason",
    "CCCma comment": "cpp   tprhsc, rhs_cmip6.dk, add together",
    "MIPs (requesting)": "  AerChemMIP(1,1,1,1,1), CFMIP(1,1,1), DAMIP(1,1), GeoMIP(1,1,1), HighResMIP(1,1,1,2,2), PMIP(1,1,1,1)",
    "experiments": "  abrupt-4xCO2 (AerChemMIP:1,CFMIP:1,GeoMIP:1), amip (AerChemMIP:1,CFMIP:1,HighResMIP:1,PMIP:1,HighResMIP:2), 1pctCO2 (AerChemMIP:1,PMIP:1), historical (AerChemMIP:1,DAMIP:1,GeoMIP:1,HighResMIP:1,PMIP:1), piControl (AerChemMIP:1,CFMIP:1,DAMIP:1,GeoMIP:1,HighResMIP:1,PMIP:1,HighResMIP:2)"
  },
  "tntmp": {
    "CCCma TS var name": "TTP",
    "CCCma diag file": "gp",
    "CCCma hist file": "td",
    "CCCma hist var names": "TTP",
    "CCCma check": "Jason",
    "CCCma comment": "cpp   tprhs, rhs_cmip6.dk",
    "MIPs (requesting)": "  AerChemMIP(1,1,1,1,1), CFMIP(1,1,1), DAMIP(1,1), GeoMIP(1,1,1), HighResMIP(1,1,1), PMIP(1,1,1,1)",
    "experiments": "  abrupt-4xCO2 (AerChemMIP:1,CFMIP:1,GeoMIP:1), amip (AerChemMIP:1,CFMIP:1,HighResMIP:1,PMIP:1), 1pctCO2 (AerChemMIP:1,PMIP:1), historical (AerChemMIP:1,DAMIP:1,GeoMIP:1,HighResMIP:1,PMIP:1), piControl (AerChemMIP:1,CFMIP:1,DAMIP:1,GeoMIP:1,HighResMIP:1,PMIP:1)"
  },
  "tntr": {
    "CCCma TS var name": "TTPS TTPL",
    "CCCma diag file": "gp",
    "CCCma optional deck": "addtwo",
    "CCCma hist file": "td",
    "CCCma hist var names": "TTPS TTPL",
    "CCCma check": "Jason",
    "CCCma comment": "cpp   tprhsc, rhs_cmip6.dk",
    "MIPs (requesting)": "  AerChemMIP(1,1,1,1,1), CFMIP(1,1,1), DAMIP(1,1), GeoMIP(1,1,1), HighResMIP(1,1,1,2,2), PMIP(1,1,1,1)",
    "experiments": "  abrupt-4xCO2 (AerChemMIP:1,CFMIP:1,GeoMIP:1), amip (AerChemMIP:1,CFMIP:1,HighResMIP:1,PMIP:1,HighResMIP:2), 1pctCO2 (AerChemMIP:1,PMIP:1), historical (AerChemMIP:1,DAMIP:1,GeoMIP:1,HighResMIP:1,PMIP:1), piControl (AerChemMIP:1,CFMIP:1,DAMIP:1,GeoMIP:1,HighResMIP:1,PMIP:1,HighResMIP:2)"
  },
  "tntscpbl": {
    "CCCma TS var name": "TTPP TTPV",
    "CCCma diag file": "gp",
    "CCCma optional deck": "addtwo",
    "CCCma hist file": "td",
    "CCCma hist var names": "TTPP TTPV",
    "CCCma check": "Jason",
    "CCCma comment": "cpp   tprhsc, rhs_cmip6.dk",
    "MIPs (requesting)": "  AerChemMIP(1,1,1,1,1), CFMIP(1,1,1), DAMIP(1,1), GeoMIP(1,1,1), HighResMIP(1,1,1), PMIP(1,1,1,1)",
    "experiments": "  abrupt-4xCO2 (AerChemMIP:1,CFMIP:1,GeoMIP:1), amip (AerChemMIP:1,CFMIP:1,HighResMIP:1,PMIP:1), 1pctCO2 (AerChemMIP:1,PMIP:1), historical (AerChemMIP:1,DAMIP:1,GeoMIP:1,HighResMIP:1,PMIP:1), piControl (AerChemMIP:1,CFMIP:1,DAMIP:1,GeoMIP:1,HighResMIP:1,PMIP:1)"
  }
}