{
  "areacello": {
    "CCCma TS var name": "areacello ",
    "CCCma diag file": "1y_grid_t",
    "CCCma units": " m2 ",
    "CCCma hist file": "1y_grid_t",
    "CCCma check": "DY ",
    "CCCma comment": "1. Consistency between the document and nemo code checked by DY (only for the tracer cell, see the guide paper p3253; set key_diaar5; e1t * e2t * tmask_i, area for (:,jmt), (1,:) and (imt,:) is already set to zeros); computing online is to account for the potential mask changes. 2. Post-processing: (1) should store in each data files. ",
    "MIPs (requesting)": "  CMIP(1,1,1,1,1,1), DCPP(1), OMIP(1,1,1,1), PAMIP(1), PMIP(1,1,1,1,1), VIACSAB(1,1,1,1,1,1)",
    "experiments": "  abrupt-4xCO2 (CMIP:1,CMIP:1,OMIP:1,PMIP:1), amip (CMIP:1,PMIP:1,VIACSAB:1), 1pctCO2 (CMIP:1,OMIP:1,PMIP:1,VIACSAB:1), historical (CMIP:1,DCPP:1,OMIP:1,PAMIP:1,PMIP:1,VIACSAB:1,VIACSAB:1), piControl (CMIP:1,OMIP:1,PMIP:1,VIACSAB:1,VIACSAB:1)"
  },
  "basin": {
    "CCCma TS var name": "areacello",
    "CCCma diag file": "1y_grid_t",
    "CCCma optional deck": "cmor_basin",
    "CCCma units": " ",
    "CCCma check": "on T,U,V grids? DY",
    "CCCma comment": "1. The file on T grid is downloaded from PCMDI website (CNRM-CM5) with MB's help, /rc40/data/ORCA/ORCA1/pcmdi_ar5_fx/basin_fx_CNRM-CM5-2_1pctCO2_r0i0p0.nc, DY. 2. Post-processing: \"For some grid staggering, the tracer mask differs from the velocity mask, in which case a mask for the velocity cells should be provided to the CMIP6 archive as a distinct output variable, with  the  same  standard  name  of  region.  The  two variables are distinguished in netCDF by their coordinates, one  being  on  the  tracer  grid  and  the  other  on  the  velocity grid.\". In our NEMO case, we will have U and V grids in addition to the T grid, DY. Please comment!",
    "CCCma NetCDF comment": "Only available on T grid.",
    "MIPs (requesting)": "  CFMIP(1,1,1,1,1), CMIP(1,1,1,1,1,1), DCPP(1), OMIP(1,1,1,1), PAMIP(1), PMIP(1,1,1,1,1), VIACSAB(1,1,1)",
    "experiments": "  abrupt-4xCO2 (CFMIP:1,CMIP:1,CMIP:1,OMIP:1,PMIP:1), amip (CFMIP:1,CMIP:1,PMIP:1,VIACSAB:1), 1pctCO2 (CFMIP:1,CMIP:1,OMIP:1,PMIP:1,VIACSAB:1), historical (CFMIP:1,CMIP:1,DCPP:1,OMIP:1,PAMIP:1,PMIP:1,VIACSAB:1), piControl (CFMIP:1,CMIP:1,OMIP:1,PMIP:1)"
  },
  "deptho": {
    "CCCma TS var name": "areacello",
    "CCCma diag file": "1y_grid_t",
    "CCCma optional deck": "e3tmlttmask_integral",
    "CCCma units": " m",
    "CCCma hist file": " ",
    "CCCma check": "DY",
    "CCCma comment": "1. Consistency between the document and nemo code checked by DY (on tracer grid). 2. Post-processing: (1) vertical sums of (e3t*tmask) from surface to bottom.",
    "MIPs (requesting)": "  CMIP(1,1,1,1,1,1), DCPP(1), OMIP(1,1,1,1), PAMIP(1), PMIP(1,1,1,1,1), VIACSAB(1,1,1,1,1,1)",
    "experiments": "  abrupt-4xCO2 (CMIP:1,CMIP:1,OMIP:1,PMIP:1), amip (CMIP:1,PMIP:1,VIACSAB:1), 1pctCO2 (CMIP:1,OMIP:1,PMIP:1,VIACSAB:1), historical (CMIP:1,DCPP:1,OMIP:1,PAMIP:1,PMIP:1,VIACSAB:1,VIACSAB:1), piControl (CMIP:1,OMIP:1,PMIP:1,VIACSAB:1,VIACSAB:1)"
  },
  "hfgeou": {
    "CCCma TS var name": null,
    "CCCma diag file": null,
    "CCCma check": "zeros, do not provide, DY",
    "CCCma comment": "zeros",
    "MIPs (requesting)": "  CMIP(1,1,1,1,1,1,2,2,2,2,2), DCPP(2), OMIP(1,1,1,1), PAMIP(2), PMIP(2,2,2,2,2)",
    "experiments": "  abrupt-4xCO2 (CMIP:1,CMIP:1,OMIP:1,CMIP:2,PMIP:2), amip (CMIP:1,CMIP:2,PMIP:2), 1pctCO2 (CMIP:1,OMIP:1,CMIP:2,PMIP:2), historical (CMIP:1,OMIP:1,CMIP:2,DCPP:2,PAMIP:2,PMIP:2), piControl (CMIP:1,OMIP:1,CMIP:2,PMIP:2)"
  },
  "masscello": {
    "CCCma TS var name": "thkcello",
    "CCCma diag file": "1y_grid_t",
    "CCCma optional deck": "mltbyrhozero",
    "CCCma units": " m",
    "CCCma hist file": "1y_grid_t ",
    "CCCma check": "DY",
    "CCCma comment": "1. The post-processing procedure is based on the document checked by DY (only on tracer grid, see the guide paper p3243; set key_diaar5). 2. Post-processing: (1) thkcello * rhozero.",
    "CCCma NetCDF comment": "rhozero = 1035 kg/m3",
    "MIPs (requesting)": "  CMIP(1,1,1,1,1,1), OMIP(1,1,1,1)",
    "experiments": "  abrupt-4xCO2 (CMIP:1,CMIP:1,OMIP:1), amip (CMIP:1), 1pctCO2 (CMIP:1,OMIP:1), historical (CMIP:1,OMIP:1), piControl (CMIP:1,OMIP:1)"
  },
  "sftof": {
    "CCCma TS var name": "areacello",
    "CCCma diag file": "1y_grid_t",
    "CCCma optional deck": "depth_l1_tmask_mltby100",
    "CCCma units": 1.0,
    "CCCma check": "on T,U,V grids? DY",
    "MIPs (requesting)": "  CMIP(1,1,1,1,1,1), DCPP(1), OMIP(1,1,1,1), PAMIP(1), PMIP(1,1,1,1,1), VIACSAB(1,1,1,1,1)",
    "experiments": "  abrupt-4xCO2 (CMIP:1,CMIP:1,OMIP:1,PMIP:1), amip (CMIP:1,PMIP:1,VIACSAB:1), 1pctCO2 (CMIP:1,OMIP:1,PMIP:1,VIACSAB:1), historical (CMIP:1,DCPP:1,OMIP:1,PAMIP:1,PMIP:1,VIACSAB:1,VIACSAB:1), piControl (CMIP:1,OMIP:1,PMIP:1,VIACSAB:1)"
  },
  "thkcello": {
    "CCCma TS var name": "thkcello",
    "CCCma diag file": "1y_grid_t",
    "CCCma units": "m",
    "CCCma hist file": "1y_grid_t",
    "CCCma check": "DY",
    "CCCma comment": "1. Consistency between the document and nemo code checked by DY (set key_diaar5, fse3t). ",
    "MIPs (requesting)": "  CMIP(1,1,1,1,1,2,2,2,2,2), DCPP(2), PAMIP(2), PMIP(2,2,2,2,2), VIACSAB(1,1,1)",
    "experiments": "  abrupt-4xCO2 (CMIP:1,CMIP:2,PMIP:2), amip (CMIP:1,VIACSAB:1,CMIP:2,PMIP:2), 1pctCO2 (CMIP:1,VIACSAB:1,CMIP:2,PMIP:2), historical (CMIP:1,VIACSAB:1,CMIP:2,DCPP:2,PAMIP:2,PMIP:2), piControl (CMIP:1,CMIP:2,PMIP:2)"
  },
  "ugrido": {
    "CCCma TS var name": null,
    "CCCma diag file": null,
    "CCCma hist file": "N/A",
    "CCCma check": "N/A, DY",
    "MIPs (requesting)": "  CMIP(1,1,1,1,1)",
    "experiments": "  abrupt-4xCO2 (CMIP:1), amip (CMIP:1), 1pctCO2 (CMIP:1), historical (CMIP:1), piControl (CMIP:1)"
  },
  "volcello": {
    "CCCma TS var name": "thkcello areacello",
    "CCCma diag file": "1y_grid_t",
    "CCCma optional deck": "var3dmltvar2d",
    "CCCma units": "m2 m",
    "CCCma hist file": "1y_grid_t",
    "CCCma check": "DY",
    "CCCma comment": "Post-processing: (1) thkcello * areacello.",
    "MIPs (requesting)": "  AerChemMIP(1,1,1,1), CMIP(1,1,1,1,1,1), DCPP(1), GeoMIP(1,1,1), OMIP(1,1,1,1), PAMIP(1), PMIP(1,1,1,1,1), VIACSAB(1,1,1,1,1,1)",
    "experiments": "  abrupt-4xCO2 (AerChemMIP:1,CMIP:1,CMIP:1,GeoMIP:1,OMIP:1,PMIP:1), amip (CMIP:1,PMIP:1,VIACSAB:1), 1pctCO2 (AerChemMIP:1,CMIP:1,OMIP:1,PMIP:1,VIACSAB:1), historical (AerChemMIP:1,CMIP:1,DCPP:1,GeoMIP:1,OMIP:1,PAMIP:1,PMIP:1,VIACSAB:1,VIACSAB:1), piControl (AerChemMIP:1,CMIP:1,GeoMIP:1,OMIP:1,PMIP:1,VIACSAB:1,VIACSAB:1)"
  }
}