{
  "albisccp": {
    "CCCma TS var name": "ICCA ICCF",
    "CCCma diag file": "dd",
    "CCCma optional deck": "cospmask",
    "CCCma hist file": "gs",
    "CCCma hist var names": "ICCA ICCF",
    "CCCma hist var frequency": "ISRAD",
    "CCCma check": "Jason",
    "CCCma comment": "cpp  use_cosp, COSP namelist",
    "MIPs (requesting)": "  CFMIP(1,1,1,1,1), HighResMIP(1,1,1)",
    "experiments": "  abrupt-4xCO2 (CFMIP:1), amip (CFMIP:1,HighResMIP:1), 1pctCO2 (CFMIP:1), historical (CFMIP:1,HighResMIP:1), piControl (CFMIP:1,HighResMIP:1)"
  },
  "ccb": {
    "CCCma TS var name": "BCD CDCB",
    "CCCma diag file": "dd",
    "CCCma optional deck": "maskcdcb",
    "CCCma hist file": "gs",
    "CCCma hist var names": "BCD CDCB",
    "CCCma hist var frequency": "ISRAD",
    "CCCma check": "Jason",
    "CCCma comment": "cpp   xtraconv",
    "MIPs (requesting)": "  CFMIP(1,1,1,1,1), HighResMIP(1,1,1)",
    "experiments": "  abrupt-4xCO2 (CFMIP:1), amip (CFMIP:1,HighResMIP:1), 1pctCO2 (CFMIP:1), historical (CFMIP:1,HighResMIP:1), piControl (CFMIP:1,HighResMIP:1)"
  },
  "cct": {
    "CCCma TS var name": "TCD CDCB",
    "CCCma diag file": "dd",
    "CCCma optional deck": "maskcdcb",
    "CCCma hist file": "gs",
    "CCCma hist var names": "TCD CDCB",
    "CCCma hist var frequency": "ISRAD",
    "CCCma check": "Jason",
    "CCCma comment": "cpp   xtraconv",
    "MIPs (requesting)": "  CFMIP(1,1,1,1,1), HighResMIP(1,1,1)",
    "experiments": "  abrupt-4xCO2 (CFMIP:1), amip (CFMIP:1,HighResMIP:1), 1pctCO2 (CFMIP:1), historical (CFMIP:1,HighResMIP:1), piControl (CFMIP:1,HighResMIP:1)"
  },
  "cl": {
    "CCCma TS var name": "CLD",
    "CCCma diag file": "dsd",
    "CCCma optional deck": "mltby100",
    "CCCma hist file": "gs",
    "CCCma hist var names": "CLD",
    "CCCma hist var frequency": "ISGG",
    "CCCma check": "Jason",
    "MIPs (requesting)": "  CFMIP(1), HighResMIP(1,1,1)",
    "experiments": "  piControl (HighResMIP:1), historical (HighResMIP:1), amip (CFMIP:1,HighResMIP:1)"
  },
  "clcalipso": {
    "CCCma TS var name": "CLCP CLCM",
    "CCCma diag file": "dsd",
    "CCCma optional deck": "cospmask",
    "CCCma hist file": "gs",
    "CCCma hist var names": "CLCP CLCM",
    "CCCma hist var frequency": "ISRAD",
    "CCCma check": "Jason",
    "CCCma comment": "cpp   use_cosp, COSP namelist",
    "MIPs (requesting)": "  CFMIP(1), HighResMIP(1,1,1)",
    "experiments": "  piControl (HighResMIP:1), historical (HighResMIP:1), amip (CFMIP:1,HighResMIP:1)"
  },
  "clhcalipso": {
    "CCCma TS var name": "CLHC CLHM",
    "CCCma diag file": "dd",
    "CCCma optional deck": "cospmask",
    "CCCma hist file": "gs",
    "CCCma hist var names": "CLHC CLHM",
    "CCCma hist var frequency": "ISRAD",
    "CCCma check": "Jason",
    "CCCma comment": "cpp   use_cosp, COSP namelist",
    "MIPs (requesting)": "  CFMIP(1,1,1,1,1), HighResMIP(1,1,1)",
    "experiments": "  abrupt-4xCO2 (CFMIP:1), amip (CFMIP:1,HighResMIP:1), 1pctCO2 (CFMIP:1), historical (CFMIP:1,HighResMIP:1), piControl (CFMIP:1,HighResMIP:1)"
  },
  "cli": {
    "CCCma TS var name": "CIC",
    "CCCma diag file": "dsd",
    "CCCma hist file": "gs",
    "CCCma hist var names": "CIC",
    "CCCma hist var frequency": "ISGG",
    "CCCma check": "Jason",
    "MIPs (requesting)": "  CFMIP(1), HighResMIP(1,1,1)",
    "experiments": "  piControl (HighResMIP:1), historical (HighResMIP:1), amip (CFMIP:1,HighResMIP:1)"
  },
  "clisccp": {
    "CCCma TS var name": "ICTP SUNL",
    "CCCma diag file": "dd",
    "CCCma optional deck": "cospmask_prestau_v2",
    "CCCma hist file": "gs",
    "CCCma hist var names": "ICTP SUNL",
    "CCCma hist var frequency": "ISRAD",
    "CCCma check": "Jason",
    "CCCma comment": "cpp   use_cosp, COSP namelist",
    "MIPs (requesting)": "  CFMIP(1), HighResMIP(1,1,1)",
    "experiments": "  piControl (HighResMIP:1), historical (HighResMIP:1), amip (CFMIP:1,HighResMIP:1)"
  },
  "clivi": {
    "CCCma TS var name": "CICT",
    "CCCma diag file": "dd",
    "CCCma hist file": "gs",
    "CCCma hist var names": "CICT",
    "CCCma hist var frequency": "ISRAD",
    "CCCma check": "Jason",
    "MIPs (requesting)": "  CFMIP(1,1,1,1,1), HighResMIP(1,1,1)",
    "experiments": "  abrupt-4xCO2 (CFMIP:1), amip (CFMIP:1,HighResMIP:1), 1pctCO2 (CFMIP:1), historical (CFMIP:1,HighResMIP:1), piControl (CFMIP:1,HighResMIP:1)"
  },
  "cllcalipso": {
    "CCCma TS var name": "CLLC CLLM",
    "CCCma diag file": "dd",
    "CCCma optional deck": "cospmask",
    "CCCma hist file": "gs",
    "CCCma hist var names": "CLLC CLLM",
    "CCCma hist var frequency": "ISRAD",
    "CCCma check": "Jason",
    "CCCma comment": "cpp   use_cosp, COSP namelist",
    "MIPs (requesting)": "  CFMIP(1,1,1,1,1), HighResMIP(1,1,1)",
    "experiments": "  abrupt-4xCO2 (CFMIP:1), amip (CFMIP:1,HighResMIP:1), 1pctCO2 (CFMIP:1), historical (CFMIP:1,HighResMIP:1), piControl (CFMIP:1,HighResMIP:1)"
  },
  "clmcalipso": {
    "CCCma TS var name": "CLMC CLMM",
    "CCCma diag file": "dd",
    "CCCma optional deck": "cospmask",
    "CCCma hist file": "gs",
    "CCCma hist var names": "CLMC CLMM",
    "CCCma hist var frequency": "ISRAD",
    "CCCma check": "Jason",
    "CCCma comment": "cpp   use_cosp, COSP namelist",
    "MIPs (requesting)": "  CFMIP(1,1,1,1,1), HighResMIP(1,1,1)",
    "experiments": "  abrupt-4xCO2 (CFMIP:1), amip (CFMIP:1,HighResMIP:1), 1pctCO2 (CFMIP:1), historical (CFMIP:1,HighResMIP:1), piControl (CFMIP:1,HighResMIP:1)"
  },
  "cltcalipso": {
    "CCCma TS var name": "CLTC CLTM",
    "CCCma diag file": "dd",
    "CCCma optional deck": "cospmask",
    "CCCma hist file": "gs",
    "CCCma hist var names": "CLTC CLTM",
    "CCCma hist var frequency": "ISRAD",
    "CCCma check": "Jason",
    "CCCma comment": "cpp   use_cosp, COSP namelist",
    "MIPs (requesting)": "  CFMIP(1,1,1,1,1), HighResMIP(1,1,1)",
    "experiments": "  abrupt-4xCO2 (CFMIP:1), amip (CFMIP:1,HighResMIP:1), 1pctCO2 (CFMIP:1), historical (CFMIP:1,HighResMIP:1), piControl (CFMIP:1,HighResMIP:1)"
  },
  "cltisccp": {
    "CCCma TS var name": "ICCF SUNL",
    "CCCma diag file": "dd",
    "CCCma optional deck": "cospmask",
    "CCCma hist file": "gs",
    "CCCma hist var names": "ICCF SUNL",
    "CCCma hist var frequency": "ISRAD",
    "CCCma check": "Jason",
    "CCCma comment": "cpp   use_cosp, COSP namelist",
    "MIPs (requesting)": "  CFMIP(1,1,1,1,1), HighResMIP(1,1,1)",
    "experiments": "  abrupt-4xCO2 (CFMIP:1), amip (CFMIP:1,HighResMIP:1), 1pctCO2 (CFMIP:1), historical (CFMIP:1,HighResMIP:1), piControl (CFMIP:1,HighResMIP:1)"
  },
  "clw": {
    "CCCma TS var name": "CLW",
    "CCCma diag file": "dsd",
    "CCCma hist file": "gs",
    "CCCma hist var names": "CLW",
    "CCCma hist var frequency": "ISGG",
    "CCCma check": "Jason",
    "MIPs (requesting)": "  CFMIP(1), HighResMIP(1,1,1)",
    "experiments": "  piControl (HighResMIP:1), historical (HighResMIP:1), amip (CFMIP:1,HighResMIP:1)"
  },
  "clwvi": {
    "CCCma TS var name": "CLWT CICT",
    "CCCma diag file": "dd",
    "CCCma optional deck": "addtwo",
    "CCCma hist file": "gs",
    "CCCma hist var names": "CLWT CICT",
    "CCCma hist var frequency": "ISRAD",
    "CCCma check": "Jason",
    "MIPs (requesting)": "  CFMIP(1,1,1,1,1), HighResMIP(1,1,1)",
    "experiments": "  abrupt-4xCO2 (CFMIP:1), amip (CFMIP:1,HighResMIP:1), 1pctCO2 (CFMIP:1), historical (CFMIP:1,HighResMIP:1), piControl (CFMIP:1,HighResMIP:1)"
  },
  "hur": {
    "CCCma TS var name": "RH",
    "CCCma diag file": "dsd",
    "CCCma optional deck": "mltby100",
    "CCCma hist var names": "RH",
    "CCCma hist var frequency": "ISGG",
    "CCCma check": "Jason",
    "CCCma comment": "Computed in diagnostics",
    "MIPs (requesting)": "  CFMIP(1), HighResMIP(1,1,1)",
    "experiments": "  piControl (HighResMIP:1), historical (HighResMIP:1), amip (CFMIP:1,HighResMIP:1)"
  },
  "hus": {
    "CCCma TS var name": "SHUM",
    "CCCma diag file": "dsd",
    "CCCma hist file": "ss",
    "CCCma hist var names": "Q",
    "CCCma hist var frequency": "ISSP",
    "CCCma check": "Jason",
    "MIPs (requesting)": "  CFMIP(1), HighResMIP(1,1,1)",
    "experiments": "  piControl (HighResMIP:1), historical (HighResMIP:1), amip (CFMIP:1,HighResMIP:1)"
  },
  "mc": {
    "CCCma TS var name": "DMC",
    "CCCma diag file": "dsd",
    "CCCma hist file": "gs",
    "CCCma hist var names": "DMC",
    "CCCma hist var frequency": "ISRAD",
    "CCCma check": "Jason",
    "MIPs (requesting)": "  CFMIP(1), HighResMIP(1,1,1)",
    "experiments": "  piControl (HighResMIP:1), historical (HighResMIP:1), amip (CFMIP:1,HighResMIP:1)"
  },
  "pctisccp": {
    "CCCma TS var name": "ICCP ICCF",
    "CCCma diag file": "dd",
    "CCCma optional deck": "cospmask",
    "CCCma hist file": "gs",
    "CCCma hist var names": "ICCP ICCF",
    "CCCma hist var frequency": "ISRAD",
    "CCCma check": "Jason",
    "CCCma comment": "cpp   use_cosp, COSP namelist",
    "MIPs (requesting)": "  CFMIP(1,1,1,1,1), HighResMIP(1,1,1)",
    "experiments": "  abrupt-4xCO2 (CFMIP:1), amip (CFMIP:1,HighResMIP:1), 1pctCO2 (CFMIP:1), historical (CFMIP:1,HighResMIP:1), piControl (CFMIP:1,HighResMIP:1)"
  },
  "pfull": {
    "CCCma TS var name": null,
    "CCCma diag file": null,
    "MIPs (requesting)": "  CFMIP(1), HighResMIP(1,1,1)",
    "experiments": "  piControl (HighResMIP:1), historical (HighResMIP:1), amip (CFMIP:1,HighResMIP:1)"
  },
  "phalf": {
    "CCCma TS var name": null,
    "CCCma diag file": null,
    "MIPs (requesting)": "  CFMIP(1), HighResMIP(1,1,1)",
    "experiments": "  piControl (HighResMIP:1), historical (HighResMIP:1), amip (CFMIP:1,HighResMIP:1)"
  },
  "ps": {
    "CCCma TS var name": "PS",
    "CCCma diag file": "dsd",
    "CCCma optional deck": "mltby100",
    "CCCma check": "Jason",
    "MIPs (requesting)": "  AerChemMIP(1,1), CFMIP(1,1,1,1,1), HighResMIP(1,1,1), VolMIP(1)",
    "experiments": "  abrupt-4xCO2 (CFMIP:1), amip (AerChemMIP:1,CFMIP:1,HighResMIP:1), 1pctCO2 (CFMIP:1), historical (AerChemMIP:1,CFMIP:1,HighResMIP:1), piControl (CFMIP:1,HighResMIP:1,VolMIP:1)"
  },
  "rldscs": {
    "CCCma TS var name": "FDLC",
    "CCCma diag file": "dd",
    "CCCma hist file": "gs",
    "CCCma hist var names": "FDLC",
    "CCCma hist var frequency": "ISRAD",
    "CCCma check": "Jason",
    "MIPs (requesting)": "  CFMIP(1,1,1,1,1), HighResMIP(1,1,1)",
    "experiments": "  abrupt-4xCO2 (CFMIP:1), amip (CFMIP:1,HighResMIP:1), 1pctCO2 (CFMIP:1), historical (CFMIP:1,HighResMIP:1), piControl (CFMIP:1,HighResMIP:1)"
  },
  "rlutcs": {
    "CCCma TS var name": "OLRC",
    "CCCma diag file": "dd",
    "CCCma hist file": "gs",
    "CCCma hist var names": "OLRC",
    "CCCma hist var frequency": "ISRAD",
    "CCCma check": "Jason",
    "MIPs (requesting)": "  CFMIP(1,1,1,1,1), HighResMIP(1,1,1)",
    "experiments": "  abrupt-4xCO2 (CFMIP:1), amip (CFMIP:1,HighResMIP:1), 1pctCO2 (CFMIP:1), historical (CFMIP:1,HighResMIP:1), piControl (CFMIP:1,HighResMIP:1)"
  },
  "rsdscs": {
    "CCCma TS var name": "FSSC",
    "CCCma diag file": "dd",
    "CCCma hist file": "gs",
    "CCCma hist var names": "FSSC",
    "CCCma hist var frequency": "ISRAD",
    "CCCma check": "Jason",
    "MIPs (requesting)": "  AerChemMIP(1,1), CFMIP(1,1,1,1,1), HighResMIP(1,1,1)",
    "experiments": "  abrupt-4xCO2 (CFMIP:1), amip (AerChemMIP:1,CFMIP:1,HighResMIP:1), 1pctCO2 (CFMIP:1), historical (AerChemMIP:1,CFMIP:1,HighResMIP:1), piControl (CFMIP:1,HighResMIP:1)"
  },
  "rsdt": {
    "CCCma TS var name": "FSO",
    "CCCma diag file": "dd",
    "CCCma hist file": "gs",
    "CCCma hist var names": "FSO",
    "CCCma hist var frequency": "ISRAD",
    "CCCma check": "Jason",
    "MIPs (requesting)": "  CFMIP(1,1,1,1,1), DCPP(3), HighResMIP(1,1,1), PAMIP(3)",
    "experiments": "  abrupt-4xCO2 (CFMIP:1), amip (CFMIP:1,HighResMIP:1), 1pctCO2 (CFMIP:1), historical (CFMIP:1,HighResMIP:1,DCPP:3,PAMIP:3), piControl (CFMIP:1,HighResMIP:1)"
  },
  "rsuscs": {
    "CCCma TS var name": "FSSC FSGC",
    "CCCma diag file": "dd",
    "CCCma optional deck": "subtract",
    "CCCma hist file": "gs",
    "CCCma hist var names": "FSSC FSGC",
    "CCCma hist var frequency": "ISRAD",
    "CCCma check": "Jason",
    "MIPs (requesting)": "  CFMIP(1,1,1,1,1), HighResMIP(1,1,1)",
    "experiments": "  abrupt-4xCO2 (CFMIP:1), amip (CFMIP:1,HighResMIP:1), 1pctCO2 (CFMIP:1), historical (CFMIP:1,HighResMIP:1), piControl (CFMIP:1,HighResMIP:1)"
  },
  "rsut": {
    "CCCma TS var name": "FSR",
    "CCCma diag file": "dd",
    "CCCma hist file": "gs",
    "CCCma hist var names": "FSR",
    "CCCma hist var frequency": "ISRAD",
    "CCCma check": "Jason",
    "MIPs (requesting)": "  CFMIP(1,1,1,1,1), DCPP(3), HighResMIP(1,1,1), PAMIP(3)",
    "experiments": "  abrupt-4xCO2 (CFMIP:1), amip (CFMIP:1,HighResMIP:1), 1pctCO2 (CFMIP:1), historical (CFMIP:1,HighResMIP:1,DCPP:3,PAMIP:3), piControl (CFMIP:1,HighResMIP:1)"
  },
  "rsutcs": {
    "CCCma TS var name": "FSRC",
    "CCCma diag file": "dd",
    "CCCma hist file": "gs",
    "CCCma hist var names": "FSRC",
    "CCCma hist var frequency": "ISRAD",
    "CCCma check": "Jason",
    "MIPs (requesting)": "  CFMIP(1,1,1,1,1), HighResMIP(1,1,1)",
    "experiments": "  abrupt-4xCO2 (CFMIP:1), amip (CFMIP:1,HighResMIP:1), 1pctCO2 (CFMIP:1), historical (CFMIP:1,HighResMIP:1), piControl (CFMIP:1,HighResMIP:1)"
  },
  "ta": {
    "CCCma TS var name": "TEMP",
    "CCCma diag file": "dsd",
    "CCCma hist file": "ss",
    "CCCma hist var names": "TEMP",
    "CCCma hist var frequency": "ISSP",
    "CCCma check": "Jason",
    "MIPs (requesting)": "  CFMIP(1), HighResMIP(1,1,1)",
    "experiments": "  piControl (HighResMIP:1), historical (HighResMIP:1), amip (CFMIP:1,HighResMIP:1)"
  },
  "ta700": {
    "CCCma TS var name": "TEMP",
    "CCCma diag file": "dp",
    "CCCma hist file": "ss",
    "CCCma hist var names": "TEMP",
    "CCCma hist var frequency": "ISSP",
    "CCCma check": "Jason",
    "MIPs (requesting)": "  CFMIP(1,1,1,1,1), HighResMIP(1,1,1)",
    "experiments": "  abrupt-4xCO2 (CFMIP:1), amip (CFMIP:1,HighResMIP:1), 1pctCO2 (CFMIP:1), historical (CFMIP:1,HighResMIP:1), piControl (CFMIP:1,HighResMIP:1)"
  },
  "ua": {
    "CCCma TS var name": "U",
    "CCCma diag file": "dsd",
    "CCCma hist file": "ss",
    "CCCma hist var names": "P C",
    "CCCma hist var frequency": "ISSP",
    "CCCma check": "Jason",
    "MIPs (requesting)": "  CFMIP(1), HighResMIP(1,1,1)",
    "experiments": "  piControl (HighResMIP:1), historical (HighResMIP:1), amip (CFMIP:1,HighResMIP:1)"
  },
  "va": {
    "CCCma TS var name": "V",
    "CCCma diag file": "dsd",
    "CCCma hist file": "ss",
    "CCCma hist var names": "P C",
    "CCCma hist var frequency": "ISSP",
    "CCCma check": "Jason",
    "MIPs (requesting)": "  CFMIP(1), HighResMIP(1,1,1)",
    "experiments": "  piControl (HighResMIP:1), historical (HighResMIP:1), amip (CFMIP:1,HighResMIP:1)"
  },
  "wap": {
    "CCCma TS var name": "OMET",
    "CCCma diag file": "dsd",
    "CCCma hist file": "gs",
    "CCCma hist var names": "OMET",
    "CCCma hist var frequency": "ISGG",
    "CCCma check": "Jason",
    "MIPs (requesting)": "  CFMIP(1), HighResMIP(1,1,1)",
    "experiments": "  piControl (HighResMIP:1), historical (HighResMIP:1), amip (CFMIP:1,HighResMIP:1)"
  },
  "wap500": {
    "CCCma TS var name": "OMEG",
    "CCCma diag file": "dp",
    "CCCma hist file": "gs",
    "CCCma hist var names": "OMEG",
    "CCCma hist var frequency": "ISGG",
    "CCCma check": "Jason",
    "MIPs (requesting)": "  CFMIP(1,1,1,1,1), HighResMIP(1,1,1), PMIP(1,1,1,1)",
    "experiments": "  abrupt-4xCO2 (CFMIP:1), amip (CFMIP:1,HighResMIP:1,PMIP:1), 1pctCO2 (CFMIP:1,PMIP:1), historical (CFMIP:1,HighResMIP:1,PMIP:1), piControl (CFMIP:1,HighResMIP:1,PMIP:1)"
  },
  "zg": {
    "CCCma TS var name": "PHI",
    "CCCma diag file": "dsd",
    "CCCma optional deck": "divbyg",
    "CCCma hist file": "ss",
    "CCCma hist var names": "PHI",
    "CCCma hist var frequency": "ISSP",
    "CCCma check": "Jason",
    "MIPs (requesting)": "  CFMIP(1), HighResMIP(1,1,1)",
    "experiments": "  piControl (HighResMIP:1), historical (HighResMIP:1), amip (CFMIP:1,HighResMIP:1)"
  }
}