{
  "ci": {
    "CCCma TS var name": "CDCI",
    "CCCma diag file": "3h",
    "CCCma hist file": "3hr",
    "CCCma hist var names": "CDCI",
    "CCCma check": "Jason",
    "MIPs (requesting)": "  CFMIP(1)",
    "experiments": "  amip (CFMIP:1)"
  },
  "clc": {
    "CCCma TS var name": null,
    "CCCma diag file": null,
    "CCCma check": "N/P (Jason)",
    "priority": 2.0,
    "MIPs (requesting)": "  CFMIP(2)",
    "experiments": "  amip (CFMIP:2)"
  },
  "clic": {
    "CCCma TS var name": null,
    "CCCma diag file": null,
    "CCCma check": "N/P (Jason)",
    "priority": 2.0,
    "MIPs (requesting)": "  CFMIP(2)",
    "experiments": "  amip (CFMIP:2)"
  },
  "clis": {
    "CCCma TS var name": null,
    "CCCma diag file": null,
    "CCCma check": "N/P (Jason)",
    "priority": 2.0,
    "MIPs (requesting)": "  CFMIP(2)",
    "experiments": "  amip (CFMIP:2)"
  },
  "clivi": {
    "CCCma TS var name": "CICI",
    "CCCma diag file": "3h",
    "CCCma hist file": "3hr",
    "CCCma hist var names": "CICI",
    "CCCma check": "Jason",
    "MIPs (requesting)": "  CFMIP(1)",
    "experiments": "  amip (CFMIP:1)"
  },
  "cls": {
    "CCCma TS var name": null,
    "CCCma diag file": null,
    "CCCma check": "N/P (Jason)",
    "priority": 2.0,
    "MIPs (requesting)": "  CFMIP(2)",
    "experiments": "  amip (CFMIP:2)"
  },
  "clt": {
    "CCCma TS var name": "CLTI",
    "CCCma diag file": "3h",
    "CCCma hist file": "3hr",
    "CCCma hist var names": "CLTI",
    "CCCma check": "Jason",
    "MIPs (requesting)": "  CFMIP(1)",
    "experiments": "  amip (CFMIP:1)"
  },
  "cltc": {
    "CCCma TS var name": null,
    "CCCma diag file": null,
    "CCCma check": "N/A",
    "MIPs (requesting)": "  CFMIP(1)",
    "experiments": "  amip (CFMIP:1)"
  },
  "clwc": {
    "CCCma TS var name": null,
    "CCCma diag file": null,
    "CCCma check": "N/P (Jason)",
    "priority": 2.0,
    "MIPs (requesting)": "  CFMIP(2)",
    "experiments": "  amip (CFMIP:2)"
  },
  "clws": {
    "CCCma TS var name": null,
    "CCCma diag file": null,
    "CCCma check": "N/P (Jason)",
    "priority": 2.0,
    "MIPs (requesting)": "  CFMIP(2)",
    "experiments": "  amip (CFMIP:2)"
  },
  "clwvi": {
    "CCCma TS var name": "CICI CLWI",
    "CCCma diag file": "3h",
    "CCCma optional deck": "addtwo",
    "CCCma hist file": "3hr",
    "CCCma hist var names": "CICI CLWI",
    "CCCma check": "Jason",
    "MIPs (requesting)": "  CFMIP(1)",
    "experiments": "  amip (CFMIP:1)"
  },
  "demc": {
    "CCCma TS var name": null,
    "CCCma diag file": null,
    "CCCma check": "N/P (Jason)",
    "priority": 2.0,
    "MIPs (requesting)": "  CFMIP(2)",
    "experiments": "  amip (CFMIP:2)"
  },
  "dems": {
    "CCCma TS var name": null,
    "CCCma diag file": null,
    "CCCma check": "N/P (Jason)",
    "priority": 2.0,
    "MIPs (requesting)": "  CFMIP(2)",
    "experiments": "  amip (CFMIP:2)"
  },
  "dtauc": {
    "CCCma TS var name": null,
    "CCCma diag file": null,
    "CCCma check": "N/P (Jason)",
    "priority": 2.0,
    "MIPs (requesting)": "  CFMIP(2)",
    "experiments": "  amip (CFMIP:2)"
  },
  "dtaus": {
    "CCCma TS var name": null,
    "CCCma diag file": null,
    "CCCma check": "N/P (Jason)",
    "priority": 2.0,
    "MIPs (requesting)": "  CFMIP(2)",
    "experiments": "  amip (CFMIP:2)"
  },
  "evspsbl": {
    "CCCma TS var name": "QFSI",
    "CCCma diag file": "3h",
    "CCCma hist file": "3hr",
    "CCCma hist var names": "QFSI",
    "CCCma check": "Jason",
    "MIPs (requesting)": "  CFMIP(1)",
    "experiments": "  amip (CFMIP:1)"
  },
  "grpllsprof": {
    "CCCma TS var name": null,
    "CCCma diag file": null,
    "CCCma check": "N/P (Jason)",
    "priority": 2.0,
    "MIPs (requesting)": "  CFMIP(2)",
    "experiments": "  amip (CFMIP:2)"
  },
  "h2o": {
    "CCCma TS var name": null,
    "CCCma diag file": null,
    "CCCma check": "N/P (Jason)",
    "priority": 2.0,
    "MIPs (requesting)": "  CFMIP(2)",
    "experiments": "  amip (CFMIP:2)"
  },
  "hfls": {
    "CCCma TS var name": "HFLI",
    "CCCma diag file": "3h",
    "CCCma hist file": "3hr",
    "CCCma hist var names": "HFLI",
    "CCCma check": "Jason",
    "MIPs (requesting)": "  CFMIP(1)",
    "experiments": "  amip (CFMIP:1)"
  },
  "hfss": {
    "CCCma TS var name": "HFSI",
    "CCCma diag file": "3h",
    "CCCma hist file": "3hr",
    "CCCma hist var names": "HFSI",
    "CCCma check": "Jason",
    "MIPs (requesting)": "  CFMIP(1)",
    "experiments": "  amip (CFMIP:1)"
  },
  "hurs": {
    "CCCma TS var name": "SRHI",
    "CCCma diag file": "3h",
    "CCCma optional deck": "mltby100",
    "CCCma hist file": "3hr",
    "CCCma hist var names": "SRHI",
    "CCCma check": "Jason",
    "MIPs (requesting)": "  CFMIP(1)",
    "experiments": "  amip (CFMIP:1)"
  },
  "pfull": {
    "CCCma TS var name": null,
    "CCCma diag file": null,
    "CCCma check": "N/P (Jason)",
    "MIPs (requesting)": "  CFMIP(2), RFMIP(1)",
    "experiments": "  amip (CFMIP:2), historical (RFMIP:1)"
  },
  "phalf": {
    "CCCma TS var name": null,
    "CCCma diag file": null,
    "CCCma check": "N/P (Jason)",
    "MIPs (requesting)": "  CFMIP(2), RFMIP(1)",
    "experiments": "  amip (CFMIP:2), historical (RFMIP:1)"
  },
  "pr": {
    "CCCma TS var name": "PCPI",
    "CCCma diag file": "3h",
    "CCCma hist file": "3hr",
    "CCCma hist var names": "PCPI",
    "CCCma check": "Jason",
    "MIPs (requesting)": "  CFMIP(1)",
    "experiments": "  amip (CFMIP:1)"
  },
  "prc": {
    "CCCma TS var name": "PCCI",
    "CCCma diag file": "3h",
    "CCCma hist file": "3hr",
    "CCCma hist var names": "PCCI",
    "CCCma check": "Jason",
    "MIPs (requesting)": "  CFMIP(1)",
    "experiments": "  amip (CFMIP:1)"
  },
  "prcprof": {
    "CCCma TS var name": null,
    "CCCma diag file": null,
    "CCCma check": "N/P (Jason)",
    "priority": 2.0,
    "MIPs (requesting)": "  CFMIP(2)",
    "experiments": "  amip (CFMIP:2)"
  },
  "prlsns": {
    "CCCma TS var name": null,
    "CCCma diag file": null,
    "CCCma check": "N/P (Jason)",
    "priority": 2.0,
    "MIPs (requesting)": "  CFMIP(2)",
    "experiments": "  amip (CFMIP:2)"
  },
  "prlsprof": {
    "CCCma TS var name": null,
    "CCCma diag file": null,
    "CCCma check": "N/P (Jason)",
    "priority": 2.0,
    "MIPs (requesting)": "  CFMIP(2)",
    "experiments": "  amip (CFMIP:2)"
  },
  "prsn": {
    "CCCma TS var name": "PCNI",
    "CCCma diag file": "3h",
    "CCCma hist file": "3hr",
    "CCCma hist var names": "PCNI",
    "CCCma check": "Jason",
    "MIPs (requesting)": "  CFMIP(1)",
    "experiments": "  amip (CFMIP:1)"
  },
  "prsnc": {
    "CCCma TS var name": null,
    "CCCma diag file": null,
    "CCCma check": "N/P (Jason)",
    "priority": 2.0,
    "MIPs (requesting)": "  CFMIP(2)",
    "experiments": "  amip (CFMIP:2)"
  },
  "prw": {
    "CCCma TS var name": "PWTI",
    "CCCma diag file": "3h",
    "CCCma hist file": "3hr",
    "CCCma hist var names": "PWTI",
    "CCCma check": "Jason",
    "MIPs (requesting)": "  CFMIP(1)",
    "experiments": "  amip (CFMIP:1)"
  },
  "ps": {
    "CCCma TS var name": "",
    "CCCma diag file": ""
  },
  "psl": {
    "CCCma TS var name": "PSMI",
    "CCCma diag file": "3h",
    "CCCma optional deck": "mltby100",
    "CCCma hist file": "3hr",
    "CCCma hist var names": "PSMI",
    "CCCma hist var frequency": "IS3HR=12 (for all)",
    "CCCma check": "Jason",
    "MIPs (requesting)": "  CFMIP(1), HighResMIP(1,1,1)",
    "experiments": "  piControl (HighResMIP:1), historical (HighResMIP:1), amip (CFMIP:1,HighResMIP:1)"
  },
  "reffclic": {
    "CCCma TS var name": null,
    "CCCma diag file": null,
    "CCCma check": "N/P (Jason)",
    "priority": 2.0,
    "MIPs (requesting)": "  CFMIP(2)",
    "experiments": "  amip (CFMIP:2)"
  },
  "reffclis": {
    "CCCma TS var name": null,
    "CCCma diag file": null,
    "CCCma check": "N/P (Jason)",
    "priority": 2.0,
    "MIPs (requesting)": "  CFMIP(2)",
    "experiments": "  amip (CFMIP:2)"
  },
  "reffclwc": {
    "CCCma TS var name": null,
    "CCCma diag file": null,
    "CCCma check": "N/P (Jason)",
    "priority": 2.0,
    "MIPs (requesting)": "  CFMIP(2)",
    "experiments": "  amip (CFMIP:2)"
  },
  "reffclws": {
    "CCCma TS var name": null,
    "CCCma diag file": null,
    "CCCma check": "N/P (Jason)",
    "priority": 2.0,
    "MIPs (requesting)": "  CFMIP(2)",
    "experiments": "  amip (CFMIP:2)"
  },
  "reffgrpls": {
    "CCCma TS var name": null,
    "CCCma diag file": null,
    "CCCma check": "N/P (Jason)",
    "priority": 2.0,
    "MIPs (requesting)": "  CFMIP(2)",
    "experiments": "  amip (CFMIP:2)"
  },
  "reffrainc": {
    "CCCma TS var name": null,
    "CCCma diag file": null,
    "CCCma check": "N/P (Jason)",
    "priority": 2.0,
    "MIPs (requesting)": "  CFMIP(2)",
    "experiments": "  amip (CFMIP:2)"
  },
  "reffrains": {
    "CCCma TS var name": null,
    "CCCma diag file": null,
    "CCCma check": "N/P (Jason)",
    "priority": 2.0,
    "MIPs (requesting)": "  CFMIP(2)",
    "experiments": "  amip (CFMIP:2)"
  },
  "reffsnowc": {
    "CCCma TS var name": null,
    "CCCma diag file": null,
    "CCCma check": "N/P (Jason)",
    "priority": 2.0,
    "MIPs (requesting)": "  CFMIP(2)",
    "experiments": "  amip (CFMIP:2)"
  },
  "reffsnows": {
    "CCCma TS var name": null,
    "CCCma diag file": null,
    "CCCma check": "N/P (Jason)",
    "priority": 2.0,
    "MIPs (requesting)": "  CFMIP(2)",
    "experiments": "  amip (CFMIP:2)"
  },
  "rlds": {
    "CCCma TS var name": "PWTI",
    "CCCma diag file": "3h",
    "CCCma hist file": "3hr",
    "CCCma hist var names": "FDLI",
    "CCCma check": "Jason",
    "MIPs (requesting)": "  CFMIP(1)",
    "experiments": "  amip (CFMIP:1)"
  },
  "rldscs": {
    "CCCma TS var name": "FLCI",
    "CCCma diag file": "3h",
    "CCCma hist file": "3hr",
    "CCCma hist var names": "FLCI",
    "CCCma check": "Jason",
    "MIPs (requesting)": "  CFMIP(1)",
    "experiments": "  amip (CFMIP:1)"
  },
  "rlus": {
    "CCCma TS var name": "FDLI FLGI",
    "CCCma diag file": "3h",
    "CCCma optional deck": "subtract",
    "CCCma hist file": "3hr",
    "CCCma hist var names": "FDLI FLGI",
    "CCCma check": "Jason",
    "MIPs (requesting)": "  CFMIP(1)",
    "experiments": "  amip (CFMIP:1)"
  },
  "rlut": {
    "CCCma TS var name": "OLRI",
    "CCCma diag file": "3h",
    "CCCma hist file": "3hr",
    "CCCma hist var names": "OLRI",
    "CCCma check": "Jason",
    "MIPs (requesting)": "  CFMIP(1)",
    "experiments": "  amip (CFMIP:1)"
  },
  "rlutcs": {
    "CCCma TS var name": "OLCI",
    "CCCma diag file": "3h",
    "CCCma hist file": "3hr",
    "CCCma hist var names": "OLCI",
    "CCCma check": "Jason",
    "MIPs (requesting)": "  CFMIP(1)",
    "experiments": "  amip (CFMIP:1)"
  },
  "rsds": {
    "CCCma TS var name": "FSSI",
    "CCCma diag file": "3h",
    "CCCma hist file": "3hr",
    "CCCma hist var names": "FSSI",
    "CCCma check": "Jason",
    "MIPs (requesting)": "  CFMIP(1)",
    "experiments": "  amip (CFMIP:1)"
  },
  "rsdscs": {
    "CCCma TS var name": "FSCI",
    "CCCma diag file": "3h",
    "CCCma hist file": "3hr",
    "CCCma hist var names": "FSCI",
    "CCCma check": "Jason",
    "MIPs (requesting)": "  CFMIP(1)",
    "experiments": "  amip (CFMIP:1)"
  },
  "rsdt": {
    "CCCma TS var name": "FSOI",
    "CCCma diag file": "3h",
    "CCCma hist file": "3hr",
    "CCCma hist var names": "FSOI",
    "CCCma check": "Jason",
    "MIPs (requesting)": "  CFMIP(1)",
    "experiments": "  amip (CFMIP:1)"
  },
  "rsus": {
    "CCCma TS var name": "FSSI FSGI",
    "CCCma diag file": "3h",
    "CCCma optional deck": "subtract",
    "CCCma hist file": "3hr",
    "CCCma hist var names": "FSSI FSGI",
    "CCCma check": "Jason",
    "MIPs (requesting)": "  CFMIP(1)",
    "experiments": "  amip (CFMIP:1)"
  },
  "rsuscs": {
    "CCCma TS var name": "FSCI FGCI",
    "CCCma diag file": "3h",
    "CCCma optional deck": "subtract",
    "CCCma hist file": "3hr",
    "CCCma hist var names": "FSCI FGCI",
    "CCCma hist var frequency": "IS3HR=12",
    "CCCma check": "Jason",
    "MIPs (requesting)": "  CFMIP(1), RFMIP(1)",
    "experiments": "  amip (CFMIP:1), historical (RFMIP:1)"
  },
  "rsut": {
    "CCCma TS var name": "FSRI",
    "CCCma diag file": "3h",
    "CCCma hist file": "3hr",
    "CCCma hist var names": "FSRI",
    "CCCma check": "Jason",
    "MIPs (requesting)": "  CFMIP(1)",
    "experiments": "  amip (CFMIP:1)"
  },
  "rsutcs": {
    "CCCma TS var name": "FRCI",
    "CCCma diag file": "3h",
    "CCCma hist file": "3hr",
    "CCCma hist var names": "FRCI",
    "CCCma check": "Jason",
    "MIPs (requesting)": "  CFMIP(1)",
    "experiments": "  amip (CFMIP:1)"
  },
  "rtmt": {
    "CCCma TS var name": "BLTI",
    "CCCma diag file": "3h",
    "CCCma hist file": "3hr",
    "CCCma hist var names": "BLTI",
    "CCCma check": "Jason",
    "MIPs (requesting)": "  CFMIP(1)",
    "experiments": "  amip (CFMIP:1)"
  },
  "sbl": {
    "CCCma TS var name": "QFNI QFVI",
    "CCCma diag file": "3h",
    "CCCma optional deck": "addtwo",
    "CCCma hist file": "3hr",
    "CCCma hist var names": "QFNI QFVI",
    "CCCma check": "Jason",
    "MIPs (requesting)": "  CFMIP(1)",
    "experiments": "  amip (CFMIP:1)"
  },
  "sci": {
    "CCCma TS var name": "CSCI",
    "CCCma diag file": "3h",
    "CCCma hist file": "3hr",
    "CCCma hist var names": "CSCI",
    "CCCma check": "Jason",
    "MIPs (requesting)": "  CFMIP(1)",
    "experiments": "  amip (CFMIP:1)"
  },
  "sfcWind": {
    "CCCma TS var name": "SWI",
    "CCCma diag file": "3h",
    "CCCma hist file": "3hr",
    "CCCma hist var names": "SWI",
    "CCCma check": "Jason",
    "MIPs (requesting)": "  CFMIP(1)",
    "experiments": "  amip (CFMIP:1)"
  },
  "ta": {
    "CCCma TS var name": null,
    "CCCma diag file": null,
    "CCCma check": "N/P (Jason)",
    "MIPs (requesting)": "  CFMIP(2), RFMIP(1)",
    "experiments": "  amip (CFMIP:2), historical (RFMIP:1)"
  },
  "tauu": {
    "CCCma TS var name": "UFSI",
    "CCCma diag file": "3h",
    "CCCma hist file": "3hr",
    "CCCma hist var names": "UFSI",
    "CCCma check": "Jason",
    "MIPs (requesting)": "  CFMIP(1)",
    "experiments": "  amip (CFMIP:1)"
  },
  "tauv": {
    "CCCma TS var name": "VFSI",
    "CCCma diag file": "3h",
    "CCCma hist file": "3hr",
    "CCCma hist var names": "VFSI",
    "CCCma check": "Jason",
    "MIPs (requesting)": "  CFMIP(1)",
    "experiments": "  amip (CFMIP:1)"
  },
  "ts": {
    "CCCma TS var name": "GTI",
    "CCCma diag file": "3h",
    "CCCma hist file": "3hr",
    "CCCma hist var names": "GTI",
    "CCCma check": "Jason",
    "MIPs (requesting)": "  CFMIP(1), RFMIP(1)",
    "experiments": "  amip (CFMIP:1), historical (RFMIP:1)"
  },
  "zfull": {
    "CCCma TS var name": null,
    "CCCma diag file": null,
    "CCCma check": "N/P (Jason)",
    "priority": 2.0,
    "MIPs (requesting)": "  CFMIP(2), RFMIP(2)",
    "experiments": "  amip (CFMIP:2), historical (RFMIP:2)"
  },
  "zhalf": {
    "CCCma TS var name": null,
    "CCCma diag file": null,
    "CCCma check": "N/P (Jason)",
    "priority": 2.0,
    "MIPs (requesting)": "  CFMIP(2), RFMIP(2)",
    "experiments": "  amip (CFMIP:2), historical (RFMIP:2)"
  }
}