{
  "acabfIs": {
    "CCCma TS var name": null,
    "CCCma diag file": null,
    "priority": 2.0,
    "MIPs (requesting)": "  ISMIP6(2,2,2,2)",
    "experiments": "  amip (ISMIP6:2), 1pctCO2 (ISMIP6:2), historical (ISMIP6:2), piControl (ISMIP6:2)"
  },
  "agesno": {
    "CCCma TS var name": null,
    "CCCma diag file": null,
    "CCCma check": "Vivek says, not providing.",
    "MIPs (requesting)": "  CMIP(1,1,1,1,1), DAMIP(1,1), FAFMIP(1,1,1), GeoMIP(1,1,1), HighResMIP(1,1), LUMIP(1), PMIP(1,1,1,1,1), VolMIP(1)",
    "experiments": "  abrupt-4xCO2 (CMIP:1,FAFMIP:1,GeoMIP:1,PMIP:1), amip (CMIP:1,PMIP:1), 1pctCO2 (CMIP:1,FAFMIP:1,PMIP:1), historical (CMIP:1,DAMIP:1,GeoMIP:1,HighResMIP:1,LUMIP:1,PMIP:1), piControl (CMIP:1,DAMIP:1,FAFMIP:1,GeoMIP:1,HighResMIP:1,PMIP:1,VolMIP:1)"
  },
  "hfdsn": {
    "CCCma TS var name": null,
    "CCCma diag file": null,
    "CCCma hist file": "gs",
    "CCCma hist var names": "GSNO",
    "CCCma hist var frequency": "ISRAD",
    "CCCma check": "Done but need to add to diagnostic deck.",
    "CCCma comment": "is it radiative or total? top or bottom of snow layer?",
    "MIPs (requesting)": "  CMIP(1,1,1,1,1), DAMIP(1,1), FAFMIP(1,1,1), GeoMIP(1,1,1), HighResMIP(1,1), LUMIP(1), PMIP(1,1,1,1,1), VolMIP(1)",
    "experiments": "  abrupt-4xCO2 (CMIP:1,FAFMIP:1,GeoMIP:1,PMIP:1), amip (CMIP:1,PMIP:1), 1pctCO2 (CMIP:1,FAFMIP:1,PMIP:1), historical (CMIP:1,DAMIP:1,GeoMIP:1,HighResMIP:1,LUMIP:1,PMIP:1), piControl (CMIP:1,DAMIP:1,FAFMIP:1,GeoMIP:1,HighResMIP:1,PMIP:1,VolMIP:1)"
  },
  "hflsIs": {
    "CCCma TS var name": null,
    "CCCma diag file": null,
    "MIPs (requesting)": "  ISMIP6(1,1,1,1)",
    "experiments": "  amip (ISMIP6:1), 1pctCO2 (ISMIP6:1), historical (ISMIP6:1), piControl (ISMIP6:1)"
  },
  "hfssIs": {
    "CCCma TS var name": null,
    "CCCma diag file": null,
    "MIPs (requesting)": "  ISMIP6(1,1,1,1)",
    "experiments": "  amip (ISMIP6:1), 1pctCO2 (ISMIP6:1), historical (ISMIP6:1), piControl (ISMIP6:1)"
  },
  "icemIs": {
    "CCCma TS var name": null,
    "CCCma diag file": null,
    "priority": 3.0,
    "MIPs (requesting)": "  ISMIP6(3,3,3,3)",
    "experiments": "  amip (ISMIP6:3), 1pctCO2 (ISMIP6:3), historical (ISMIP6:3), piControl (ISMIP6:3)"
  },
  "litemptopIs": {
    "CCCma TS var name": null,
    "CCCma diag file": null,
    "priority": 2.0,
    "MIPs (requesting)": "  ISMIP6(2,2,2,2)",
    "experiments": "  amip (ISMIP6:2), 1pctCO2 (ISMIP6:2), historical (ISMIP6:2), piControl (ISMIP6:2)"
  },
  "lwsnl": {
    "CCCma TS var name": null,
    "CCCma diag file": null,
    "MIPs (requesting)": "  CMIP(2,2,2,2,2), DAMIP(2,2), FAFMIP(2,2,2), GeoMIP(2,2,2), HighResMIP(2,2), LUMIP(2), VIACSAB(1,1), VolMIP(2)",
    "experiments": "  abrupt-4xCO2 (CMIP:2,FAFMIP:2,GeoMIP:2), amip (VIACSAB:1,CMIP:2), 1pctCO2 (CMIP:2,FAFMIP:2), historical (VIACSAB:1,CMIP:2,DAMIP:2,GeoMIP:2,HighResMIP:2,LUMIP:2), piControl (CMIP:2,DAMIP:2,FAFMIP:2,GeoMIP:2,HighResMIP:2,VolMIP:2)"
  },
  "mrroIs": {
    "CCCma TS var name": null,
    "CCCma diag file": null,
    "MIPs (requesting)": "  ISMIP6(1,1,1,1)",
    "experiments": "  amip (ISMIP6:1), 1pctCO2 (ISMIP6:1), historical (ISMIP6:1), piControl (ISMIP6:1)"
  },
  "orogIs": {
    "CCCma TS var name": null,
    "CCCma diag file": null,
    "MIPs (requesting)": "  ISMIP6(1,1,1,1)",
    "experiments": "  amip (ISMIP6:1), 1pctCO2 (ISMIP6:1), historical (ISMIP6:1), piControl (ISMIP6:1)"
  },
  "pflw": {
    "CCCma TS var name": null,
    "CCCma diag file": null,
    "MIPs (requesting)": "  CMIP(3,3,3,3,3), DAMIP(3,3), FAFMIP(3,3,3), GeoMIP(3,3,3), HighResMIP(3,3), LUMIP(3), VIACSAB(1,1,1,2,2,2,2), VolMIP(3)",
    "experiments": "  abrupt-4xCO2 (CMIP:3,FAFMIP:3,GeoMIP:3), amip (VIACSAB:1,VIACSAB:2,CMIP:3), 1pctCO2 (CMIP:3,FAFMIP:3), historical (VIACSAB:1,VIACSAB:2,VIACSAB:2,CMIP:3,DAMIP:3,GeoMIP:3,HighResMIP:3,LUMIP:3), piControl (VIACSAB:1,VIACSAB:2,CMIP:3,DAMIP:3,FAFMIP:3,GeoMIP:3,HighResMIP:3,VolMIP:3)"
  },
  "prraIs": {
    "CCCma TS var name": null,
    "CCCma diag file": null,
    "MIPs (requesting)": "  ISMIP6(1,1,1,1)",
    "experiments": "  amip (ISMIP6:1), 1pctCO2 (ISMIP6:1), historical (ISMIP6:1), piControl (ISMIP6:1)"
  },
  "prsnIs": {
    "CCCma TS var name": null,
    "CCCma diag file": null,
    "MIPs (requesting)": "  ISMIP6(1,1,1,1)",
    "experiments": "  amip (ISMIP6:1), 1pctCO2 (ISMIP6:1), historical (ISMIP6:1), piControl (ISMIP6:1)"
  },
  "rldsIs": {
    "CCCma TS var name": null,
    "CCCma diag file": null,
    "MIPs (requesting)": "  ISMIP6(1,1,1,1)",
    "experiments": "  amip (ISMIP6:1), 1pctCO2 (ISMIP6:1), historical (ISMIP6:1), piControl (ISMIP6:1)"
  },
  "rlusIs": {
    "CCCma TS var name": null,
    "CCCma diag file": null,
    "MIPs (requesting)": "  ISMIP6(1,1,1,1)",
    "experiments": "  amip (ISMIP6:1), 1pctCO2 (ISMIP6:1), historical (ISMIP6:1), piControl (ISMIP6:1)"
  },
  "rsdsIs": {
    "CCCma TS var name": null,
    "CCCma diag file": null,
    "MIPs (requesting)": "  ISMIP6(1,1,1,1)",
    "experiments": "  amip (ISMIP6:1), 1pctCO2 (ISMIP6:1), historical (ISMIP6:1), piControl (ISMIP6:1)"
  },
  "rsusIs": {
    "CCCma TS var name": null,
    "CCCma diag file": null,
    "MIPs (requesting)": "  ISMIP6(1,1,1,1)",
    "experiments": "  amip (ISMIP6:1), 1pctCO2 (ISMIP6:1), historical (ISMIP6:1), piControl (ISMIP6:1)"
  },
  "sbl": {
    "CCCma TS var name": "QFN",
    "CCCma diag file": "gp",
    "CCCma hist var names": "QFN",
    "MIPs (requesting)": "  CMIP(1,1,1,1,1), DAMIP(1,1), FAFMIP(1,1,1), GeoMIP(1,1,1), HighResMIP(1,1), ISMIP6(1,1,1,1), LUMIP(1), PMIP(1,1,1,1,1), VIACSAB(1,1,1,2,2,2,2), VolMIP(1)",
    "experiments": "  abrupt-4xCO2 (CMIP:1,FAFMIP:1,GeoMIP:1,PMIP:1), amip (CMIP:1,ISMIP6:1,PMIP:1,VIACSAB:1,VIACSAB:2), 1pctCO2 (CMIP:1,FAFMIP:1,ISMIP6:1,PMIP:1), historical (CMIP:1,DAMIP:1,GeoMIP:1,HighResMIP:1,ISMIP6:1,LUMIP:1,PMIP:1,VIACSAB:1,VIACSAB:2,VIACSAB:2), piControl (CMIP:1,DAMIP:1,FAFMIP:1,GeoMIP:1,HighResMIP:1,ISMIP6:1,PMIP:1,VIACSAB:1,VolMIP:1,VIACSAB:2)"
  },
  "sblIs": {
    "CCCma TS var name": null,
    "CCCma diag file": null,
    "MIPs (requesting)": "  ISMIP6(1,1,1,1)",
    "experiments": "  amip (ISMIP6:1), 1pctCO2 (ISMIP6:1), historical (ISMIP6:1), piControl (ISMIP6:1)"
  },
  "sftflf": {
    "CCCma TS var name": null,
    "CCCma diag file": null,
    "CCCma check": "N/A",
    "MIPs (requesting)": "  CMIP(1,1,1,1,1), ISMIP6(2,2,2,2)",
    "experiments": "  abrupt-4xCO2 (CMIP:1), amip (CMIP:1,ISMIP6:2), 1pctCO2 (CMIP:1,ISMIP6:2), historical (CMIP:1,ISMIP6:2), piControl (CMIP:1,ISMIP6:2)"
  },
  "sftgif": {
    "CCCma TS var name": null,
    "CCCma diag file": null,
    "CCCma check": "Although glaciers are 0 or 1 over land, this requires fractional glacial so would be a fraction at continental edges. But this is a fixed field and can be done later.",
    "MIPs (requesting)": "  CMIP(1,1,1,1,1), ISMIP6(1,1,1,1)",
    "experiments": "  abrupt-4xCO2 (CMIP:1), amip (CMIP:1,ISMIP6:1), 1pctCO2 (CMIP:1,ISMIP6:1), historical (CMIP:1,ISMIP6:1), piControl (CMIP:1,ISMIP6:1)"
  },
  "sftgrf": {
    "CCCma TS var name": null,
    "CCCma diag file": null,
    "CCCma check": "N/A",
    "MIPs (requesting)": "  CMIP(1,1,1,1,1), ISMIP6(1,1,1,1)",
    "experiments": "  abrupt-4xCO2 (CMIP:1), amip (CMIP:1,ISMIP6:1), 1pctCO2 (CMIP:1,ISMIP6:1), historical (CMIP:1,ISMIP6:1), piControl (CMIP:1,ISMIP6:1)"
  },
  "snc": {
    "CCCma TS var name": "FN",
    "CCCma diag file": "gp",
    "CCCma optional deck": "mltby100",
    "CCCma units": "-",
    "CCCma hist file": "gs",
    "CCCma hist var names": "FNT FARE",
    "CCCma hist var frequency": "ISBEG",
    "CCCma check": "Diag calculation needs work.",
    "CCCma comment": "FNT(1)*FARE(1)",
    "MIPs (requesting)": "  CDRMIP(3,3,3,3,3), CFMIP(1,1,1,1,1), CMIP(1,1,1,1,1), DAMIP(1,1), FAFMIP(1,1,1), GeoMIP(1,1,1), HighResMIP(1,1), ISMIP6(1,1,1,1), LUMIP(1), PMIP(1,1,1,1,1), VIACSAB(1,1,1,1), VolMIP(1)",
    "experiments": "  abrupt-4xCO2 (CFMIP:1,CMIP:1,FAFMIP:1,GeoMIP:1,PMIP:1,CDRMIP:3), amip (CFMIP:1,CMIP:1,ISMIP6:1,PMIP:1,VIACSAB:1,CDRMIP:3), 1pctCO2 (CFMIP:1,CMIP:1,FAFMIP:1,ISMIP6:1,PMIP:1,CDRMIP:3), historical (CFMIP:1,CMIP:1,DAMIP:1,GeoMIP:1,HighResMIP:1,ISMIP6:1,LUMIP:1,PMIP:1,VIACSAB:1,VIACSAB:1,CDRMIP:3), piControl (CFMIP:1,CMIP:1,DAMIP:1,FAFMIP:1,GeoMIP:1,HighResMIP:1,ISMIP6:1,PMIP:1,VIACSAB:1,VolMIP:1,CDRMIP:3)"
  },
  "sncIs": {
    "CCCma TS var name": null,
    "CCCma diag file": null,
    "MIPs (requesting)": "  ISMIP6(1,1,1,1)",
    "experiments": "  amip (ISMIP6:1), 1pctCO2 (ISMIP6:1), historical (ISMIP6:1), piControl (ISMIP6:1)"
  },
  "snd": {
    "CCCma TS var name": "ZN",
    "CCCma diag file": "gp",
    "CCCma comment": "sk:change ZN/FN to ZN",
    "MIPs (requesting)": "  CFMIP(1,1,1,1,1), CMIP(1,1,1,1,1), DAMIP(1,1), DCPP(1), FAFMIP(1,1,1), GeoMIP(1,1,1), HighResMIP(1,1), LUMIP(1), PAMIP(1), PMIP(1,1,1,1,1), VIACSAB(1,1,1,1,2,2,2,2), VolMIP(1)",
    "experiments": "  abrupt-4xCO2 (CFMIP:1,CMIP:1,FAFMIP:1,GeoMIP:1,PMIP:1), amip (CFMIP:1,CMIP:1,PMIP:1,VIACSAB:1,VIACSAB:2), 1pctCO2 (CFMIP:1,CMIP:1,FAFMIP:1,PMIP:1), historical (CFMIP:1,CMIP:1,DAMIP:1,DCPP:1,GeoMIP:1,HighResMIP:1,LUMIP:1,PAMIP:1,PMIP:1,VIACSAB:1,VIACSAB:1,VIACSAB:2,VIACSAB:2), piControl (CFMIP:1,CMIP:1,DAMIP:1,FAFMIP:1,GeoMIP:1,HighResMIP:1,PMIP:1,VIACSAB:1,VolMIP:1,VIACSAB:2)"
  },
  "snicefreezIs": {
    "CCCma TS var name": null,
    "CCCma diag file": null,
    "priority": 2.0,
    "MIPs (requesting)": "  ISMIP6(2,2,2,2)",
    "experiments": "  amip (ISMIP6:2), 1pctCO2 (ISMIP6:2), historical (ISMIP6:2), piControl (ISMIP6:2)"
  },
  "snicemIs": {
    "CCCma TS var name": null,
    "CCCma diag file": null,
    "priority": 2.0,
    "MIPs (requesting)": "  ISMIP6(2,2,2,2)",
    "experiments": "  amip (ISMIP6:2), 1pctCO2 (ISMIP6:2), historical (ISMIP6:2), piControl (ISMIP6:2)"
  },
  "snm": {
    "CCCma TS var name": "SMLT DATA_DESCRIPTION",
    "CCCma diag file": "gp",
    "CCCma optional deck": "maskocean0",
    "CCCma comment": "mask out ocean. Changed Oct 19, 2011(by Slava Kharin)",
    "MIPs (requesting)": "  CMIP(1,1,1,1,1), DAMIP(1,1), FAFMIP(1,1,1), GeoMIP(1,1,1), HighResMIP(1,1), ISMIP6(1,1,1,1), LUMIP(1), PMIP(1,1,1,1,1), VIACSAB(1,1,1,2,2,2,2), VolMIP(1)",
    "experiments": "  abrupt-4xCO2 (CMIP:1,FAFMIP:1,GeoMIP:1,PMIP:1), amip (CMIP:1,ISMIP6:1,PMIP:1,VIACSAB:1,VIACSAB:2), 1pctCO2 (CMIP:1,FAFMIP:1,ISMIP6:1,PMIP:1), historical (CMIP:1,DAMIP:1,GeoMIP:1,HighResMIP:1,ISMIP6:1,LUMIP:1,PMIP:1,VIACSAB:1,VIACSAB:2,VIACSAB:2), piControl (CMIP:1,DAMIP:1,FAFMIP:1,GeoMIP:1,HighResMIP:1,ISMIP6:1,PMIP:1,VIACSAB:1,VolMIP:1,VIACSAB:2)"
  },
  "snmIs": {
    "CCCma TS var name": null,
    "CCCma diag file": null,
    "MIPs (requesting)": "  ISMIP6(1,1,1,1)",
    "experiments": "  amip (ISMIP6:1), 1pctCO2 (ISMIP6:1), historical (ISMIP6:1), piControl (ISMIP6:1)"
  },
  "snw": {
    "CCCma TS var name": "SNO DATA_DESCRIPTION",
    "CCCma diag file": "gp",
    "CCCma optional deck": "maskocean",
    "CCCma comment": "mask out ocean MASK!=0 from DATA_DESCRIPTION",
    "MIPs (requesting)": "  CFMIP(1,1,1,1,1), CMIP(1,1,1,1,1), DAMIP(1,1), FAFMIP(1,1,1), GeoMIP(1,1,1), HighResMIP(1,1), LUMIP(1), PMIP(1,1,1,1,1), VIACSAB(1,1,1,2,2,2,2), VolMIP(1)",
    "experiments": "  abrupt-4xCO2 (CFMIP:1,CMIP:1,FAFMIP:1,GeoMIP:1,PMIP:1), amip (CFMIP:1,CMIP:1,PMIP:1,VIACSAB:1,VIACSAB:2), 1pctCO2 (CFMIP:1,CMIP:1,FAFMIP:1,PMIP:1), historical (CFMIP:1,CMIP:1,DAMIP:1,GeoMIP:1,HighResMIP:1,LUMIP:1,PMIP:1,VIACSAB:1,VIACSAB:2,VIACSAB:2), piControl (CFMIP:1,CMIP:1,DAMIP:1,FAFMIP:1,GeoMIP:1,HighResMIP:1,PMIP:1,VIACSAB:1,VolMIP:1,VIACSAB:2)"
  },
  "sootsn": {
    "CCCma TS var name": null,
    "CCCma diag file": null,
    "MIPs (requesting)": "  CMIP(2,2,2,2,2), DAMIP(2,2), FAFMIP(2,2,2), GeoMIP(2,2,2), HighResMIP(2,2), LUMIP(2), VIACSAB(1,2), VolMIP(2)",
    "experiments": "  abrupt-4xCO2 (CMIP:2,FAFMIP:2,GeoMIP:2), amip (CMIP:2), 1pctCO2 (CMIP:2,FAFMIP:2), historical (VIACSAB:1,CMIP:2,DAMIP:2,GeoMIP:2,HighResMIP:2,LUMIP:2,VIACSAB:2), piControl (CMIP:2,DAMIP:2,FAFMIP:2,GeoMIP:2,HighResMIP:2,VolMIP:2)"
  },
  "tasIs": {
    "CCCma TS var name": null,
    "CCCma diag file": null,
    "MIPs (requesting)": "  ISMIP6(1,1,1,1)",
    "experiments": "  amip (ISMIP6:1), 1pctCO2 (ISMIP6:1), historical (ISMIP6:1), piControl (ISMIP6:1)"
  },
  "tpf": {
    "CCCma TS var name": null,
    "CCCma diag file": null,
    "MIPs (requesting)": "  CDRMIP(3,3,3,3,3), CMIP(3,3,3,3,3), DAMIP(3,3), FAFMIP(3,3,3), GeoMIP(3,3,3), HighResMIP(3,3), LUMIP(3), PMIP(1,1,1,1,1), VIACSAB(1,1,1,2,2,2,2), VolMIP(3)",
    "experiments": "  abrupt-4xCO2 (PMIP:1,CDRMIP:3,CMIP:3,FAFMIP:3,GeoMIP:3), amip (PMIP:1,VIACSAB:1,VIACSAB:2,CDRMIP:3,CMIP:3), 1pctCO2 (PMIP:1,CDRMIP:3,CMIP:3,FAFMIP:3), historical (PMIP:1,VIACSAB:1,VIACSAB:2,VIACSAB:2,CDRMIP:3,CMIP:3,DAMIP:3,GeoMIP:3,HighResMIP:3,LUMIP:3), piControl (PMIP:1,VIACSAB:1,VIACSAB:2,CDRMIP:3,CMIP:3,DAMIP:3,FAFMIP:3,GeoMIP:3,HighResMIP:3,VolMIP:3)"
  },
  "tsIs": {
    "CCCma TS var name": null,
    "CCCma diag file": null,
    "MIPs (requesting)": "  ISMIP6(1,1,1,1)",
    "experiments": "  amip (ISMIP6:1), 1pctCO2 (ISMIP6:1), historical (ISMIP6:1), piControl (ISMIP6:1)"
  },
  "tsn": {
    "CCCma TS var name": "TN",
    "CCCma diag file": "gp",
    "MIPs (requesting)": "  CMIP(1,1,1,1,1), DAMIP(1,1), FAFMIP(1,1,1), GeoMIP(1,1,1), HighResMIP(1,1), ISMIP6(1,1,1,1), LUMIP(1), VIACSAB(1,1,1,2,2,2,2), VolMIP(1)",
    "experiments": "  abrupt-4xCO2 (CMIP:1,FAFMIP:1,GeoMIP:1), amip (CMIP:1,ISMIP6:1,VIACSAB:1,VIACSAB:2), 1pctCO2 (CMIP:1,FAFMIP:1,ISMIP6:1), historical (CMIP:1,DAMIP:1,GeoMIP:1,HighResMIP:1,ISMIP6:1,LUMIP:1,VIACSAB:1,VIACSAB:2,VIACSAB:2), piControl (CMIP:1,DAMIP:1,FAFMIP:1,GeoMIP:1,HighResMIP:1,ISMIP6:1,VIACSAB:1,VolMIP:1,VIACSAB:2)"
  },
  "tsnIs": {
    "CCCma TS var name": null,
    "CCCma diag file": null,
    "MIPs (requesting)": "  ISMIP6(1,1,1,1)",
    "experiments": "  amip (ISMIP6:1), 1pctCO2 (ISMIP6:1), historical (ISMIP6:1), piControl (ISMIP6:1)"
  }
}