{
  "ps": {
    "CCCma TS var name": null,
    "CCCma diag file": null,
    "CCCma check": "?",
    "CCCma comment": "ML to add PSHR  in Pa similar to our other HF fields.",
    "MIPs (requesting)": "  AerChemMIP(1,1)",
    "experiments": "  amip (AerChemMIP:1), historical (AerChemMIP:1)"
  },
  "sfno2": {
    "CCCma TS var name": null,
    "CCCma diag file": null,
    "CCCma check": "N/A, Jason",
    "MIPs (requesting)": "  AerChemMIP(1,1)",
    "experiments": "  amip (AerChemMIP:1), historical (AerChemMIP:1)"
  },
  "sfo3": {
    "CCCma TS var name": null,
    "CCCma diag file": null,
    "CCCma check": "N/A, Jason",
    "MIPs (requesting)": "  AerChemMIP(1,1), VIACSAB(1,1)",
    "experiments": "  1pctCO2 (VIACSAB:1), historical (AerChemMIP:1,VIACSAB:1), amip (AerChemMIP:1)"
  },
  "sfpm25": {
    "CCCma TS var name": null,
    "CCCma diag file": null,
    "CCCma check": "N/A, Jason",
    "MIPs (requesting)": "  AerChemMIP(1,1)",
    "experiments": "  amip (AerChemMIP:1), historical (AerChemMIP:1)"
  },
  "tas": {
    "CCCma TS var name": null,
    "CCCma diag file": null,
    "CCCma check": "?",
    "CCCma comment": "ML to add STHR in deg K similar to our other HF fields.",
    "MIPs (requesting)": "  AerChemMIP(1,1)",
    "experiments": "  amip (AerChemMIP:1), historical (AerChemMIP:1)"
  }
}