{
  "_metadata_": {
    "Source file": ""
  }, 
  "hus": {
    "CCCma TS var name": "SHUM", 
    "CCCma diag file": "6h", 
    "units": "1", 
    "dimensions": "longitude latitude snap34 time", 
    "modeling_realm": "atmos", 
    "frequency": "6hrPt"
  },
  "ta": {
    "CCCma TS var name": "TEMP", 
    "CCCma diag file": "6h", 
    "units": "K", 
    "dimensions": "longitude latitude snap34 time", 
    "modeling_realm": "atmos", 
    "frequency": "6hrPt"
  },
  "ua": {
    "CCCma TS var name": "U", 
    "CCCma diag file": "6h", 
    "units": "m s-1", 
    "dimensions": "longitude latitude snap34 time", 
    "modeling_realm": "atmos", 
    "frequency": "6hrPt"
  },
  "va": {
    "CCCma TS var name": "V", 
    "CCCma diag file": "6h", 
    "units": "m s-1", 
    "dimensions": "longitude latitude snap34 time", 
    "modeling_realm": "atmos", 
    "frequency": "6hrPt"
  },
  "wap": {
    "CCCma TS var name": "OMEG", 
    "CCCma diag file": "6h", 
    "units": "Pa s-1", 
    "dimensions": "longitude latitude snap34 time", 
    "modeling_realm": "atmos", 
    "frequency": "6hrPt" 
  },
  "zg": {
    "CCCma TS var name": "PHI", 
    "CCCma diag file": "6h", 
    "CCCma optional deck": "divbyg",
    "units": "m", 
    "dimensions": "longitude latitude snap34 time", 
    "modeling_realm": "atmos", 
    "frequency": "6hrPt"
  },
  "ps": {
    "CCCma TS var name": "PS", 
    "CCCma diag file": "ds", 
    "CCCma optional deck": "mltby100", 
    "units": "Pa", 
    "dimensions": "longitude latitude time1", 
    "modeling_realm": "atmos", 
    "frequency": "6hrPt" 
  },
  "psl": {
    "CCCma TS var name": "PMSL", 
    "CCCma diag file": "6h", 
    "CCCma optional deck": "mltby100", 
    "units": "Pa", 
    "dimensions": "longitude latitude time1", 
    "modeling_realm": "atmos", 
    "frequency": "6hrPt" 
  },
  "tas": {
    "CCCma TS var name": "ST", 
    "CCCma diag file": "6h", 
    "modeling_realm": "atmos"
  },
  "uas": {
    "CMOR Name": "uas", 
    "CCCma TS var name": "SU", 
    "CCCma diag file": "6h", 
    "units": "m s-1", 
    "dimensions": "longitude latitude time1 height10m", 
    "modeling_realm": "atmos", 
    "frequency": "6hrPt" 
  },
  "vas": {
    "CCCma TS var name": "SV", 
    "CCCma diag file": "6h", 
    "units": "m s-1", 
    "dimensions": "longitude latitude time1 height10m", 
    "modeling_realm": "atmos", 
    "frequency": "6hrPt"
  },
  "rlut": {
    "CCCma TS var name": "OLR", 
    "CCCma diag file": "6h", 
    "units": "W m-2", 
    "dimensions": "longitude latitude time1", 
    "modeling_realm": "atmos", 
    "frequency": "6hrPt"
  },
  "tos": {
    "CCCma TS var name": "tos", 
    "CCCma diag file": "6h_grid_t", 
    "units": "degC", 
    "dimensions": "longitude latitude time", 
    "modeling_realm": "ocean", 
    "frequency": "6hrPt"
  },
  "siconca": {
    "CCCma TS var name": "sicn", 
    "CCCma diag file": "6h", 
    "CCCma optional deck": "mltby100_sicn", 
    "units": "%", 
    "dimensions": "longitude latitude time", 
    "modeling_realm": "seaIce", 
    "frequency": "6hrPt"
  },
  "siconc": {
    "CCCma TS var name": "siconc", 
    "CCCma diag file": "6h_icemod", 
    "CCCma optional deck": "mltby100_ocn", 
    "units": "%", 
    "dimensions": "longitude latitude time", 
    "modeling_realm": "seaIce", 
    "frequency": "6hrPt"
  },
  "sithick": {
    "CCCma TS var name": "iicethic siconc", 
    "CCCma diag file": "6h_icemod", 
    "CCCma optional deck": "divtwo_fillmissing", 
    "units": "m", 
    "dimensions": "longitude latitude time", 
    "modeling_realm": "seaIce", 
    "frequency": "6hrPt"
  },
  "snw": {
    "CCCma TS var name": "sno", 
    "CCCma diag file": "6h", 
    "units": "kg m-2", 
    "dimensions": "longitude latitude time1", 
    "modeling_realm": "atmos", 
    "frequency": "6hrPt"
  },
  "snd": {
    "CCCma TS var name": "zn", 
    "CCCma diag file": "6h", 
    "units": "m", 
    "dimensions": "longitude latitude time1", 
    "modeling_realm": "atmos", 
    "frequency": "6hrPt"
  },
  "mrso": {
    "CCCma TS var name": "wgl wgf", 
    "CCCma diag file": "6h", 
    "CCCma optional deck": "wglfsum", 
    "units": "kg m-2", 
    "dimensions": "longitude latitude time", 
    "modeling_realm": "land", 
    "frequency": "6hrPt"
  },
  "mrsos": {
    "CCCma TS var name": "wgl wgf", 
    "CCCma diag file": "6h", 
    "CCCma optional deck": "wglfone", 
    "units": "kg m-2", 
    "dimensions": "longitude latitude time1 sdepth1", 
    "modeling_realm": "land", 
    "frequency": "6hrPt"
  }
}

