{
  "_metadata_": {
    "Source file": ""
  }, 
  "pr": {
    "CCCma TS var name": "pcp", 
    "CCCma diag file": "6h",
    "CCCma comment": "accumulated",
    "units": "kg m-2 s-1", 
    "dimensions": "longitude latitude time", 
    "modeling_realm": "atmos", 
    "frequency": "6hr"
  },
  "prc": {
    "CCCma TS var name": "pcpc", 
    "CCCma diag file": "6h",
    "CCCma comment": "accumulated",
    "units": "kg m-2 s-1", 
    "dimensions": "longitude latitude time", 
    "modeling_realm": "atmos", 
    "frequency": "6hr"
  },
  "tauu": {
    "CCCma TS var name": "ufs", 
    "CCCma diag file": "6h",
    "units": "Pa", 
    "dimensions": "longitude latitude time", 
    "modeling_realm": "atmos", 
    "frequency": "6hr"
  },
  "tauv": {
    "CCCma TS var name": "vfs", 
    "CCCma diag file": "6h",
    "units": "Pa", 
    "dimensions": "longitude latitude time", 
    "modeling_realm": "atmos", 
    "frequency": "6hr"
  },
  "hfds": {
    "CCCma TS var name": "sohefldo", 
    "CCCma diag file": "6h_grid_t",
    "units": "W m-2", 
    "dimensions": "longitude latitude time", 
    "modeling_realm": "ocean", 
    "frequency": "6hr"
  },
  "clt": {
    "CCCma TS var name": "cldt", 
    "CCCma diag file": "6h",
    "CCCma optional deck": "mltby100", 
    "CCCma comment": "accumulated", 
    "units": "%", 
    "dimensions": "longitude latitude time", 
    "modeling_realm": "atmos", 
    "frequency": "6hr"
  },
  "tasmin": {
    "CCCma TS var name": "STMN", 
    "CCCma diag file": "6h",
    "units": "K", 
    "dimensions": "longitude latitude time height2m", 
    "modeling_realm": "atmos", 
    "frequency": "6hr"
  },
  "tasmax": {
    "CCCma TS var name": "STMX", 
    "CCCma diag file": "6h",
    "units": "K", 
    "dimensions": "longitude latitude time height2m", 
    "modeling_realm": "atmos", 
    "frequency": "6hr"
  }
}

