{
  "areacellg": {
    "CCCma TS var name": null,
    "CCCma diag file": null,
    "MIPs (requesting)": "  ISMIP6(1,1,1,1)",
    "experiments": "  amip (ISMIP6:1), 1pctCO2 (ISMIP6:1), historical (ISMIP6:1), piControl (ISMIP6:1)"
  },
  "hfgeoubed": {
    "CCCma TS var name": null,
    "CCCma diag file": null,
    "priority": 3.0,
    "MIPs (requesting)": "  ISMIP6(3,3,3,3)",
    "experiments": "  amip (ISMIP6:3), 1pctCO2 (ISMIP6:3), historical (ISMIP6:3), piControl (ISMIP6:3)"
  },
  "lithk": {
    "CCCma TS var name": null,
    "CCCma diag file": null,
    "priority": 2.0,
    "MIPs (requesting)": "  ISMIP6(2,2,2,2)",
    "experiments": "  amip (ISMIP6:2), 1pctCO2 (ISMIP6:2), historical (ISMIP6:2), piControl (ISMIP6:2)"
  },
  "topg": {
    "CCCma TS var name": null,
    "CCCma diag file": null,
    "priority": 2.0,
    "MIPs (requesting)": "  ISMIP6(2,2,2,2)",
    "experiments": "  amip (ISMIP6:2), 1pctCO2 (ISMIP6:2), historical (ISMIP6:2), piControl (ISMIP6:2)"
  }
}