{
  "siconc": {
    "CCCma TS var name": " siconc ",
    "CCCma diag file": "1d_icemod",
    "CCCma optional deck": "mltby100_ocn",
    "CCCma units": "1",
    "CCCma hist file": "1d_icemod",
    "CCCma check": "DY; MS.",
    "CCCma comment": " Added in nemo code by DY.",
    "MIPs (requesting)": "  CFMIP(1,1,1,1,1), CMIP(1,1,1,1,1,1,1), CORDEX(1), DAMIP(1,1), DCPP(3), HighResMIP(1,1,1), PAMIP(3), SIMIP(1,1,1,1), VolMIP(1)",
    "experiments": "  abrupt-4xCO2 (CFMIP:1,CMIP:1,SIMIP:1), amip (CFMIP:1,CMIP:1,HighResMIP:1), 1pctCO2 (CFMIP:1,CMIP:1,SIMIP:1), historical (CFMIP:1,CMIP:1,CMIP:1,DAMIP:1,HighResMIP:1,SIMIP:1,DCPP:3,PAMIP:3), piControl (CFMIP:1,CMIP:1,CMIP:1,CORDEX:1,DAMIP:1,HighResMIP:1,SIMIP:1,VolMIP:1)"
  },
  "siconca": {
    "CCCma TS var name": " sicn",
    "CCCma diag file": "dd",
    "CCCma optional deck": "mltby100_sicn",
    "CCCma check": "Not in the SIMIP paper, DY",
    "CCCma target horizontal grid": "atmos_grid",
    "MIPs (requesting)": "  CMIP(1,1,1,1,1), SIMIP(1,1,1,1)",
    "experiments": "  abrupt-4xCO2 (CMIP:1,SIMIP:1), amip (CMIP:1), 1pctCO2 (CMIP:1,SIMIP:1), historical (CMIP:1,SIMIP:1), piControl (CMIP:1,SIMIP:1)"
  },
  "sisnthick": {
    "CCCma TS var name": " isnowthi siconc",
    "CCCma diag file": "1d_icemod",
    "CCCma optional deck": "divtwo_fillmissing",
    "CCCma units": " m ",
    "CCCma hist file": "1d_icemod",
    "CCCma check": "DY; MS.",
    "CCCma comment": "1. Added in nemo code by DY; CMIP6 requests thickness of snow averaged over the snow-covered part of the sea ice. snowthic_cea (i.e., isnowthi) = hsnif * fr_i (at each time steps), where hsnif is snow thickness and fr_i is snow fraction which is same as ice fraction. 2. Post-processing: (1) isnowthi / siconc (if siconc > 0.0; both icethic_cea and siconc are daily means); (2) ice-free grid cells (currently zeros) to be filled with missing value.",
    "MIPs (requesting)": "  SIMIP(1,1,1,1)",
    "experiments": "  abrupt-4xCO2 (SIMIP:1), 1pctCO2 (SIMIP:1), historical (SIMIP:1), piControl (SIMIP:1)"
  },
  "sispeed": {
    "CCCma TS var name": " ivel_cea siconc",
    "CCCma diag file": "1d_icemod",
    "CCCma optional deck": "divtwo_fillmissing",
    "CCCma units": " m s-1 ",
    "CCCma hist file": "1d_icemod",
    "CCCma check": "DY; MS.",
    "CCCma comment": "1. Added in nemo code by DY; CMIP6 requests area-weighted average; ivel_cea already considers fr_i. 2. Post-processing: (1) ivel_cea / siconc (if siconc > 0.0, both ivel_cea and siconc are daily means); (2) ice-free grid cells (currently zeros) to be filed with missing values. ",
    "MIPs (requesting)": "  SIMIP(1,1,1,1)",
    "experiments": "  abrupt-4xCO2 (SIMIP:1), 1pctCO2 (SIMIP:1), historical (SIMIP:1), piControl (SIMIP:1)"
  },
  "sitemptop": {
    "CCCma TS var name": " sitemptop_cea siconc",
    "CCCma diag file": "1d_icemod",
    "CCCma optional deck": "divtwo_fillmissing",
    "CCCma units": " K ",
    "CCCma hist file": "1d_icemod",
    "CCCma check": "DY; MS.",
    "CCCma comment": "1. Added in nemo code by DY; CMIP6 requests area-weighted average; sitemptop_cea = sist * fr_i, where sist is ice surface temperature and fr_i is ice fraction. 2. Post-processing: (1) sitemptop_cea / siconc (if siconc > 0.0, both sitemptop_cea and siconc are daily means); (2) ice-free grid cells (currently zeros) to be filled with missing values. ",
    "MIPs (requesting)": "  DCPP(3), PAMIP(3), SIMIP(1,1,1,1)",
    "experiments": "  abrupt-4xCO2 (SIMIP:1), 1pctCO2 (SIMIP:1), historical (SIMIP:1,DCPP:3,PAMIP:3), piControl (SIMIP:1)"
  },
  "sithick": {
    "CCCma TS var name": " iicethic siconc",
    "CCCma diag file": "1d_icemod",
    "CCCma optional deck": " divtwo_fillmissing",
    "CCCma units": " m ",
    "CCCma hist file": "1d_icemod",
    "CCCma check": "DY; MS.",
    "CCCma comment": "1. Added in nemo code by DY; CMIP6 requests thickness of sea ice averaged over ice-covered part of a given grid cell; icethic_cea (i.e.,iicethic) = hicif * fr_i (at each time steps), where hicif is ice thickness and fr_i (i.e., siconc) is ice fraction. 2. Post-processing: (1) iicethic / siconc (if siconc > 0.0; both iicethic and siconc are daily means); (2) ice-free grid cells (currently zeros) to be filled with missing values. ",
    "MIPs (requesting)": "  CFMIP(1,1,1,1,1), CMIP(1,1,1), DAMIP(1,1), HighResMIP(1,1,1), SIMIP(1,1,1,1), VolMIP(1)",
    "experiments": "  abrupt-4xCO2 (CFMIP:1,SIMIP:1), amip (CFMIP:1,CMIP:1,HighResMIP:1), 1pctCO2 (CFMIP:1,SIMIP:1), historical (CFMIP:1,CMIP:1,DAMIP:1,HighResMIP:1,SIMIP:1), piControl (CFMIP:1,CMIP:1,DAMIP:1,HighResMIP:1,SIMIP:1,VolMIP:1)"
  },
  "sitimefrac": {
    "CCCma TS var name": " sitimefrac",
    "CCCma diag file": "1d_icemod",
    "CCCma units": "1",
    "CCCma hist file": "1d_icemod",
    "CCCma check": "DY; MS.",
    "CCCma comment": "1. Added in nemo code by DY. ",
    "MIPs (requesting)": "  SIMIP(1,1,1,1)",
    "experiments": "  abrupt-4xCO2 (SIMIP:1), 1pctCO2 (SIMIP:1), historical (SIMIP:1), piControl (SIMIP:1)"
  },
  "siu": {
    "CCCma TS var name": " siu_cea fr_iu ",
    "CCCma diag file": "1d_grid_u",
    "CCCma optional deck": " divtwo_fillmissing",
    "CCCma units": " m s-1 ",
    "CCCma hist file": "1d_grid_u_ar6",
    "CCCma check": "DY; MS.",
    "CCCma comment": "1. Added in nemo code by DY; CMIP6 requests area-weighted average; siu_cea = u_ice * fr_iu, where u_ice is ice velocity along i-axis and fr_iu is ice fraction at u grid. 2. Post-processing: (1) siu_cea / fr_iu (if fr_iu > 0.0, both siu_cea and fr_iu are daily means); (2) ice-free grid cells (currently zeros) to be filled with missing values.",
    "MIPs (requesting)": "  CFMIP(1,1,1,1,1), CMIP(1,1,1), DAMIP(1,1), HighResMIP(1,1,1), SIMIP(1,1,1,1), VolMIP(1)",
    "experiments": "  abrupt-4xCO2 (CFMIP:1,SIMIP:1), amip (CFMIP:1,CMIP:1,HighResMIP:1), 1pctCO2 (CFMIP:1,SIMIP:1), historical (CFMIP:1,CMIP:1,DAMIP:1,HighResMIP:1,SIMIP:1), piControl (CFMIP:1,CMIP:1,DAMIP:1,HighResMIP:1,SIMIP:1,VolMIP:1)"
  },
  "siv": {
    "CCCma TS var name": " siv_cea fr_iv ",
    "CCCma diag file": "1d_grid_v",
    "CCCma optional deck": " divtwo_fillmissing",
    "CCCma units": " m s-1 ",
    "CCCma hist file": "1d_grid_v_ar6",
    "CCCma check": "DY; MS.",
    "CCCma comment": "1. Added in nemo vode by DY; CMIP6 requests area-weighted average; siv_cea = v_ice * fr_iv, where v_ice is ice velocity along j-axis and fr_iv is ice fraction at v grid. 2. Post-processing: siv_cea / fr_iv (if fr_iv > 0.0, both siv_cea and fr_iv are daily means); (2) ice-free grid cells (currently zeros) to be filled with missing values. ",
    "CCCma NetCDF comment": "Note that there exist unphysical values at j=291 that are filled with missing values. ",
    "MIPs (requesting)": "  CFMIP(1,1,1,1,1), CMIP(1,1,1), DAMIP(1,1), HighResMIP(1,1,1), SIMIP(1,1,1,1), VolMIP(1)",
    "experiments": "  abrupt-4xCO2 (CFMIP:1,SIMIP:1), amip (CFMIP:1,CMIP:1,HighResMIP:1), 1pctCO2 (CFMIP:1,SIMIP:1), historical (CFMIP:1,CMIP:1,DAMIP:1,HighResMIP:1,SIMIP:1), piControl (CFMIP:1,CMIP:1,DAMIP:1,HighResMIP:1,SIMIP:1,VolMIP:1)"
  }
}