{
  "clt": {
    "CCCma TS var name": "cldt",
    "CCCma diag file": "3h",
    "CCCma optional deck": "mltby100",
    "CCCma units": "-",
    "CCCma hist file": "3hr",
    "CCCma hist var frequency": "IS3HR=12  (for all)",
    "CCCma comment": "accumulated",
    "MIPs (requesting)": "  CMIP(1,1,1,1,1,1), HighResMIP(1,1,1), LS3MIP(1), VIACSAB(1,1,1,1)",
    "experiments": "  abrupt-4xCO2 (CMIP:1,CMIP:1), amip (CMIP:1,HighResMIP:1,VIACSAB:1), 1pctCO2 (CMIP:1,VIACSAB:1), historical (CMIP:1,HighResMIP:1,LS3MIP:1,VIACSAB:1), piControl (CMIP:1,HighResMIP:1,VIACSAB:1)"
  },
  "hfls": {
    "CCCma TS var name": "hfl",
    "CCCma diag file": "3h",
    "CCCma units": "W m-2",
    "CCCma hist file": "3hr",
    "CCCma comment": "accumulated",
    "MIPs (requesting)": "  CMIP(1,1,1,1,1,1), HighResMIP(1,1,1), VIACSAB(1,1,1,2,2,2)",
    "experiments": "  abrupt-4xCO2 (CMIP:1,CMIP:1), amip (CMIP:1,HighResMIP:1,VIACSAB:1,VIACSAB:2), 1pctCO2 (CMIP:1,VIACSAB:2), historical (CMIP:1,HighResMIP:1,VIACSAB:1,VIACSAB:2), piControl (CMIP:1,HighResMIP:1,VIACSAB:1)"
  },
  "hfss": {
    "CCCma TS var name": "hfs",
    "CCCma diag file": "3h",
    "CCCma units": "W m-2",
    "CCCma hist file": "3hr",
    "CCCma comment": "accumulated",
    "MIPs (requesting)": "  CMIP(1,1,1,1,1,1), HighResMIP(1,1,1), VIACSAB(1,1,1,2,2,2)",
    "experiments": "  abrupt-4xCO2 (CMIP:1,CMIP:1), amip (CMIP:1,HighResMIP:1,VIACSAB:1,VIACSAB:2), 1pctCO2 (CMIP:1,VIACSAB:2), historical (CMIP:1,HighResMIP:1,VIACSAB:1,VIACSAB:2), piControl (CMIP:1,HighResMIP:1,VIACSAB:1)"
  },
  "huss": {
    "CCCma TS var name": "sq",
    "CCCma diag file": "3h",
    "CCCma units": "-",
    "CCCma hist file": "3hr",
    "MIPs (requesting)": "  CFMIP(1), CMIP(1,1,1,1,1,1), DAMIP(2,2), HighResMIP(1,1,1), LS3MIP(1), VIACSAB(1,1,2,2,2,2)",
    "experiments": "  abrupt-4xCO2 (CMIP:1,CMIP:1), amip (CFMIP:1,CMIP:1,HighResMIP:1,VIACSAB:1,VIACSAB:2), 1pctCO2 (CMIP:1,VIACSAB:2), historical (CMIP:1,HighResMIP:1,LS3MIP:1,VIACSAB:1,DAMIP:2,VIACSAB:2), piControl (CMIP:1,HighResMIP:1,DAMIP:2,VIACSAB:2)"
  },
  "mrro": {
    "CCCma TS var name": "rof",
    "CCCma diag file": "3h",
    "CCCma units": "kg m-2 s-1",
    "CCCma hist file": "3hr",
    "CCCma comment": "accumulated, land tile only",
    "MIPs (requesting)": "  CMIP(1,1,1,1,1,1), HighResMIP(1,1,1), VIACSAB(1,1,2,2,2)",
    "experiments": "  abrupt-4xCO2 (CMIP:1,CMIP:1), amip (CMIP:1,HighResMIP:1,VIACSAB:1,VIACSAB:2), 1pctCO2 (CMIP:1), historical (CMIP:1,HighResMIP:1,VIACSAB:1,VIACSAB:2), piControl (CMIP:1,HighResMIP:1,VIACSAB:2)"
  },
  "mrsos": {
    "CCCma TS var name": "wgl wgf",
    "CCCma diag file": "3h",
    "CCCma optional deck": "wglfone",
    "CCCma units": "kg m-2",
    "CCCma hist file": "3hr",
    "CCCma comment": "Sampled, sum of first layer of WGL+WGF.",
    "MIPs (requesting)": "  CMIP(1,1,1,1,1,1), HighResMIP(1,1,1), VIACSAB(1,1,2,2,2)",
    "experiments": "  abrupt-4xCO2 (CMIP:1,CMIP:1), amip (CMIP:1,HighResMIP:1,VIACSAB:1,VIACSAB:2), 1pctCO2 (CMIP:1), historical (CMIP:1,HighResMIP:1,VIACSAB:1,VIACSAB:2), piControl (CMIP:1,HighResMIP:1,VIACSAB:2)"
  },
  "pr": {
    "CCCma TS var name": "pcp",
    "CCCma diag file": "3h",
    "CCCma units": "kg m-2 s-1",
    "CCCma hist file": "3hr",
    "CCCma comment": "accumulated",
    "MIPs (requesting)": "  CMIP(1,1,1,1,1,1), DAMIP(2,2), GeoMIP(1,1,1), HighResMIP(1,1,1), LS3MIP(1), VIACSAB(1,1,1,1,2,2,2)",
    "experiments": "  abrupt-4xCO2 (CMIP:1,CMIP:1,GeoMIP:1), amip (CMIP:1,HighResMIP:1,VIACSAB:1,VIACSAB:2), 1pctCO2 (CMIP:1,VIACSAB:2), historical (CMIP:1,GeoMIP:1,HighResMIP:1,LS3MIP:1,VIACSAB:1,VIACSAB:1,DAMIP:2,VIACSAB:2), piControl (CMIP:1,GeoMIP:1,HighResMIP:1,VIACSAB:1,DAMIP:2)"
  },
  "prc": {
    "CCCma TS var name": "pcpc",
    "CCCma diag file": "3h",
    "CCCma units": "kg m-2 s-1",
    "CCCma hist file": "3hr",
    "CCCma comment": "accumulated",
    "MIPs (requesting)": "  CMIP(1,1,1,1,1,1), GeoMIP(1,1,1), HighResMIP(1,1,1), VIACSAB(1,1,1,1)",
    "experiments": "  abrupt-4xCO2 (CMIP:1,CMIP:1,GeoMIP:1), amip (CMIP:1,HighResMIP:1,VIACSAB:1), 1pctCO2 (CMIP:1), historical (CMIP:1,GeoMIP:1,HighResMIP:1,VIACSAB:1,VIACSAB:1), piControl (CMIP:1,GeoMIP:1,HighResMIP:1,VIACSAB:1)"
  },
  "prsn": {
    "CCCma TS var name": "pcpn",
    "CCCma diag file": "3h",
    "CCCma units": "kg m-2 s-1",
    "CCCma hist file": "3hr",
    "CCCma comment": "accumulated",
    "MIPs (requesting)": "  CMIP(1,1,1,1,1,1), HighResMIP(1,1,1), VIACSAB(1,1,2)",
    "experiments": "  abrupt-4xCO2 (CMIP:1,CMIP:1), amip (CMIP:1,HighResMIP:1,VIACSAB:1), 1pctCO2 (CMIP:1), historical (CMIP:1,HighResMIP:1,VIACSAB:1,VIACSAB:2), piControl (CMIP:1,HighResMIP:1)"
  },
  "ps": {
    "CCCma TS var name": "ps",
    "CCCma diag file": "3h",
    "CCCma optional deck": "mltby100",
    "CCCma units": "mb",
    "CCCma hist file": "3hr",
    "CCCma check": "Need to add conversion of LNSP to SP in optional deck.",
    "CCCma comment": "Sampled",
    "MIPs (requesting)": "  CMIP(1,1,1,1,1,1), HighResMIP(1,1,1), RFMIP(1), VIACSAB(1,1,1)",
    "experiments": "  abrupt-4xCO2 (CMIP:1,CMIP:1), amip (CMIP:1,HighResMIP:1,VIACSAB:1), 1pctCO2 (CMIP:1), historical (CMIP:1,HighResMIP:1,RFMIP:1,VIACSAB:1), piControl (CMIP:1,HighResMIP:1,VIACSAB:1)"
  },
  "rlds": {
    "CCCma TS var name": "fdl",
    "CCCma diag file": "3h",
    "CCCma units": "W m-2",
    "CCCma hist file": "3hr",
    "CCCma comment": "accumulated",
    "MIPs (requesting)": "  CMIP(1,1,1,1,1,1), HighResMIP(1,1,1), LS3MIP(1), VIACSAB(1,1,1,2,2,2,2)",
    "experiments": "  abrupt-4xCO2 (CMIP:1,CMIP:1), amip (CMIP:1,HighResMIP:1,VIACSAB:1,VIACSAB:2), 1pctCO2 (CMIP:1,VIACSAB:1,VIACSAB:2), historical (CMIP:1,HighResMIP:1,LS3MIP:1,VIACSAB:1,VIACSAB:2), piControl (CMIP:1,HighResMIP:1,VIACSAB:2)"
  },
  "rldscs": {
    "CCCma TS var name": "fdlc",
    "CCCma diag file": "3h",
    "CCCma units": "W m-2",
    "CCCma hist file": "3hr",
    "CCCma comment": "accumulated",
    "MIPs (requesting)": "  CMIP(1,1,1,1,1,1), HighResMIP(1,1,1), VIACSAB(1,1,1,2,2,2)",
    "experiments": "  abrupt-4xCO2 (CMIP:1,CMIP:1), amip (CMIP:1,HighResMIP:1,VIACSAB:1,VIACSAB:2), 1pctCO2 (CMIP:1,VIACSAB:1), historical (CMIP:1,HighResMIP:1,VIACSAB:1,VIACSAB:2), piControl (CMIP:1,HighResMIP:1,VIACSAB:2)"
  },
  "rlus": {
    "CCCma TS var name": "fdl flg",
    "CCCma diag file": "3h",
    "CCCma optional deck": "subtract",
    "CCCma units": "W m-2",
    "CCCma hist file": "3hr",
    "CCCma comment": "accumulated",
    "MIPs (requesting)": "  CMIP(1,1,1,1,1,1), HighResMIP(1,1,1), VIACSAB(1,1,1,2,2,2,2)",
    "experiments": "  abrupt-4xCO2 (CMIP:1,CMIP:1), amip (CMIP:1,HighResMIP:1,VIACSAB:1,VIACSAB:2), 1pctCO2 (CMIP:1,VIACSAB:1,VIACSAB:2), historical (CMIP:1,HighResMIP:1,VIACSAB:1,VIACSAB:2), piControl (CMIP:1,HighResMIP:1,VIACSAB:2)"
  },
  "rsds": {
    "CCCma TS var name": "fss",
    "CCCma diag file": "3h",
    "CCCma units": "W m-2",
    "CCCma hist file": "3hr",
    "CCCma comment": "accumulated",
    "MIPs (requesting)": "  CMIP(1,1,1,1,1,1), DAMIP(2,2), HighResMIP(1,1,1), LS3MIP(1), VIACSAB(1,1,1,1,2,2,2,2)",
    "experiments": "  abrupt-4xCO2 (CMIP:1,CMIP:1), amip (CMIP:1,HighResMIP:1,VIACSAB:1,VIACSAB:2), 1pctCO2 (CMIP:1,VIACSAB:1,VIACSAB:2), historical (CMIP:1,HighResMIP:1,LS3MIP:1,VIACSAB:1,VIACSAB:1,DAMIP:2,VIACSAB:2), piControl (CMIP:1,HighResMIP:1,DAMIP:2,VIACSAB:2)"
  },
  "rsdscs": {
    "CCCma TS var name": "fssc",
    "CCCma diag file": "3h",
    "CCCma units": "W m-2",
    "CCCma hist file": "3hr",
    "CCCma comment": "accumulated",
    "MIPs (requesting)": "  CMIP(1,1,1,1,1,1), HighResMIP(1,1,1), RFMIP(1), VIACSAB(1,1,1,1)",
    "experiments": "  abrupt-4xCO2 (CMIP:1,CMIP:1), amip (CMIP:1,HighResMIP:1,VIACSAB:1), 1pctCO2 (CMIP:1,VIACSAB:1), historical (CMIP:1,HighResMIP:1,RFMIP:1,VIACSAB:1), piControl (CMIP:1,HighResMIP:1,VIACSAB:1)"
  },
  "rsdsdiff": {
    "CCCma TS var name": "fss fsd",
    "CCCma diag file": "3h",
    "CCCma optional deck": "subtract",
    "CCCma units": "W m-2",
    "CCCma hist file": "3hr",
    "CCCma comment": "accumulated",
    "MIPs (requesting)": "  CMIP(1,1,1,1,1,1), HighResMIP(1,1,1), VIACSAB(1,1,1,2,2,2)",
    "experiments": "  abrupt-4xCO2 (CMIP:1,CMIP:1), amip (CMIP:1,HighResMIP:1,VIACSAB:1,VIACSAB:2), 1pctCO2 (CMIP:1), historical (CMIP:1,HighResMIP:1,VIACSAB:1,VIACSAB:1,VIACSAB:2), piControl (CMIP:1,HighResMIP:1,VIACSAB:2)"
  },
  "rsus": {
    "CCCma TS var name": "fss fsg",
    "CCCma diag file": "3h",
    "CCCma optional deck": "subtract",
    "CCCma units": "W m-2",
    "CCCma hist file": "3hr",
    "CCCma comment": "accumulated",
    "MIPs (requesting)": "  CMIP(1,1,1,1,1,1), HighResMIP(1,1,1), VIACSAB(1,1,1,2,2,2,2)",
    "experiments": "  abrupt-4xCO2 (CMIP:1,CMIP:1), amip (CMIP:1,HighResMIP:1,VIACSAB:1,VIACSAB:2), 1pctCO2 (CMIP:1,VIACSAB:1,VIACSAB:2), historical (CMIP:1,HighResMIP:1,VIACSAB:1,VIACSAB:2), piControl (CMIP:1,HighResMIP:1,VIACSAB:2)"
  },
  "rsuscs": {
    "CCCma TS var name": "fssc fsgc",
    "CCCma diag file": "3h",
    "CCCma optional deck": "subtract",
    "CCCma units": "W m-2",
    "CCCma hist file": "3hr",
    "CCCma comment": "accumulated",
    "MIPs (requesting)": "  CMIP(1,1,1,1,1,1), HighResMIP(1,1,1), VIACSAB(1,1,1,2,2,2)",
    "experiments": "  abrupt-4xCO2 (CMIP:1,CMIP:1), amip (CMIP:1,HighResMIP:1,VIACSAB:1,VIACSAB:2), 1pctCO2 (CMIP:1,VIACSAB:1), historical (CMIP:1,HighResMIP:1,VIACSAB:1,VIACSAB:2), piControl (CMIP:1,HighResMIP:1,VIACSAB:2)"
  },
  "tas": {
    "CCCma TS var name": "st",
    "CCCma diag file": "3h",
    "CCCma units": "K",
    "CCCma hist file": "3hr",
    "CCCma comment": "sampled",
    "MIPs (requesting)": "  CFMIP(1), CMIP(1,1,1,1,1,1), DAMIP(2,2), HighResMIP(1,1,1), LS3MIP(1), VIACSAB(1,1,1,1,2,2,2)",
    "experiments": "  abrupt-4xCO2 (CMIP:1,CMIP:1), amip (CFMIP:1,CMIP:1,HighResMIP:1,VIACSAB:1,VIACSAB:2), 1pctCO2 (CMIP:1,VIACSAB:1,VIACSAB:2), historical (CMIP:1,HighResMIP:1,LS3MIP:1,VIACSAB:1,DAMIP:2,VIACSAB:2), piControl (CMIP:1,HighResMIP:1,VIACSAB:1,DAMIP:2)"
  },
  "tos": {
    "CCCma TS var name": "tos",
    "CCCma diag file": "3h_grid_t",
    "CCCma units": "degC",
    "CCCma hist file": "3h_grid_t_ar6",
    "CCCma check": "DY",
    "MIPs (requesting)": "  CMIP(1,1,1,1,1,1), HighResMIP(1,1,1), VIACSAB(1,1,1)",
    "experiments": "  abrupt-4xCO2 (CMIP:1,CMIP:1), amip (CMIP:1,HighResMIP:1,VIACSAB:1), 1pctCO2 (CMIP:1,VIACSAB:1), historical (CMIP:1,HighResMIP:1,VIACSAB:1), piControl (CMIP:1,HighResMIP:1)"
  },
  "tslsi": {
    "CCCma TS var name": "gtt fare",
    "CCCma diag file": "3h",
    "CCCma optional deck": "tslsi_tile",
    "CCCma units": "K",
    "CCCma hist file": "3hr",
    "CCCma check": " We have provided tile fractions and skin temps every coupling cycle. Do we include unresoved lakes (tile #2)?",
    "CCCma comment": "(FARE(1)*GTT(1)+(FARE(2)*GTT(2)+FARE(6)*GTT(6))/(FARE(1)+FARE(2)+FARE(6))",
    "MIPs (requesting)": "  CMIP(1,1,1,1,1,1), HighResMIP(1,1,1), VIACSAB(1,1,1)",
    "experiments": "  abrupt-4xCO2 (CMIP:1,CMIP:1), amip (CMIP:1,HighResMIP:1,VIACSAB:1), 1pctCO2 (CMIP:1), historical (CMIP:1,HighResMIP:1,VIACSAB:1), piControl (CMIP:1,HighResMIP:1,VIACSAB:1)"
  },
  "uas": {
    "CCCma TS var name": "su",
    "CCCma diag file": "3h",
    "CCCma units": "m s-1",
    "CCCma hist file": "3hr",
    "CCCma comment": "sampled",
    "MIPs (requesting)": "  CFMIP(1), CMIP(1,1,1,1,1,1), HighResMIP(1,1,1), VIACSAB(1,1,1,2,2,2)",
    "experiments": "  abrupt-4xCO2 (CMIP:1,CMIP:1), amip (CFMIP:1,CMIP:1,HighResMIP:1,VIACSAB:1,VIACSAB:2), 1pctCO2 (CMIP:1,VIACSAB:2), historical (CMIP:1,HighResMIP:1,VIACSAB:1,VIACSAB:2), piControl (CMIP:1,HighResMIP:1,VIACSAB:1)"
  },
  "vas": {
    "CCCma TS var name": "sv",
    "CCCma diag file": "3h",
    "CCCma units": "m s-1",
    "CCCma hist file": "3hr",
    "CCCma comment": "sampled",
    "MIPs (requesting)": "  CFMIP(1), CMIP(1,1,1,1,1,1), HighResMIP(1,1,1), VIACSAB(1,1,1,2,2,2)",
    "experiments": "  abrupt-4xCO2 (CMIP:1,CMIP:1), amip (CFMIP:1,CMIP:1,HighResMIP:1,VIACSAB:1,VIACSAB:2), 1pctCO2 (CMIP:1,VIACSAB:2), historical (CMIP:1,HighResMIP:1,VIACSAB:1,VIACSAB:2), piControl (CMIP:1,HighResMIP:1,VIACSAB:1)"
  }
}