{
  "bs550aer": {
    "CCCma TS var name": null,
    "CCCma diag file": null,
    "MIPs (requesting)": "  AerChemMIP(1)",
    "experiments": "  amip (AerChemMIP:1)"
  },
  "ec550aer": {
    "CCCma TS var name": null,
    "CCCma diag file": null,
    "MIPs (requesting)": "  AerChemMIP(1)",
    "experiments": "  amip (AerChemMIP:1)"
  },
  "hus": {
    "CCCma TS var name": "SHUM",
    "CCCma diag file": "ds",
    "CCCma units": "-",
    "CCCma hist file": "ss",
    "CCCma hist var names": "ES",
    "CCCma hist var frequency": "ISSP",
    "CCCma check": "Done.",
    "MIPs (requesting)": "  CMIP(1,1), CORDEX(1,1), PMIP(1,1,1,1), VIACSAB(1,1,1,3,3,3), VolMIP(1)",
    "experiments": "  amip (CMIP:1,PMIP:1,VIACSAB:1,VIACSAB:3), 1pctCO2 (PMIP:1), historical (CMIP:1,CORDEX:1,PMIP:1,VIACSAB:1,VIACSAB:3,VIACSAB:3), piControl (CORDEX:1,PMIP:1,VIACSAB:1,VolMIP:1)"
  },
  "pfull": {
    "CCCma TS var name": null,
    "CCCma diag file": null,
    "CCCma check": "To be provided diagnostically using LNSP..",
    "MIPs (requesting)": "  PMIP(1,1,1,1)",
    "experiments": "  amip (PMIP:1), 1pctCO2 (PMIP:1), historical (PMIP:1), piControl (PMIP:1)"
  },
  "ps": {
    "CCCma TS var name": "PS",
    "CCCma diag file": "ds",
    "CCCma optional deck": "mltby100",
    "CCCma units": "hPa",
    "CCCma hist file": "ss",
    "CCCma hist var names": "LNSP",
    "CCCma hist var frequency": "ISSP",
    "CCCma check": "Done.",
    "CCCma comment": "PS*100",
    "MIPs (requesting)": "  CMIP(1,1), CORDEX(1,1), PMIP(1,1,1,1), VIACSAB(1,1,1,3,3,3), VolMIP(1)",
    "experiments": "  amip (CMIP:1,PMIP:1,VIACSAB:1,VIACSAB:3), 1pctCO2 (PMIP:1), historical (CMIP:1,CORDEX:1,PMIP:1,VIACSAB:1,VIACSAB:3,VIACSAB:3), piControl (CORDEX:1,PMIP:1,VIACSAB:1,VolMIP:1)"
  },
  "ta": {
    "CCCma TS var name": "TEMP",
    "CCCma diag file": "ds",
    "CCCma units": "K",
    "CCCma hist file": "ss",
    "CCCma hist var names": "TEMP",
    "CCCma hist var frequency": "ISSP",
    "CCCma check": "Done.",
    "MIPs (requesting)": "  CMIP(1,1), CORDEX(1,1), PMIP(1,1,1,1), VIACSAB(1,1,1,1,1,3,3,3), VolMIP(1)",
    "experiments": "  amip (CMIP:1,PMIP:1,VIACSAB:1,VIACSAB:3), 1pctCO2 (PMIP:1), historical (CMIP:1,CORDEX:1,PMIP:1,VIACSAB:1,VIACSAB:1,VIACSAB:1,VIACSAB:3,VIACSAB:3), piControl (CORDEX:1,PMIP:1,VIACSAB:1,VolMIP:1)"
  },
  "ua": {
    "CCCma TS var name": "U",
    "CCCma diag file": "ds",
    "CCCma units": "m s-1",
    "CCCma hist file": "ss",
    "CCCma hist var names": "VORT,DIV",
    "CCCma hist var frequency": "ISSP",
    "CCCma check": "Done.",
    "MIPs (requesting)": "  CMIP(1,1), CORDEX(1,1), PMIP(1,1,1,1), VIACSAB(1,1,1,1,3,3,3), VolMIP(1)",
    "experiments": "  amip (CMIP:1,PMIP:1,VIACSAB:1,VIACSAB:3), 1pctCO2 (PMIP:1), historical (CMIP:1,CORDEX:1,PMIP:1,VIACSAB:1,VIACSAB:1,VIACSAB:3,VIACSAB:3), piControl (CORDEX:1,PMIP:1,VIACSAB:1,VolMIP:1)"
  },
  "va": {
    "CCCma TS var name": "V",
    "CCCma diag file": "ds",
    "CCCma units": "m s-1",
    "CCCma hist file": "ss",
    "CCCma hist var names": "VORT,DIV",
    "CCCma hist var frequency": "ISSP",
    "CCCma check": "Done.",
    "MIPs (requesting)": "  CMIP(1,1), CORDEX(1,1), PMIP(1,1,1,1), VIACSAB(1,1,1,1,3,3,3), VolMIP(1)",
    "experiments": "  amip (CMIP:1,PMIP:1,VIACSAB:1,VIACSAB:3), 1pctCO2 (PMIP:1), historical (CMIP:1,CORDEX:1,PMIP:1,VIACSAB:1,VIACSAB:1,VIACSAB:3,VIACSAB:3), piControl (CORDEX:1,PMIP:1,VIACSAB:1,VolMIP:1)"
  }
}