{
  "baresoilFrac": {
    "CCCma TS var name": "BRFR",
    "CCCma diag file": "tp",
    "CCCma optional deck": "mltby100",
    "CCCma units": "fraction per unit land area",
    "CCCma hist file": "_tm",
    "CCCma hist var names": "BRFR",
    "CCCma hist var frequency": "daily",
    "CCCma check": "Done. Vivek put in _tm file.",
    "CCCma comment": "This is time variant in !CanESM runs if they include land use change. This is basically 1 minus sum of fractional coverage of all vegetation types from a land cover scenario file.",
    "MIPs (requesting)": "  AerChemMIP(1,1,1,1,1), C4MIP(1,1,1,1,1), CFMIP(1,1,1,1,1), CMIP(1,1,1,1,1,1), FAFMIP(1,1,1), GeoMIP(1,1,1), HighResMIP(1,1,1), LUMIP(1), PMIP(1,1,1,1,1), RFMIP(1,1,1,1,1), VIACSAB(1,1,1,1,2,2,2,2), VolMIP(1,1)",
    "experiments": "  abrupt-4xCO2 (AerChemMIP:1,C4MIP:1,CFMIP:1,CMIP:1,CMIP:1,FAFMIP:1,GeoMIP:1,PMIP:1,RFMIP:1), amip (AerChemMIP:1,C4MIP:1,CFMIP:1,CMIP:1,HighResMIP:1,PMIP:1,RFMIP:1,VIACSAB:1,VIACSAB:2), 1pctCO2 (AerChemMIP:1,C4MIP:1,CFMIP:1,CMIP:1,FAFMIP:1,PMIP:1,RFMIP:1), historical (AerChemMIP:1,C4MIP:1,CFMIP:1,CMIP:1,GeoMIP:1,HighResMIP:1,LUMIP:1,PMIP:1,RFMIP:1,VIACSAB:1,VIACSAB:1,VolMIP:1,VIACSAB:2,VIACSAB:2), piControl (AerChemMIP:1,C4MIP:1,CFMIP:1,CMIP:1,FAFMIP:1,GeoMIP:1,HighResMIP:1,PMIP:1,RFMIP:1,VIACSAB:1,VolMIP:1,VIACSAB:2)"
  },
  "burntFractionAll": {
    "CCCma TS var name": null,
    "CCCma diag file": null,
    "CCCma check": "N/A. No fire in CTEM for CMIP6. No need to output.",
    "MIPs (requesting)": "  AerChemMIP(1,1,1,1,1), C4MIP(1,1,1,1,1), CFMIP(1,1,1,1,1), CMIP(1,1,1,1,1,1), FAFMIP(1,1,1), GeoMIP(1,1,1), HighResMIP(1,1,1), LUMIP(1), PMIP(1,1,1,1,1), RFMIP(1,1,1,1,1), VIACSAB(1,2,2,2,2), VolMIP(1,1)",
    "experiments": "  abrupt-4xCO2 (AerChemMIP:1,C4MIP:1,CFMIP:1,CMIP:1,CMIP:1,FAFMIP:1,GeoMIP:1,PMIP:1,RFMIP:1), amip (AerChemMIP:1,C4MIP:1,CFMIP:1,CMIP:1,HighResMIP:1,PMIP:1,RFMIP:1,VIACSAB:2), 1pctCO2 (AerChemMIP:1,C4MIP:1,CFMIP:1,CMIP:1,FAFMIP:1,PMIP:1,RFMIP:1), historical (AerChemMIP:1,C4MIP:1,CFMIP:1,CMIP:1,GeoMIP:1,HighResMIP:1,LUMIP:1,PMIP:1,RFMIP:1,VIACSAB:1,VolMIP:1,VIACSAB:2,VIACSAB:2), piControl (AerChemMIP:1,C4MIP:1,CFMIP:1,CMIP:1,FAFMIP:1,GeoMIP:1,HighResMIP:1,PMIP:1,RFMIP:1,VolMIP:1,VIACSAB:2)"
  },
  "c3PftFrac": {
    "CCCma TS var name": "C3PF",
    "CCCma diag file": "tp",
    "CCCma optional deck": "mltby100",
    "CCCma units": "fraction per unit land area",
    "CCCma hist file": "_tm",
    "CCCma hist var names": "C3PF",
    "CCCma hist var frequency": "daily",
    "CCCma check": "Done. Vivek put in _tm file.",
    "CCCma comment": "Land cover data are input into the model. This is basically sum of fractional coverage of vegetation types 1, 2, 3, 4, 5, 6 and 8",
    "MIPs (requesting)": "  AerChemMIP(2,2,2,2,2), CMIP(1,1,1,1,1,2,2,2,2,2), FAFMIP(2,2,2), GeoMIP(2,2,2), HighResMIP(2,2,2), PMIP(1,1,1,1,1), RFMIP(2,2,2,2,2), VIACSAB(1,1,1,1), VolMIP(2,2)",
    "experiments": "  abrupt-4xCO2 (CMIP:1,PMIP:1,AerChemMIP:2,CMIP:2,FAFMIP:2,GeoMIP:2,RFMIP:2), amip (CMIP:1,PMIP:1,VIACSAB:1,AerChemMIP:2,CMIP:2,HighResMIP:2,RFMIP:2), 1pctCO2 (CMIP:1,PMIP:1,AerChemMIP:2,CMIP:2,FAFMIP:2,RFMIP:2), historical (CMIP:1,PMIP:1,VIACSAB:1,VIACSAB:1,AerChemMIP:2,CMIP:2,GeoMIP:2,HighResMIP:2,RFMIP:2,VolMIP:2), piControl (CMIP:1,PMIP:1,VIACSAB:1,AerChemMIP:2,CMIP:2,FAFMIP:2,GeoMIP:2,HighResMIP:2,RFMIP:2,VolMIP:2)"
  },
  "c4PftFrac": {
    "CCCma TS var name": "C4PF",
    "CCCma diag file": "tp",
    "CCCma optional deck": "mltby100",
    "CCCma units": "fraction per unit land area",
    "CCCma hist file": "_tm",
    "CCCma hist var names": "C4PF",
    "CCCma hist var frequency": "daily",
    "CCCma check": "Done. Vivek put in _tm file.",
    "CCCma comment": "Land cover data are input into the model. This is basically sum of fractional coverage of vegetation types 7 and 9.",
    "MIPs (requesting)": "  AerChemMIP(2,2,2,2,2), CMIP(1,1,1,1,1,2,2,2,2,2), FAFMIP(2,2,2), GeoMIP(2,2,2), HighResMIP(2,2,2), PMIP(1,1,1,1,1), RFMIP(2,2,2,2,2), VIACSAB(1,1,1,1), VolMIP(2,2)",
    "experiments": "  abrupt-4xCO2 (CMIP:1,PMIP:1,AerChemMIP:2,CMIP:2,FAFMIP:2,GeoMIP:2,RFMIP:2), amip (CMIP:1,PMIP:1,VIACSAB:1,AerChemMIP:2,CMIP:2,HighResMIP:2,RFMIP:2), 1pctCO2 (CMIP:1,PMIP:1,AerChemMIP:2,CMIP:2,FAFMIP:2,RFMIP:2), historical (CMIP:1,PMIP:1,VIACSAB:1,VIACSAB:1,AerChemMIP:2,CMIP:2,GeoMIP:2,HighResMIP:2,RFMIP:2,VolMIP:2), piControl (CMIP:1,PMIP:1,VIACSAB:1,AerChemMIP:2,CMIP:2,FAFMIP:2,GeoMIP:2,HighResMIP:2,RFMIP:2,VolMIP:2)"
  },
  "cCwd": {
    "CCCma TS var name": null,
    "CCCma diag file": null,
    "CCCma check": "Vivek says, we don't have this variable.",
    "CCCma comment": "This and the next two lines are one pool in CTEM, which is the litter pool CDEB. We don't make these distinctions.",
    "MIPs (requesting)": "  AerChemMIP(2,2,2,2,2), CMIP(2,2,2,2,2), FAFMIP(2,2,2), GeoMIP(2,2,2), HighResMIP(2,2,2), RFMIP(2,2,2,2,2), VIACSAB(1,1,1,1,2,2,2,2), VolMIP(2,2)",
    "experiments": "  abrupt-4xCO2 (AerChemMIP:2,CMIP:2,FAFMIP:2,GeoMIP:2,RFMIP:2), amip (VIACSAB:1,AerChemMIP:2,CMIP:2,HighResMIP:2,RFMIP:2,VIACSAB:2), 1pctCO2 (AerChemMIP:2,CMIP:2,FAFMIP:2,RFMIP:2), historical (VIACSAB:1,VIACSAB:1,AerChemMIP:2,CMIP:2,GeoMIP:2,HighResMIP:2,RFMIP:2,VIACSAB:2,VIACSAB:2,VolMIP:2), piControl (VIACSAB:1,AerChemMIP:2,CMIP:2,FAFMIP:2,GeoMIP:2,HighResMIP:2,RFMIP:2,VIACSAB:2,VolMIP:2)"
  },
  "cLeaf": {
    "CCCma TS var name": "CVGL",
    "CCCma diag file": "tp",
    "MIPs (requesting)": "  AerChemMIP(2,2,2,2,2), C4MIP(2,2,2,2), CMIP(2,2,2,2,2), FAFMIP(2,2,2), GeoMIP(2,2,2), HighResMIP(2,2,2), LUMIP(2), RFMIP(2,2,2,2,2), VIACSAB(1,1,1,1,2,2,2,2), VolMIP(2,2)",
    "experiments": "  abrupt-4xCO2 (AerChemMIP:2,C4MIP:2,CMIP:2,FAFMIP:2,GeoMIP:2,RFMIP:2), amip (VIACSAB:1,AerChemMIP:2,CMIP:2,HighResMIP:2,RFMIP:2,VIACSAB:2), 1pctCO2 (AerChemMIP:2,C4MIP:2,CMIP:2,FAFMIP:2,RFMIP:2), historical (VIACSAB:1,VIACSAB:1,AerChemMIP:2,C4MIP:2,CMIP:2,GeoMIP:2,HighResMIP:2,LUMIP:2,RFMIP:2,VIACSAB:2,VIACSAB:2,VolMIP:2), piControl (VIACSAB:1,AerChemMIP:2,C4MIP:2,CMIP:2,FAFMIP:2,GeoMIP:2,HighResMIP:2,RFMIP:2,VIACSAB:2,VolMIP:2)"
  },
  "cLitter": {
    "CCCma TS var name": "CDEB",
    "CCCma diag file": "tp",
    "MIPs (requesting)": "  AerChemMIP(1,1,1,1,1), C4MIP(1,1,1,1,1), CDRMIP(2,2,2,2,2), CMIP(1,1,1,1,1), DCPP(2), FAFMIP(1,1,1), GeoMIP(1,1,1), HighResMIP(1,1,1), LUMIP(1), PAMIP(2), PMIP(1,1,1,1,1), RFMIP(1,1,1,1,1), VIACSAB(1), VolMIP(1,1)",
    "experiments": "  abrupt-4xCO2 (AerChemMIP:1,C4MIP:1,CMIP:1,FAFMIP:1,GeoMIP:1,PMIP:1,RFMIP:1,CDRMIP:2), amip (AerChemMIP:1,C4MIP:1,CMIP:1,HighResMIP:1,PMIP:1,RFMIP:1,CDRMIP:2), 1pctCO2 (AerChemMIP:1,C4MIP:1,CMIP:1,FAFMIP:1,PMIP:1,RFMIP:1,CDRMIP:2), historical (AerChemMIP:1,C4MIP:1,CMIP:1,GeoMIP:1,HighResMIP:1,LUMIP:1,PMIP:1,RFMIP:1,VIACSAB:1,VolMIP:1,CDRMIP:2,DCPP:2,PAMIP:2), piControl (AerChemMIP:1,C4MIP:1,CMIP:1,FAFMIP:1,GeoMIP:1,HighResMIP:1,PMIP:1,RFMIP:1,VolMIP:1,CDRMIP:2)"
  },
  "cLitterAbove": {
    "CCCma TS var name": null,
    "CCCma diag file": null,
    "CCCma check": "Vivek says, we don't have this variable.",
    "MIPs (requesting)": "  AerChemMIP(2,2,2,2,2), CMIP(2,2,2,2,2), FAFMIP(2,2,2), GeoMIP(2,2,2), HighResMIP(2,2,2), RFMIP(2,2,2,2,2), VIACSAB(1), VolMIP(2,2)",
    "experiments": "  abrupt-4xCO2 (AerChemMIP:2,CMIP:2,FAFMIP:2,GeoMIP:2,RFMIP:2), amip (AerChemMIP:2,CMIP:2,HighResMIP:2,RFMIP:2), 1pctCO2 (AerChemMIP:2,CMIP:2,FAFMIP:2,RFMIP:2), historical (VIACSAB:1,AerChemMIP:2,CMIP:2,GeoMIP:2,HighResMIP:2,RFMIP:2,VolMIP:2), piControl (AerChemMIP:2,CMIP:2,FAFMIP:2,GeoMIP:2,HighResMIP:2,RFMIP:2,VolMIP:2)"
  },
  "cLitterBelow": {
    "CCCma TS var name": null,
    "CCCma diag file": null,
    "CCCma check": "Vivek says, we don't have this variable.",
    "MIPs (requesting)": "  AerChemMIP(2,2,2,2,2), CMIP(2,2,2,2,2), FAFMIP(2,2,2), GeoMIP(2,2,2), HighResMIP(2,2,2), RFMIP(2,2,2,2,2), VIACSAB(1), VolMIP(2,2)",
    "experiments": "  abrupt-4xCO2 (AerChemMIP:2,CMIP:2,FAFMIP:2,GeoMIP:2,RFMIP:2), amip (AerChemMIP:2,CMIP:2,HighResMIP:2,RFMIP:2), 1pctCO2 (AerChemMIP:2,CMIP:2,FAFMIP:2,RFMIP:2), historical (VIACSAB:1,AerChemMIP:2,CMIP:2,GeoMIP:2,HighResMIP:2,RFMIP:2,VolMIP:2), piControl (AerChemMIP:2,CMIP:2,FAFMIP:2,GeoMIP:2,HighResMIP:2,RFMIP:2,VolMIP:2)"
  },
  "cProduct": {
    "CCCma TS var name": null,
    "CCCma diag file": null,
    "CCCma check": "Vivek says, we don't have this variable.",
    "CCCma comment": "LUC products are not saved explicitly",
    "MIPs (requesting)": "  AerChemMIP(1,1,1,1,1), C4MIP(1,1,1,1,1), CDRMIP(2,2,2,2,2), CMIP(1,1,1,1,1), DCPP(2), FAFMIP(1,1,1), GeoMIP(1,1,1), HighResMIP(1,1,1), LUMIP(1), PAMIP(2), PMIP(1,1,1,1,1), RFMIP(1,1,1,1,1), VIACSAB(1), VolMIP(1,1)",
    "experiments": "  abrupt-4xCO2 (AerChemMIP:1,C4MIP:1,CMIP:1,FAFMIP:1,GeoMIP:1,PMIP:1,RFMIP:1,CDRMIP:2), amip (AerChemMIP:1,C4MIP:1,CMIP:1,HighResMIP:1,PMIP:1,RFMIP:1,CDRMIP:2), 1pctCO2 (AerChemMIP:1,C4MIP:1,CMIP:1,FAFMIP:1,PMIP:1,RFMIP:1,CDRMIP:2), historical (AerChemMIP:1,C4MIP:1,CMIP:1,GeoMIP:1,HighResMIP:1,LUMIP:1,PMIP:1,RFMIP:1,VIACSAB:1,VolMIP:1,CDRMIP:2,DCPP:2,PAMIP:2), piControl (AerChemMIP:1,C4MIP:1,CMIP:1,FAFMIP:1,GeoMIP:1,HighResMIP:1,PMIP:1,RFMIP:1,VolMIP:1,CDRMIP:2)"
  },
  "cRoot": {
    "CCCma TS var name": "CVGR",
    "CCCma diag file": "tp",
    "MIPs (requesting)": "  AerChemMIP(2,2,2,2,2), C4MIP(2,2,2,2), CMIP(2,2,2,2,2), FAFMIP(2,2,2), GeoMIP(2,2,2), HighResMIP(2,2,2), LUMIP(2), RFMIP(2,2,2,2,2), VIACSAB(1,1,1,1,2,2,2,2), VolMIP(2,2)",
    "experiments": "  abrupt-4xCO2 (AerChemMIP:2,C4MIP:2,CMIP:2,FAFMIP:2,GeoMIP:2,RFMIP:2), amip (VIACSAB:1,AerChemMIP:2,CMIP:2,HighResMIP:2,RFMIP:2,VIACSAB:2), 1pctCO2 (AerChemMIP:2,C4MIP:2,CMIP:2,FAFMIP:2,RFMIP:2), historical (VIACSAB:1,VIACSAB:1,AerChemMIP:2,C4MIP:2,CMIP:2,GeoMIP:2,HighResMIP:2,LUMIP:2,RFMIP:2,VIACSAB:2,VIACSAB:2,VolMIP:2), piControl (VIACSAB:1,AerChemMIP:2,C4MIP:2,CMIP:2,FAFMIP:2,GeoMIP:2,HighResMIP:2,RFMIP:2,VIACSAB:2,VolMIP:2)"
  },
  "cropFrac": {
    "CCCma TS var name": "CRPF",
    "CCCma diag file": "tp",
    "CCCma optional deck": "mltby100",
    "CCCma units": "fraction per unit land area",
    "CCCma hist file": "_tm",
    "CCCma hist var names": "CRPF",
    "CCCma hist var frequency": "daily",
    "CCCma check": "Done. Vivek put in _tm file.",
    "CCCma comment": "This is the sum of fractional coverage of vegetation types 6 and 7.",
    "MIPs (requesting)": "  AerChemMIP(1,1,1,1,1), C4MIP(1,1,1,1,1), CFMIP(1,1,1,1,1), CMIP(1,1,1,1,1,1), FAFMIP(1,1,1), GeoMIP(1,1,1), HighResMIP(1,1,1), LUMIP(1), PMIP(1,1,1,1,1), RFMIP(1,1,1,1,1), VIACSAB(1,1,1,1,1,2,2,2,2), VolMIP(1,1)",
    "experiments": "  abrupt-4xCO2 (AerChemMIP:1,C4MIP:1,CFMIP:1,CMIP:1,CMIP:1,FAFMIP:1,GeoMIP:1,PMIP:1,RFMIP:1), amip (AerChemMIP:1,C4MIP:1,CFMIP:1,CMIP:1,HighResMIP:1,PMIP:1,RFMIP:1,VIACSAB:1,VIACSAB:2), 1pctCO2 (AerChemMIP:1,C4MIP:1,CFMIP:1,CMIP:1,FAFMIP:1,PMIP:1,RFMIP:1,VIACSAB:1), historical (AerChemMIP:1,C4MIP:1,CFMIP:1,CMIP:1,GeoMIP:1,HighResMIP:1,LUMIP:1,PMIP:1,RFMIP:1,VIACSAB:1,VIACSAB:1,VolMIP:1,VIACSAB:2,VIACSAB:2), piControl (AerChemMIP:1,C4MIP:1,CFMIP:1,CMIP:1,FAFMIP:1,GeoMIP:1,HighResMIP:1,PMIP:1,RFMIP:1,VIACSAB:1,VolMIP:1,VIACSAB:2)"
  },
  "cSoilFast": {
    "CCCma TS var name": null,
    "CCCma diag file": null,
    "CCCma check": "Vivek says, we don't have this variable.",
    "CCCma comment": "we have only 1 soil carbon pool for this and the next 2 lines and that is CHUM.",
    "MIPs (requesting)": "  AerChemMIP(2,2,2,2,2), CMIP(2,2,2,2,2), FAFMIP(2,2,2), GeoMIP(2,2,2), HighResMIP(2,2,2), RFMIP(2,2,2,2,2), VIACSAB(1,2), VolMIP(2,2)",
    "experiments": "  abrupt-4xCO2 (AerChemMIP:2,CMIP:2,FAFMIP:2,GeoMIP:2,RFMIP:2), amip (AerChemMIP:2,CMIP:2,HighResMIP:2,RFMIP:2), 1pctCO2 (AerChemMIP:2,CMIP:2,FAFMIP:2,RFMIP:2), historical (VIACSAB:1,AerChemMIP:2,CMIP:2,GeoMIP:2,HighResMIP:2,RFMIP:2,VIACSAB:2,VolMIP:2), piControl (AerChemMIP:2,CMIP:2,FAFMIP:2,GeoMIP:2,HighResMIP:2,RFMIP:2,VolMIP:2)"
  },
  "cSoilMedium": {
    "CCCma TS var name": null,
    "CCCma diag file": null,
    "CCCma check": "Vivek says, we don't have this variable.",
    "MIPs (requesting)": "  AerChemMIP(2,2,2,2,2), CMIP(2,2,2,2,2), FAFMIP(2,2,2), GeoMIP(2,2,2), HighResMIP(2,2,2), RFMIP(2,2,2,2,2), VIACSAB(1,2), VolMIP(2,2)",
    "experiments": "  abrupt-4xCO2 (AerChemMIP:2,CMIP:2,FAFMIP:2,GeoMIP:2,RFMIP:2), amip (AerChemMIP:2,CMIP:2,HighResMIP:2,RFMIP:2), 1pctCO2 (AerChemMIP:2,CMIP:2,FAFMIP:2,RFMIP:2), historical (VIACSAB:1,AerChemMIP:2,CMIP:2,GeoMIP:2,HighResMIP:2,RFMIP:2,VIACSAB:2,VolMIP:2), piControl (AerChemMIP:2,CMIP:2,FAFMIP:2,GeoMIP:2,HighResMIP:2,RFMIP:2,VolMIP:2)"
  },
  "cSoilSlow": {
    "CCCma TS var name": null,
    "CCCma diag file": null,
    "CCCma check": "Vivek says, we don't have this variable.",
    "MIPs (requesting)": "  AerChemMIP(2,2,2,2,2), CMIP(2,2,2,2,2), FAFMIP(2,2,2), GeoMIP(2,2,2), HighResMIP(2,2,2), RFMIP(2,2,2,2,2), VIACSAB(1,2), VolMIP(2,2)",
    "experiments": "  abrupt-4xCO2 (AerChemMIP:2,CMIP:2,FAFMIP:2,GeoMIP:2,RFMIP:2), amip (AerChemMIP:2,CMIP:2,HighResMIP:2,RFMIP:2), 1pctCO2 (AerChemMIP:2,CMIP:2,FAFMIP:2,RFMIP:2), historical (VIACSAB:1,AerChemMIP:2,CMIP:2,GeoMIP:2,HighResMIP:2,RFMIP:2,VIACSAB:2,VolMIP:2), piControl (AerChemMIP:2,CMIP:2,FAFMIP:2,GeoMIP:2,HighResMIP:2,RFMIP:2,VolMIP:2)"
  },
  "cVeg": {
    "CCCma TS var name": "CVEG",
    "CCCma diag file": "tp",
    "MIPs (requesting)": "  AerChemMIP(1,1,1,1,1), C4MIP(1,1,1,1,1), CDRMIP(2,2,2,2,2), CMIP(1,1,1,1,1,1), DCPP(2), FAFMIP(1,1,1), GeoMIP(1,1,1), HighResMIP(1,1,1), LUMIP(1), PAMIP(2), PMIP(1,1,1,1,1), RFMIP(1,1,1,1,1), VIACSAB(1,1,1,1,2,2,2,2), VolMIP(1,1)",
    "experiments": "  abrupt-4xCO2 (AerChemMIP:1,C4MIP:1,CMIP:1,CMIP:1,FAFMIP:1,GeoMIP:1,PMIP:1,RFMIP:1,CDRMIP:2), amip (AerChemMIP:1,C4MIP:1,CMIP:1,HighResMIP:1,PMIP:1,RFMIP:1,VIACSAB:1,CDRMIP:2,VIACSAB:2), 1pctCO2 (AerChemMIP:1,C4MIP:1,CMIP:1,FAFMIP:1,PMIP:1,RFMIP:1,CDRMIP:2), historical (AerChemMIP:1,C4MIP:1,CMIP:1,GeoMIP:1,HighResMIP:1,LUMIP:1,PMIP:1,RFMIP:1,VIACSAB:1,VIACSAB:1,VolMIP:1,CDRMIP:2,DCPP:2,PAMIP:2,VIACSAB:2,VIACSAB:2), piControl (AerChemMIP:1,C4MIP:1,CMIP:1,FAFMIP:1,GeoMIP:1,HighResMIP:1,PMIP:1,RFMIP:1,VIACSAB:1,VolMIP:1,CDRMIP:2,VIACSAB:2)"
  },
  "evspsblsoi": {
    "CCCma TS var name": "QFG",
    "CCCma diag file": "gp",
    "MIPs (requesting)": "  AerChemMIP(1,1,1,1,1), C4MIP(1,1,1,1,1), CFMIP(1,1,1,1,1), CMIP(1,1,1,1,1), FAFMIP(1,1,1), GeoMIP(1,1,1), HighResMIP(1,1,1), LUMIP(1), PMIP(1,1,1,1,1), RFMIP(1,1,1,1,1), VIACSAB(1,1,1,1,1,2), VolMIP(1,1)",
    "experiments": "  abrupt-4xCO2 (AerChemMIP:1,C4MIP:1,CFMIP:1,CMIP:1,FAFMIP:1,GeoMIP:1,PMIP:1,RFMIP:1), amip (AerChemMIP:1,C4MIP:1,CFMIP:1,CMIP:1,HighResMIP:1,PMIP:1,RFMIP:1,VIACSAB:1), 1pctCO2 (AerChemMIP:1,C4MIP:1,CFMIP:1,CMIP:1,FAFMIP:1,PMIP:1,RFMIP:1,VIACSAB:1), historical (AerChemMIP:1,C4MIP:1,CFMIP:1,CMIP:1,GeoMIP:1,HighResMIP:1,LUMIP:1,PMIP:1,RFMIP:1,VIACSAB:1,VIACSAB:1,VolMIP:1,VIACSAB:2), piControl (AerChemMIP:1,C4MIP:1,CFMIP:1,CMIP:1,FAFMIP:1,GeoMIP:1,HighResMIP:1,PMIP:1,RFMIP:1,VIACSAB:1,VolMIP:1)"
  },
  "evspsblveg": {
    "CCCma TS var name": "QFVL QFVF",
    "CCCma diag file": "gp",
    "CCCma optional deck": "addtwo",
    "MIPs (requesting)": "  AerChemMIP(1,1,1,1,1), C4MIP(1,1,1,1,1), CFMIP(1,1,1,1,1), CMIP(1,1,1,1,1), FAFMIP(1,1,1), GeoMIP(1,1,1), HighResMIP(1,1,1), LUMIP(1), PMIP(1,1,1,1,1), RFMIP(1,1,1,1,1), VIACSAB(1,1,1,1,1,2,2,2,2), VolMIP(1,1)",
    "experiments": "  abrupt-4xCO2 (AerChemMIP:1,C4MIP:1,CFMIP:1,CMIP:1,FAFMIP:1,GeoMIP:1,PMIP:1,RFMIP:1), amip (AerChemMIP:1,C4MIP:1,CFMIP:1,CMIP:1,HighResMIP:1,PMIP:1,RFMIP:1,VIACSAB:1,VIACSAB:2), 1pctCO2 (AerChemMIP:1,C4MIP:1,CFMIP:1,CMIP:1,FAFMIP:1,PMIP:1,RFMIP:1,VIACSAB:1), historical (AerChemMIP:1,C4MIP:1,CFMIP:1,CMIP:1,GeoMIP:1,HighResMIP:1,LUMIP:1,PMIP:1,RFMIP:1,VIACSAB:1,VIACSAB:1,VolMIP:1,VIACSAB:2,VIACSAB:2), piControl (AerChemMIP:1,C4MIP:1,CFMIP:1,CMIP:1,FAFMIP:1,GeoMIP:1,HighResMIP:1,PMIP:1,RFMIP:1,VIACSAB:1,VolMIP:1,VIACSAB:2)"
  },
  "fFire": {
    "CCCma TS var name": null,
    "CCCma diag file": null,
    "CCCma optional deck": "addmltby12em9",
    "CCCma check": "Vivek says, no fire in CanESM5. Not providing.",
    "CCCma comment": "(CFFV + CFFD)*12.011E-9 ( CFFV CFFD are zero in !CanESM2 runs - VA)",
    "MIPs (requesting)": "  AerChemMIP(1,1,1,1,1), CMIP(1,1,1,1,1), FAFMIP(1,1,1), GeoMIP(1,1,1), HighResMIP(1,1,1), PMIP(1,1,1,1,1), RFMIP(1,1,1,1,1), VIACSAB(1,1,1,1,2,2,2,2), VolMIP(1,1)",
    "experiments": "  abrupt-4xCO2 (AerChemMIP:1,CMIP:1,FAFMIP:1,GeoMIP:1,PMIP:1,RFMIP:1), amip (AerChemMIP:1,CMIP:1,HighResMIP:1,PMIP:1,RFMIP:1,VIACSAB:1,VIACSAB:2), 1pctCO2 (AerChemMIP:1,CMIP:1,FAFMIP:1,PMIP:1,RFMIP:1), historical (AerChemMIP:1,CMIP:1,GeoMIP:1,HighResMIP:1,PMIP:1,RFMIP:1,VIACSAB:1,VIACSAB:1,VolMIP:1,VIACSAB:2,VIACSAB:2), piControl (AerChemMIP:1,CMIP:1,FAFMIP:1,GeoMIP:1,HighResMIP:1,PMIP:1,RFMIP:1,VIACSAB:1,VolMIP:1,VIACSAB:2)"
  },
  "fGrazing": {
    "CCCma TS var name": null,
    "CCCma diag file": null,
    "CCCma check": "Vivek says, no grazing animals in CanESM5. Not providing.",
    "MIPs (requesting)": "  AerChemMIP(1,1,1,1,1), CMIP(1,1,1,1,1), FAFMIP(1,1,1), GeoMIP(1,1,1), HighResMIP(1,1,1), RFMIP(1,1,1,1,1), VIACSAB(1,1,1,1,2,2,2,2), VolMIP(1,1)",
    "experiments": "  abrupt-4xCO2 (AerChemMIP:1,CMIP:1,FAFMIP:1,GeoMIP:1,RFMIP:1), amip (AerChemMIP:1,CMIP:1,HighResMIP:1,RFMIP:1,VIACSAB:1,VIACSAB:2), 1pctCO2 (AerChemMIP:1,CMIP:1,FAFMIP:1,RFMIP:1), historical (AerChemMIP:1,CMIP:1,GeoMIP:1,HighResMIP:1,RFMIP:1,VIACSAB:1,VIACSAB:1,VolMIP:1,VIACSAB:2,VIACSAB:2), piControl (AerChemMIP:1,CMIP:1,FAFMIP:1,GeoMIP:1,HighResMIP:1,RFMIP:1,VIACSAB:1,VolMIP:1,VIACSAB:2)"
  },
  "fHarvest": {
    "CCCma TS var name": null,
    "CCCma diag file": null,
    "CCCma check": "Vivek says, no wood harvest in CanESM5.",
    "MIPs (requesting)": "  AerChemMIP(1,1,1,1,1), CMIP(1,1,1,1,1), FAFMIP(1,1,1), GeoMIP(1,1,1), HighResMIP(1,1,1), RFMIP(1,1,1,1,1), VIACSAB(1,1,1,1,2,2,2,2), VolMIP(1,1)",
    "experiments": "  abrupt-4xCO2 (AerChemMIP:1,CMIP:1,FAFMIP:1,GeoMIP:1,RFMIP:1), amip (AerChemMIP:1,CMIP:1,HighResMIP:1,RFMIP:1,VIACSAB:1,VIACSAB:2), 1pctCO2 (AerChemMIP:1,CMIP:1,FAFMIP:1,RFMIP:1), historical (AerChemMIP:1,CMIP:1,GeoMIP:1,HighResMIP:1,RFMIP:1,VIACSAB:1,VIACSAB:1,VolMIP:1,VIACSAB:2,VIACSAB:2), piControl (AerChemMIP:1,CMIP:1,FAFMIP:1,GeoMIP:1,HighResMIP:1,RFMIP:1,VIACSAB:1,VolMIP:1,VIACSAB:2)"
  },
  "fLitterSoil": {
    "CCCma TS var name": "CFHT",
    "CCCma diag file": "tp",
    "CCCma optional deck": "mltby12em9",
    "CCCma comment": "CFHT*12.011E-9",
    "MIPs (requesting)": "  AerChemMIP(1,1,1,1,1), C4MIP(1,1,1,1,1), CMIP(1,1,1,1,1), FAFMIP(1,1,1), GeoMIP(1,1,1), HighResMIP(1,1,1), LUMIP(1), PMIP(1,1,1,1,1), RFMIP(1,1,1,1,1), VIACSAB(1,1,1,1,2,2,2,2), VolMIP(1,1)",
    "experiments": "  abrupt-4xCO2 (AerChemMIP:1,C4MIP:1,CMIP:1,FAFMIP:1,GeoMIP:1,PMIP:1,RFMIP:1), amip (AerChemMIP:1,C4MIP:1,CMIP:1,HighResMIP:1,PMIP:1,RFMIP:1,VIACSAB:1,VIACSAB:2), 1pctCO2 (AerChemMIP:1,C4MIP:1,CMIP:1,FAFMIP:1,PMIP:1,RFMIP:1), historical (AerChemMIP:1,C4MIP:1,CMIP:1,GeoMIP:1,HighResMIP:1,LUMIP:1,PMIP:1,RFMIP:1,VIACSAB:1,VIACSAB:1,VolMIP:1,VIACSAB:2,VIACSAB:2), piControl (AerChemMIP:1,C4MIP:1,CMIP:1,FAFMIP:1,GeoMIP:1,HighResMIP:1,PMIP:1,RFMIP:1,VIACSAB:1,VolMIP:1,VIACSAB:2)"
  },
  "fVegLitter": {
    "CCCma TS var name": "CFLF",
    "CCCma diag file": "tp",
    "CCCma optional deck": "mltby12em9",
    "CCCma comment": "CFLF*12.011E-9",
    "MIPs (requesting)": "  AerChemMIP(1,1,1,1,1), C4MIP(1,1,1,1,1), CMIP(1,1,1,1,1), FAFMIP(1,1,1), GeoMIP(1,1,1), HighResMIP(1,1,1), LUMIP(1), PMIP(1,1,1,1,1), RFMIP(1,1,1,1,1), VIACSAB(1,1,1,1,2,2,2,2), VolMIP(1,1)",
    "experiments": "  abrupt-4xCO2 (AerChemMIP:1,C4MIP:1,CMIP:1,FAFMIP:1,GeoMIP:1,PMIP:1,RFMIP:1), amip (AerChemMIP:1,C4MIP:1,CMIP:1,HighResMIP:1,PMIP:1,RFMIP:1,VIACSAB:1,VIACSAB:2), 1pctCO2 (AerChemMIP:1,C4MIP:1,CMIP:1,FAFMIP:1,PMIP:1,RFMIP:1), historical (AerChemMIP:1,C4MIP:1,CMIP:1,GeoMIP:1,HighResMIP:1,LUMIP:1,PMIP:1,RFMIP:1,VIACSAB:1,VIACSAB:1,VolMIP:1,VIACSAB:2,VIACSAB:2), piControl (AerChemMIP:1,C4MIP:1,CMIP:1,FAFMIP:1,GeoMIP:1,HighResMIP:1,PMIP:1,RFMIP:1,VIACSAB:1,VolMIP:1,VIACSAB:2)"
  },
  "fVegSoil": {
    "CCCma TS var name": null,
    "CCCma diag file": null,
    "CCCma check": "Vivek says, no C flux from veg to soil in CanESM5. Not providing.",
    "MIPs (requesting)": "  AerChemMIP(1,1,1,1,1), C4MIP(1,1,1,1,1), CMIP(1,1,1,1,1), FAFMIP(1,1,1), GeoMIP(1,1,1), HighResMIP(1,1,1), LUMIP(1), PMIP(1,1,1,1,1), RFMIP(1,1,1,1,1), VIACSAB(1,1,1,1,2,2,2,2), VolMIP(1,1)",
    "experiments": "  abrupt-4xCO2 (AerChemMIP:1,C4MIP:1,CMIP:1,FAFMIP:1,GeoMIP:1,PMIP:1,RFMIP:1), amip (AerChemMIP:1,C4MIP:1,CMIP:1,HighResMIP:1,PMIP:1,RFMIP:1,VIACSAB:1,VIACSAB:2), 1pctCO2 (AerChemMIP:1,C4MIP:1,CMIP:1,FAFMIP:1,PMIP:1,RFMIP:1), historical (AerChemMIP:1,C4MIP:1,CMIP:1,GeoMIP:1,HighResMIP:1,LUMIP:1,PMIP:1,RFMIP:1,VIACSAB:1,VIACSAB:1,VolMIP:1,VIACSAB:2,VIACSAB:2), piControl (AerChemMIP:1,C4MIP:1,CMIP:1,FAFMIP:1,GeoMIP:1,HighResMIP:1,PMIP:1,RFMIP:1,VIACSAB:1,VolMIP:1,VIACSAB:2)"
  },
  "gpp": {
    "CCCma TS var name": "CFGP",
    "CCCma diag file": "tp",
    "CCCma optional deck": "mltby12em9",
    "CCCma comment": "changed up to down! d(u-mol C/m2.s) x (12.011E-9) = Kg C/m2.s",
    "MIPs (requesting)": "  AerChemMIP(1,1,1,1,1), C4MIP(1,1,1,1,1), CDRMIP(2,2,2,2,2), CMIP(1,1,1,1,1,1), DCPP(2), FAFMIP(1,1,1), GeoMIP(1,1,1), HighResMIP(1,1,1), LUMIP(1), PAMIP(2), PMIP(1,1,1,1,1), RFMIP(1,1,1,1,1), VIACSAB(1,1,1,1,2,2,2,2), VolMIP(1,1)",
    "experiments": "  abrupt-4xCO2 (AerChemMIP:1,C4MIP:1,CMIP:1,CMIP:1,FAFMIP:1,GeoMIP:1,PMIP:1,RFMIP:1,CDRMIP:2), amip (AerChemMIP:1,C4MIP:1,CMIP:1,HighResMIP:1,PMIP:1,RFMIP:1,VIACSAB:1,CDRMIP:2,VIACSAB:2), 1pctCO2 (AerChemMIP:1,C4MIP:1,CMIP:1,FAFMIP:1,PMIP:1,RFMIP:1,CDRMIP:2), historical (AerChemMIP:1,C4MIP:1,CMIP:1,GeoMIP:1,HighResMIP:1,LUMIP:1,PMIP:1,RFMIP:1,VIACSAB:1,VIACSAB:1,VolMIP:1,CDRMIP:2,DCPP:2,PAMIP:2,VIACSAB:2,VIACSAB:2), piControl (AerChemMIP:1,C4MIP:1,CMIP:1,FAFMIP:1,GeoMIP:1,HighResMIP:1,PMIP:1,RFMIP:1,VIACSAB:1,VolMIP:1,CDRMIP:2,VIACSAB:2)"
  },
  "grassFrac": {
    "CCCma TS var name": "GRSF",
    "CCCma diag file": "tp",
    "CCCma optional deck": "mltby100",
    "CCCma units": "fraction per unit land area",
    "CCCma hist file": "_tm",
    "CCCma hist var names": "GRSF",
    "CCCma hist var frequency": "daily",
    "CCCma check": "Done. Vivek put in _tm file.",
    "MIPs (requesting)": "  AerChemMIP(1,1,1,1,1), C4MIP(1,1,1,1,1), CFMIP(1,1,1,1,1), CMIP(1,1,1,1,1,1), FAFMIP(1,1,1), GeoMIP(1,1,1), HighResMIP(1,1,1), LUMIP(1), PMIP(1,1,1,1,1), RFMIP(1,1,1,1,1), VIACSAB(1,1,1,1,1,2,2,2,2), VolMIP(1,1)",
    "experiments": "  abrupt-4xCO2 (AerChemMIP:1,C4MIP:1,CFMIP:1,CMIP:1,CMIP:1,FAFMIP:1,GeoMIP:1,PMIP:1,RFMIP:1), amip (AerChemMIP:1,C4MIP:1,CFMIP:1,CMIP:1,HighResMIP:1,PMIP:1,RFMIP:1,VIACSAB:1,VIACSAB:2), 1pctCO2 (AerChemMIP:1,C4MIP:1,CFMIP:1,CMIP:1,FAFMIP:1,PMIP:1,RFMIP:1,VIACSAB:1), historical (AerChemMIP:1,C4MIP:1,CFMIP:1,CMIP:1,GeoMIP:1,HighResMIP:1,LUMIP:1,PMIP:1,RFMIP:1,VIACSAB:1,VIACSAB:1,VolMIP:1,VIACSAB:2,VIACSAB:2), piControl (AerChemMIP:1,C4MIP:1,CFMIP:1,CMIP:1,FAFMIP:1,GeoMIP:1,HighResMIP:1,PMIP:1,RFMIP:1,VIACSAB:1,VolMIP:1,VIACSAB:2)"
  },
  "lai": {
    "CCCma TS var name": "CLAI",
    "CCCma diag file": "tp",
    "MIPs (requesting)": "  AerChemMIP(1,1,1,1,1), C4MIP(1,1,1,1,1), CMIP(1,1,1,1,1,1), DCPP(2), FAFMIP(1,1,1), GeoMIP(1,1,1), HighResMIP(1,1,1), LUMIP(1), PAMIP(2), PMIP(1,1,1,1,1), RFMIP(1,1,1,1,1), VIACSAB(1,1,1,1,1), VolMIP(1,1)",
    "experiments": "  abrupt-4xCO2 (AerChemMIP:1,C4MIP:1,CMIP:1,CMIP:1,FAFMIP:1,GeoMIP:1,PMIP:1,RFMIP:1), amip (AerChemMIP:1,C4MIP:1,CMIP:1,HighResMIP:1,PMIP:1,RFMIP:1,VIACSAB:1), 1pctCO2 (AerChemMIP:1,C4MIP:1,CMIP:1,FAFMIP:1,PMIP:1,RFMIP:1,VIACSAB:1), historical (AerChemMIP:1,C4MIP:1,CMIP:1,GeoMIP:1,HighResMIP:1,LUMIP:1,PMIP:1,RFMIP:1,VIACSAB:1,VIACSAB:1,VolMIP:1,DCPP:2,PAMIP:2), piControl (AerChemMIP:1,C4MIP:1,CMIP:1,FAFMIP:1,GeoMIP:1,HighResMIP:1,PMIP:1,RFMIP:1,VIACSAB:1,VolMIP:1)"
  },
  "landCoverFrac": {
    "CCCma TS var name": "CURF",
    "CCCma diag file": "tp",
    "CCCma optional deck": "mltby100",
    "CCCma units": "fraction per unit land area",
    "CCCma hist file": "_tm",
    "CCCma hist var names": "CURF",
    "CCCma hist var frequency": "daily",
    "CCCma check": "Done. Vivek put it in _tm file.",
    "CCCma comment": "Bare soil is calculated above, we don't have fractional lakes and urban areas are not present in !CanESM runs but are a small fraction in non-carbon runs, see above. [ Vivek's understanding is that this is the fractional coverage of 9 PFTs that we use. So this is a 9 level field].",
    "MIPs (requesting)": "  AerChemMIP(2,2,2,2,2), CMIP(2,2,2,2,2), FAFMIP(2,2,2), GeoMIP(2,2,2), HighResMIP(2,2,2), PMIP(1,1,1,1,1), RFMIP(2,2,2,2,2), VIACSAB(1,1,1,1), VolMIP(2,2)",
    "experiments": "  abrupt-4xCO2 (PMIP:1,AerChemMIP:2,CMIP:2,FAFMIP:2,GeoMIP:2,RFMIP:2), amip (PMIP:1,VIACSAB:1,AerChemMIP:2,CMIP:2,HighResMIP:2,RFMIP:2), 1pctCO2 (PMIP:1,AerChemMIP:2,CMIP:2,FAFMIP:2,RFMIP:2), historical (PMIP:1,VIACSAB:1,VIACSAB:1,AerChemMIP:2,CMIP:2,GeoMIP:2,HighResMIP:2,RFMIP:2,VolMIP:2), piControl (PMIP:1,VIACSAB:1,AerChemMIP:2,CMIP:2,FAFMIP:2,GeoMIP:2,HighResMIP:2,RFMIP:2,VolMIP:2)"
  },
  "mrfso": {
    "CCCma TS var name": "WGF",
    "CCCma diag file": "gp",
    "CCCma optional deck": "soilsum",
    "CCCma comment": "sum(WGF)",
    "MIPs (requesting)": "  AerChemMIP(1,1,1,1,1), C4MIP(1,1,1,1,1), CFMIP(1,1,1,1,1), CMIP(1,1,1,1,1), DCPP(1), FAFMIP(1,1,1), GeoMIP(1,1,1), HighResMIP(1,1,1), LUMIP(1), PAMIP(1), PMIP(1,1,1,1,1), RFMIP(1,1,1,1,1), VIACSAB(1,1,1,1,1,2,2,2,2), VolMIP(1,1)",
    "experiments": "  abrupt-4xCO2 (AerChemMIP:1,C4MIP:1,CFMIP:1,CMIP:1,FAFMIP:1,GeoMIP:1,PMIP:1,RFMIP:1), amip (AerChemMIP:1,C4MIP:1,CFMIP:1,CMIP:1,HighResMIP:1,PMIP:1,RFMIP:1,VIACSAB:1,VIACSAB:2), 1pctCO2 (AerChemMIP:1,C4MIP:1,CFMIP:1,CMIP:1,FAFMIP:1,PMIP:1,RFMIP:1,VIACSAB:1), historical (AerChemMIP:1,C4MIP:1,CFMIP:1,CMIP:1,DCPP:1,GeoMIP:1,HighResMIP:1,LUMIP:1,PAMIP:1,PMIP:1,RFMIP:1,VIACSAB:1,VIACSAB:1,VolMIP:1,VIACSAB:2,VIACSAB:2), piControl (AerChemMIP:1,C4MIP:1,CFMIP:1,CMIP:1,FAFMIP:1,GeoMIP:1,HighResMIP:1,PMIP:1,RFMIP:1,VIACSAB:1,VolMIP:1,VIACSAB:2)"
  },
  "mrro": {
    "CCCma TS var name": "ROF",
    "CCCma diag file": "gp",
    "MIPs (requesting)": "  AerChemMIP(1,1,1,1,1), C4MIP(1,1,1,1,1), CFMIP(1,1,1,1,1), CMIP(1,1,1,1,1,1), DCPP(1), FAFMIP(1,1,1), GeoMIP(1,1,1), HighResMIP(1,1,1), LUMIP(1), PAMIP(1), PMIP(1,1,1,1,1), RFMIP(1,1,1,1,1), VIACSAB(1,1,1,1,1,2), VolMIP(1,1)",
    "experiments": "  abrupt-4xCO2 (AerChemMIP:1,C4MIP:1,CFMIP:1,CMIP:1,CMIP:1,FAFMIP:1,GeoMIP:1,PMIP:1,RFMIP:1), amip (AerChemMIP:1,C4MIP:1,CFMIP:1,CMIP:1,HighResMIP:1,PMIP:1,RFMIP:1,VIACSAB:1), 1pctCO2 (AerChemMIP:1,C4MIP:1,CFMIP:1,CMIP:1,FAFMIP:1,PMIP:1,RFMIP:1,VIACSAB:1), historical (AerChemMIP:1,C4MIP:1,CFMIP:1,CMIP:1,DCPP:1,GeoMIP:1,HighResMIP:1,LUMIP:1,PAMIP:1,PMIP:1,RFMIP:1,VIACSAB:1,VIACSAB:1,VolMIP:1,VIACSAB:2), piControl (AerChemMIP:1,C4MIP:1,CFMIP:1,CMIP:1,FAFMIP:1,GeoMIP:1,HighResMIP:1,PMIP:1,RFMIP:1,VIACSAB:1,VolMIP:1)"
  },
  "mrros": {
    "CCCma TS var name": "ROFO",
    "CCCma diag file": "gp",
    "MIPs (requesting)": "  AerChemMIP(1,1,1,1,1), C4MIP(1,1,1,1,1), CDRMIP(2,2,2,2,2), CFMIP(1,1,1,1,1), CMIP(1,1,1,1,1), FAFMIP(1,1,1), GeoMIP(1,1,1), HighResMIP(1,1,1), LUMIP(1), PMIP(1,1,1,1,1), RFMIP(1,1,1,1,1), VIACSAB(1,1,1,1,1,2), VolMIP(1,1)",
    "experiments": "  abrupt-4xCO2 (AerChemMIP:1,C4MIP:1,CFMIP:1,CMIP:1,FAFMIP:1,GeoMIP:1,PMIP:1,RFMIP:1,CDRMIP:2), amip (AerChemMIP:1,C4MIP:1,CFMIP:1,CMIP:1,HighResMIP:1,PMIP:1,RFMIP:1,VIACSAB:1,CDRMIP:2), 1pctCO2 (AerChemMIP:1,C4MIP:1,CFMIP:1,CMIP:1,FAFMIP:1,PMIP:1,RFMIP:1,VIACSAB:1,CDRMIP:2), historical (AerChemMIP:1,C4MIP:1,CFMIP:1,CMIP:1,GeoMIP:1,HighResMIP:1,LUMIP:1,PMIP:1,RFMIP:1,VIACSAB:1,VIACSAB:1,VolMIP:1,CDRMIP:2,VIACSAB:2), piControl (AerChemMIP:1,C4MIP:1,CFMIP:1,CMIP:1,FAFMIP:1,GeoMIP:1,HighResMIP:1,PMIP:1,RFMIP:1,VIACSAB:1,VolMIP:1,CDRMIP:2)"
  },
  "mrso": {
    "CCCma TS var name": "WGL WGF",
    "CCCma diag file": "gp",
    "CCCma optional deck": "wglfsum",
    "CCCma comment": "sum(WGL+WGF)",
    "MIPs (requesting)": "  AerChemMIP(1,1,1,1,1), C4MIP(1,1,1,1,1), CDRMIP(2,2,2,2,2), CFMIP(1,1,1,1,1), CMIP(1,1,1,1,1,1), DCPP(1), FAFMIP(1,1,1), GeoMIP(1,1,1), HighResMIP(1,1,1), LUMIP(1), PAMIP(1), PMIP(1,1,1,1,1), RFMIP(1,1,1,1,1), VIACSAB(1,1,1,1,1), VolMIP(1,1)",
    "experiments": "  abrupt-4xCO2 (AerChemMIP:1,C4MIP:1,CFMIP:1,CMIP:1,CMIP:1,FAFMIP:1,GeoMIP:1,PMIP:1,RFMIP:1,CDRMIP:2), amip (AerChemMIP:1,C4MIP:1,CFMIP:1,CMIP:1,HighResMIP:1,PMIP:1,RFMIP:1,VIACSAB:1,CDRMIP:2), 1pctCO2 (AerChemMIP:1,C4MIP:1,CFMIP:1,CMIP:1,FAFMIP:1,PMIP:1,RFMIP:1,VIACSAB:1,CDRMIP:2), historical (AerChemMIP:1,C4MIP:1,CFMIP:1,CMIP:1,DCPP:1,GeoMIP:1,HighResMIP:1,LUMIP:1,PAMIP:1,PMIP:1,RFMIP:1,VIACSAB:1,VIACSAB:1,VolMIP:1,CDRMIP:2), piControl (AerChemMIP:1,C4MIP:1,CFMIP:1,CMIP:1,FAFMIP:1,GeoMIP:1,HighResMIP:1,PMIP:1,RFMIP:1,VIACSAB:1,VolMIP:1,CDRMIP:2)"
  },
  "mrsos": {
    "CCCma TS var name": "WGL WGF",
    "CCCma diag file": "gp",
    "CCCma optional deck": "wglfone",
    "CCCma comment": "WGL(1)+WGF(1)",
    "MIPs (requesting)": "  AerChemMIP(1,1,1,1,1), C4MIP(1,1,1,1,1), CFMIP(1,1,1,1,1), CMIP(1,1,1,1,1,1), FAFMIP(1,1,1), GeoMIP(1,1,1), HighResMIP(1,1,1), LUMIP(1), PMIP(1,1,1,1,1), RFMIP(1,1,1,1,1), VIACSAB(1,1,1,1,1,2,2,2,2), VolMIP(1,1)",
    "experiments": "  abrupt-4xCO2 (AerChemMIP:1,C4MIP:1,CFMIP:1,CMIP:1,CMIP:1,FAFMIP:1,GeoMIP:1,PMIP:1,RFMIP:1), amip (AerChemMIP:1,C4MIP:1,CFMIP:1,CMIP:1,HighResMIP:1,PMIP:1,RFMIP:1,VIACSAB:1,VIACSAB:2), 1pctCO2 (AerChemMIP:1,C4MIP:1,CFMIP:1,CMIP:1,FAFMIP:1,PMIP:1,RFMIP:1,VIACSAB:1), historical (AerChemMIP:1,C4MIP:1,CFMIP:1,CMIP:1,GeoMIP:1,HighResMIP:1,LUMIP:1,PMIP:1,RFMIP:1,VIACSAB:1,VIACSAB:1,VolMIP:1,VIACSAB:2,VIACSAB:2), piControl (AerChemMIP:1,C4MIP:1,CFMIP:1,CMIP:1,FAFMIP:1,GeoMIP:1,HighResMIP:1,PMIP:1,RFMIP:1,VIACSAB:1,VolMIP:1,VIACSAB:2)"
  },
  "nbp": {
    "CCCma TS var name": "CFNB",
    "CCCma diag file": "tp",
    "CCCma optional deck": "mltby12em9",
    "CCCma comment": "up is changed to down! CFNB*12.011E-9",
    "MIPs (requesting)": "  AerChemMIP(1,1,1,1,1), CMIP(1,1,1,1,1,1), DCPP(2), FAFMIP(1,1,1), GeoMIP(1,1,1), HighResMIP(1,1,1), PAMIP(2), PMIP(1,1,1,1,1), RFMIP(1,1,1,1,1), VIACSAB(1,1,1,1,2,2,2,2), VolMIP(1,1)",
    "experiments": "  abrupt-4xCO2 (AerChemMIP:1,CMIP:1,CMIP:1,FAFMIP:1,GeoMIP:1,PMIP:1,RFMIP:1), amip (AerChemMIP:1,CMIP:1,HighResMIP:1,PMIP:1,RFMIP:1,VIACSAB:1,VIACSAB:2), 1pctCO2 (AerChemMIP:1,CMIP:1,FAFMIP:1,PMIP:1,RFMIP:1), historical (AerChemMIP:1,CMIP:1,GeoMIP:1,HighResMIP:1,PMIP:1,RFMIP:1,VIACSAB:1,VIACSAB:1,VolMIP:1,DCPP:2,PAMIP:2,VIACSAB:2,VIACSAB:2), piControl (AerChemMIP:1,CMIP:1,FAFMIP:1,GeoMIP:1,HighResMIP:1,PMIP:1,RFMIP:1,VIACSAB:1,VolMIP:1,VIACSAB:2)"
  },
  "npp": {
    "CCCma TS var name": "CFNP",
    "CCCma diag file": "tp",
    "CCCma optional deck": "mltby12em9",
    "CCCma comment": "up is changed to down! CFNP*12.011E-9",
    "MIPs (requesting)": "  AerChemMIP(1,1,1,1,1), C4MIP(1,1,1,1,1), CDRMIP(2,2,2,2,2), CMIP(1,1,1,1,1), DCPP(2), FAFMIP(1,1,1), GeoMIP(1,1,1), HighResMIP(1,1,1), LUMIP(1), PAMIP(2), PMIP(1,1,1,1,1), RFMIP(1,1,1,1,1), VIACSAB(1,1,1,1,2,2,2,2), VolMIP(1,1)",
    "experiments": "  abrupt-4xCO2 (AerChemMIP:1,C4MIP:1,CMIP:1,FAFMIP:1,GeoMIP:1,PMIP:1,RFMIP:1,CDRMIP:2), amip (AerChemMIP:1,C4MIP:1,CMIP:1,HighResMIP:1,PMIP:1,RFMIP:1,VIACSAB:1,CDRMIP:2,VIACSAB:2), 1pctCO2 (AerChemMIP:1,C4MIP:1,CMIP:1,FAFMIP:1,PMIP:1,RFMIP:1,CDRMIP:2), historical (AerChemMIP:1,C4MIP:1,CMIP:1,GeoMIP:1,HighResMIP:1,LUMIP:1,PMIP:1,RFMIP:1,VIACSAB:1,VIACSAB:1,VolMIP:1,CDRMIP:2,DCPP:2,PAMIP:2,VIACSAB:2,VIACSAB:2), piControl (AerChemMIP:1,C4MIP:1,CMIP:1,FAFMIP:1,GeoMIP:1,HighResMIP:1,PMIP:1,RFMIP:1,VIACSAB:1,VolMIP:1,CDRMIP:2,VIACSAB:2)"
  },
  "nppLeaf": {
    "CCCma TS var name": "CFNL",
    "CCCma diag file": "tp",
    "CCCma optional deck": "mltby12em9",
    "CCCma comment": "CFNL*12.011E-9",
    "MIPs (requesting)": "  AerChemMIP(2,2,2,2,2), C4MIP(2,2,2,2), CMIP(2,2,2,2,2), FAFMIP(2,2,2), GeoMIP(2,2,2), HighResMIP(2,2,2), LUMIP(2), RFMIP(2,2,2,2,2), VIACSAB(1,1,1,1,2,2,2,2), VolMIP(2,2)",
    "experiments": "  abrupt-4xCO2 (AerChemMIP:2,C4MIP:2,CMIP:2,FAFMIP:2,GeoMIP:2,RFMIP:2), amip (VIACSAB:1,AerChemMIP:2,CMIP:2,HighResMIP:2,RFMIP:2,VIACSAB:2), 1pctCO2 (AerChemMIP:2,C4MIP:2,CMIP:2,FAFMIP:2,RFMIP:2), historical (VIACSAB:1,VIACSAB:1,AerChemMIP:2,C4MIP:2,CMIP:2,GeoMIP:2,HighResMIP:2,LUMIP:2,RFMIP:2,VIACSAB:2,VIACSAB:2,VolMIP:2), piControl (VIACSAB:1,AerChemMIP:2,C4MIP:2,CMIP:2,FAFMIP:2,GeoMIP:2,HighResMIP:2,RFMIP:2,VIACSAB:2,VolMIP:2)"
  },
  "nppRoot": {
    "CCCma TS var name": "CFNR",
    "CCCma diag file": "tp",
    "CCCma optional deck": "mltby12em9",
    "CCCma comment": "CFNR*12.011E-9",
    "MIPs (requesting)": "  AerChemMIP(2,2,2,2,2), C4MIP(2,2,2,2), CMIP(2,2,2,2,2), FAFMIP(2,2,2), GeoMIP(2,2,2), HighResMIP(2,2,2), LUMIP(2), RFMIP(2,2,2,2,2), VIACSAB(1,1,1,1,2,2,2,2), VolMIP(2,2)",
    "experiments": "  abrupt-4xCO2 (AerChemMIP:2,C4MIP:2,CMIP:2,FAFMIP:2,GeoMIP:2,RFMIP:2), amip (VIACSAB:1,AerChemMIP:2,CMIP:2,HighResMIP:2,RFMIP:2,VIACSAB:2), 1pctCO2 (AerChemMIP:2,C4MIP:2,CMIP:2,FAFMIP:2,RFMIP:2), historical (VIACSAB:1,VIACSAB:1,AerChemMIP:2,C4MIP:2,CMIP:2,GeoMIP:2,HighResMIP:2,LUMIP:2,RFMIP:2,VIACSAB:2,VIACSAB:2,VolMIP:2), piControl (VIACSAB:1,AerChemMIP:2,C4MIP:2,CMIP:2,FAFMIP:2,GeoMIP:2,HighResMIP:2,RFMIP:2,VIACSAB:2,VolMIP:2)"
  },
  "nppWood": {
    "CCCma TS var name": "CFNR CFNS",
    "CCCma diag file": "tp",
    "CCCma optional deck": "addmltby12em9",
    "CCCma comment": "(CFNR+CFNS)*12.011E-9",
    "MIPs (requesting)": "  AerChemMIP(2,2,2,2,2), CMIP(2,2,2,2,2), FAFMIP(2,2,2), GeoMIP(2,2,2), HighResMIP(2,2,2), RFMIP(2,2,2,2,2), VIACSAB(1,1,1,1,2,2,2,2), VolMIP(2,2)",
    "experiments": "  abrupt-4xCO2 (AerChemMIP:2,CMIP:2,FAFMIP:2,GeoMIP:2,RFMIP:2), amip (VIACSAB:1,AerChemMIP:2,CMIP:2,HighResMIP:2,RFMIP:2,VIACSAB:2), 1pctCO2 (AerChemMIP:2,CMIP:2,FAFMIP:2,RFMIP:2), historical (VIACSAB:1,VIACSAB:1,AerChemMIP:2,CMIP:2,GeoMIP:2,HighResMIP:2,RFMIP:2,VIACSAB:2,VIACSAB:2,VolMIP:2), piControl (VIACSAB:1,AerChemMIP:2,CMIP:2,FAFMIP:2,GeoMIP:2,HighResMIP:2,RFMIP:2,VIACSAB:2,VolMIP:2)"
  },
  "pastureFrac": {
    "CCCma TS var name": null,
    "CCCma diag file": null,
    "CCCma check": "Vivek says, not providing.",
    "CCCma comment": "This is again not easy to provide explcitly, because the land cover scenarios may or may not include historical pasture increase. And in any case this is externally specified for generating land cover maps.",
    "MIPs (requesting)": "  AerChemMIP(1,1,1,1,1), C4MIP(1,1,1,1,1), CFMIP(1,1,1,1,1), CMIP(1,1,1,1,1,1), FAFMIP(1,1,1), GeoMIP(1,1,1), HighResMIP(1,1,1), LUMIP(1), PMIP(1,1,1,1,1), RFMIP(1,1,1,1,1), VIACSAB(1,1,1,1,1,2,2,2,2), VolMIP(1,1)",
    "experiments": "  abrupt-4xCO2 (AerChemMIP:1,C4MIP:1,CFMIP:1,CMIP:1,CMIP:1,FAFMIP:1,GeoMIP:1,PMIP:1,RFMIP:1), amip (AerChemMIP:1,C4MIP:1,CFMIP:1,CMIP:1,HighResMIP:1,PMIP:1,RFMIP:1,VIACSAB:1,VIACSAB:2), 1pctCO2 (AerChemMIP:1,C4MIP:1,CFMIP:1,CMIP:1,FAFMIP:1,PMIP:1,RFMIP:1,VIACSAB:1), historical (AerChemMIP:1,C4MIP:1,CFMIP:1,CMIP:1,GeoMIP:1,HighResMIP:1,LUMIP:1,PMIP:1,RFMIP:1,VIACSAB:1,VIACSAB:1,VolMIP:1,VIACSAB:2,VIACSAB:2), piControl (AerChemMIP:1,C4MIP:1,CFMIP:1,CMIP:1,FAFMIP:1,GeoMIP:1,HighResMIP:1,PMIP:1,RFMIP:1,VIACSAB:1,VolMIP:1,VIACSAB:2)"
  },
  "prveg": {
    "CCCma TS var name": "PIVL PIVF",
    "CCCma diag file": "gp",
    "CCCma optional deck": "addtwo",
    "MIPs (requesting)": "  AerChemMIP(2,2,2,2,2), C4MIP(2,2,2,2), CFMIP(2,2,2,2,2), CMIP(2,2,2,2,2), FAFMIP(2,2,2), GeoMIP(2,2,2), HighResMIP(2,2,2), LUMIP(2), RFMIP(2,2,2,2,2), VIACSAB(1,1,1,1,1,2,2,2,2), VolMIP(2,2)",
    "experiments": "  abrupt-4xCO2 (AerChemMIP:2,C4MIP:2,CFMIP:2,CMIP:2,FAFMIP:2,GeoMIP:2,RFMIP:2), amip (VIACSAB:1,AerChemMIP:2,CFMIP:2,CMIP:2,HighResMIP:2,RFMIP:2,VIACSAB:2), 1pctCO2 (VIACSAB:1,AerChemMIP:2,C4MIP:2,CFMIP:2,CMIP:2,FAFMIP:2,RFMIP:2), historical (VIACSAB:1,VIACSAB:1,AerChemMIP:2,C4MIP:2,CFMIP:2,CMIP:2,GeoMIP:2,HighResMIP:2,LUMIP:2,RFMIP:2,VIACSAB:2,VIACSAB:2,VolMIP:2), piControl (VIACSAB:1,AerChemMIP:2,C4MIP:2,CFMIP:2,CMIP:2,FAFMIP:2,GeoMIP:2,HighResMIP:2,RFMIP:2,VIACSAB:2,VolMIP:2)"
  },
  "ra": {
    "CCCma TS var name": "CFRV",
    "CCCma diag file": "tp",
    "CCCma optional deck": "mltby12em9",
    "CCCma comment": "CFRV*12.011E-9",
    "MIPs (requesting)": "  AerChemMIP(1,1,1,1,1), C4MIP(1,1,1,1,1), CDRMIP(2,2,2,2,2), CMIP(1,1,1,1,1), DCPP(2), FAFMIP(1,1,1), GeoMIP(1,1,1), HighResMIP(1,1,1), LUMIP(1), PAMIP(2), PMIP(1,1,1,1,1), RFMIP(1,1,1,1,1), VIACSAB(1,1,1,1,2,2,2,2), VolMIP(1,1)",
    "experiments": "  abrupt-4xCO2 (AerChemMIP:1,C4MIP:1,CMIP:1,FAFMIP:1,GeoMIP:1,PMIP:1,RFMIP:1,CDRMIP:2), amip (AerChemMIP:1,C4MIP:1,CMIP:1,HighResMIP:1,PMIP:1,RFMIP:1,VIACSAB:1,CDRMIP:2,VIACSAB:2), 1pctCO2 (AerChemMIP:1,C4MIP:1,CMIP:1,FAFMIP:1,PMIP:1,RFMIP:1,CDRMIP:2), historical (AerChemMIP:1,C4MIP:1,CMIP:1,GeoMIP:1,HighResMIP:1,LUMIP:1,PMIP:1,RFMIP:1,VIACSAB:1,VIACSAB:1,VolMIP:1,CDRMIP:2,DCPP:2,PAMIP:2,VIACSAB:2,VIACSAB:2), piControl (AerChemMIP:1,C4MIP:1,CMIP:1,FAFMIP:1,GeoMIP:1,HighResMIP:1,PMIP:1,RFMIP:1,VIACSAB:1,VolMIP:1,CDRMIP:2,VIACSAB:2)"
  },
  "residualFrac": {
    "CCCma TS var name": null,
    "CCCma diag file": null,
    "CCCma check": "This will be 1 over glacial cells and equal to lake fraction over other grid cells",
    "CCCma comment": "Lets not bother with this. In non-carbon run there is a very small fraction of land that is considered urban. See FCAN (level 5) in an AN file. There is no urban in !CanESM runs with CTEM. And, of course, we don't yet have fractional coverage of lakes or ice within a grid cell. We have grid cells that are full lakes or glacial cells, but no we don't have fractional lakes or land ice.",
    "MIPs (requesting)": "  AerChemMIP(1,1,1,1,1), C4MIP(1,1,1,1,1), CFMIP(1,1,1,1,1), CMIP(1,1,1,1,1), FAFMIP(1,1,1), GeoMIP(1,1,1), HighResMIP(1,1,1), LUMIP(1), PMIP(1,1,1,1,1), RFMIP(1,1,1,1,1), VIACSAB(1,1,1,1,2,2,2,2), VolMIP(1,1)",
    "experiments": "  abrupt-4xCO2 (AerChemMIP:1,C4MIP:1,CFMIP:1,CMIP:1,FAFMIP:1,GeoMIP:1,PMIP:1,RFMIP:1), amip (AerChemMIP:1,C4MIP:1,CFMIP:1,CMIP:1,HighResMIP:1,PMIP:1,RFMIP:1,VIACSAB:1,VIACSAB:2), 1pctCO2 (AerChemMIP:1,C4MIP:1,CFMIP:1,CMIP:1,FAFMIP:1,PMIP:1,RFMIP:1), historical (AerChemMIP:1,C4MIP:1,CFMIP:1,CMIP:1,GeoMIP:1,HighResMIP:1,LUMIP:1,PMIP:1,RFMIP:1,VIACSAB:1,VIACSAB:1,VolMIP:1,VIACSAB:2,VIACSAB:2), piControl (AerChemMIP:1,C4MIP:1,CFMIP:1,CMIP:1,FAFMIP:1,GeoMIP:1,HighResMIP:1,PMIP:1,RFMIP:1,VIACSAB:1,VolMIP:1,VIACSAB:2)"
  },
  "rGrowth": {
    "CCCma TS var name": "CFRG",
    "CCCma diag file": "tp",
    "CCCma optional deck": "mltby12em9",
    "CCCma comment": "CFRG*12.011E-9",
    "MIPs (requesting)": "  AerChemMIP(2,2,2,2,2), CMIP(2,2,2,2,2), FAFMIP(2,2,2), GeoMIP(2,2,2), HighResMIP(2,2,2), RFMIP(2,2,2,2,2), VIACSAB(1,1,1,1,2,2,2,2), VolMIP(2,2)",
    "experiments": "  abrupt-4xCO2 (AerChemMIP:2,CMIP:2,FAFMIP:2,GeoMIP:2,RFMIP:2), amip (VIACSAB:1,AerChemMIP:2,CMIP:2,HighResMIP:2,RFMIP:2,VIACSAB:2), 1pctCO2 (AerChemMIP:2,CMIP:2,FAFMIP:2,RFMIP:2), historical (VIACSAB:1,VIACSAB:1,AerChemMIP:2,CMIP:2,GeoMIP:2,HighResMIP:2,RFMIP:2,VIACSAB:2,VIACSAB:2,VolMIP:2), piControl (VIACSAB:1,AerChemMIP:2,CMIP:2,FAFMIP:2,GeoMIP:2,HighResMIP:2,RFMIP:2,VIACSAB:2,VolMIP:2)"
  },
  "rh": {
    "CCCma TS var name": "CFRH CFRD",
    "CCCma diag file": "tp",
    "CCCma optional deck": "addmltby12em9",
    "CCCma comment": "(CFRH+CFRD)*12.011E-9",
    "MIPs (requesting)": "  AerChemMIP(1,1,1,1,1), C4MIP(1,1,1,1,1), CDRMIP(2,2,2,2,2), CMIP(1,1,1,1,1), DCPP(2), FAFMIP(1,1,1), GeoMIP(1,1,1), HighResMIP(1,1,1), LUMIP(1), PAMIP(2), PMIP(1,1,1,1,1), RFMIP(1,1,1,1,1), VIACSAB(1,1,1,1,2,2,2,2), VolMIP(1,1)",
    "experiments": "  abrupt-4xCO2 (AerChemMIP:1,C4MIP:1,CMIP:1,FAFMIP:1,GeoMIP:1,PMIP:1,RFMIP:1,CDRMIP:2), amip (AerChemMIP:1,C4MIP:1,CMIP:1,HighResMIP:1,PMIP:1,RFMIP:1,VIACSAB:1,CDRMIP:2,VIACSAB:2), 1pctCO2 (AerChemMIP:1,C4MIP:1,CMIP:1,FAFMIP:1,PMIP:1,RFMIP:1,CDRMIP:2), historical (AerChemMIP:1,C4MIP:1,CMIP:1,GeoMIP:1,HighResMIP:1,LUMIP:1,PMIP:1,RFMIP:1,VIACSAB:1,VIACSAB:1,VolMIP:1,CDRMIP:2,DCPP:2,PAMIP:2,VIACSAB:2,VIACSAB:2), piControl (AerChemMIP:1,C4MIP:1,CMIP:1,FAFMIP:1,GeoMIP:1,HighResMIP:1,PMIP:1,RFMIP:1,VIACSAB:1,VolMIP:1,CDRMIP:2,VIACSAB:2)"
  },
  "rMaint": {
    "CCCma TS var name": "CFRM",
    "CCCma diag file": "tp",
    "CCCma optional deck": "mltby12em9",
    "CCCma comment": "CFRM*12.011E-9",
    "MIPs (requesting)": "  AerChemMIP(2,2,2,2,2), CMIP(2,2,2,2,2), FAFMIP(2,2,2), GeoMIP(2,2,2), HighResMIP(2,2,2), RFMIP(2,2,2,2,2), VIACSAB(1,1,1,1,2,2,2,2), VolMIP(2,2)",
    "experiments": "  abrupt-4xCO2 (AerChemMIP:2,CMIP:2,FAFMIP:2,GeoMIP:2,RFMIP:2), amip (VIACSAB:1,AerChemMIP:2,CMIP:2,HighResMIP:2,RFMIP:2,VIACSAB:2), 1pctCO2 (AerChemMIP:2,CMIP:2,FAFMIP:2,RFMIP:2), historical (VIACSAB:1,VIACSAB:1,AerChemMIP:2,CMIP:2,GeoMIP:2,HighResMIP:2,RFMIP:2,VIACSAB:2,VIACSAB:2,VolMIP:2), piControl (VIACSAB:1,AerChemMIP:2,CMIP:2,FAFMIP:2,GeoMIP:2,HighResMIP:2,RFMIP:2,VIACSAB:2,VolMIP:2)"
  },
  "shrubFrac": {
    "CCCma TS var name": null,
    "CCCma diag file": null,
    "CCCma check": "Vivek says, not providing",
    "CCCma comment": "We don't have shrubs in the model.",
    "MIPs (requesting)": "  AerChemMIP(1,1,1,1,1), C4MIP(1,1,1,1,1), CFMIP(1,1,1,1,1), CMIP(1,1,1,1,1,1), FAFMIP(1,1,1), GeoMIP(1,1,1), HighResMIP(1,1,1), LUMIP(1), PMIP(1,1,1,1,1), RFMIP(1,1,1,1,1), VIACSAB(1,1,1,1,1,2,2,2,2), VolMIP(1,1)",
    "experiments": "  abrupt-4xCO2 (AerChemMIP:1,C4MIP:1,CFMIP:1,CMIP:1,CMIP:1,FAFMIP:1,GeoMIP:1,PMIP:1,RFMIP:1), amip (AerChemMIP:1,C4MIP:1,CFMIP:1,CMIP:1,HighResMIP:1,PMIP:1,RFMIP:1,VIACSAB:1,VIACSAB:2), 1pctCO2 (AerChemMIP:1,C4MIP:1,CFMIP:1,CMIP:1,FAFMIP:1,PMIP:1,RFMIP:1,VIACSAB:1), historical (AerChemMIP:1,C4MIP:1,CFMIP:1,CMIP:1,GeoMIP:1,HighResMIP:1,LUMIP:1,PMIP:1,RFMIP:1,VIACSAB:1,VIACSAB:1,VolMIP:1,VIACSAB:2,VIACSAB:2), piControl (AerChemMIP:1,C4MIP:1,CFMIP:1,CMIP:1,FAFMIP:1,GeoMIP:1,HighResMIP:1,PMIP:1,RFMIP:1,VIACSAB:1,VolMIP:1,VIACSAB:2)"
  },
  "tran": {
    "CCCma TS var name": "QFVG",
    "CCCma diag file": "gp",
    "CCCma optional deck": "soilsum",
    "MIPs (requesting)": "  AerChemMIP(1,1,1,1,1), C4MIP(1,1,1,1,1), CFMIP(1,1,1,1,1), CMIP(1,1,1,1,1), FAFMIP(1,1,1), GeoMIP(1,1,1), HighResMIP(1,1,1), LUMIP(1), PMIP(1,1,1,1,1), RFMIP(1,1,1,1,1), VIACSAB(1,1,1,1,1,2), VolMIP(1,1)",
    "experiments": "  abrupt-4xCO2 (AerChemMIP:1,C4MIP:1,CFMIP:1,CMIP:1,FAFMIP:1,GeoMIP:1,PMIP:1,RFMIP:1), amip (AerChemMIP:1,C4MIP:1,CFMIP:1,CMIP:1,HighResMIP:1,PMIP:1,RFMIP:1,VIACSAB:1), 1pctCO2 (AerChemMIP:1,C4MIP:1,CFMIP:1,CMIP:1,FAFMIP:1,PMIP:1,RFMIP:1,VIACSAB:1), historical (AerChemMIP:1,C4MIP:1,CFMIP:1,CMIP:1,GeoMIP:1,HighResMIP:1,LUMIP:1,PMIP:1,RFMIP:1,VIACSAB:1,VIACSAB:1,VolMIP:1,VIACSAB:2), piControl (AerChemMIP:1,C4MIP:1,CFMIP:1,CMIP:1,FAFMIP:1,GeoMIP:1,HighResMIP:1,PMIP:1,RFMIP:1,VIACSAB:1,VolMIP:1)"
  },
  "treeFrac": {
    "CCCma TS var name": "TREE",
    "CCCma diag file": "tp",
    "CCCma optional deck": "mltby100",
    "CCCma units": "fraction per unit land area",
    "CCCma hist file": "_tm",
    "CCCma hist var names": "TREE",
    "CCCma hist var frequency": "daily",
    "CCCma check": "Done. Vivek put in _tm file.",
    "MIPs (requesting)": "  AerChemMIP(1,1,1,1,1), C4MIP(1,1,1,1,1), CFMIP(1,1,1,1,1), CMIP(1,1,1,1,1,1), FAFMIP(1,1,1), GeoMIP(1,1,1), HighResMIP(1,1,1), LUMIP(1), PMIP(1,1,1,1,1), RFMIP(1,1,1,1,1), VIACSAB(1,1,1,1,1,2,2,2,2), VolMIP(1,1)",
    "experiments": "  abrupt-4xCO2 (AerChemMIP:1,C4MIP:1,CFMIP:1,CMIP:1,CMIP:1,FAFMIP:1,GeoMIP:1,PMIP:1,RFMIP:1), amip (AerChemMIP:1,C4MIP:1,CFMIP:1,CMIP:1,HighResMIP:1,PMIP:1,RFMIP:1,VIACSAB:1,VIACSAB:2), 1pctCO2 (AerChemMIP:1,C4MIP:1,CFMIP:1,CMIP:1,FAFMIP:1,PMIP:1,RFMIP:1,VIACSAB:1), historical (AerChemMIP:1,C4MIP:1,CFMIP:1,CMIP:1,GeoMIP:1,HighResMIP:1,LUMIP:1,PMIP:1,RFMIP:1,VIACSAB:1,VIACSAB:1,VolMIP:1,VIACSAB:2,VIACSAB:2), piControl (AerChemMIP:1,C4MIP:1,CFMIP:1,CMIP:1,FAFMIP:1,GeoMIP:1,HighResMIP:1,PMIP:1,RFMIP:1,VIACSAB:1,VolMIP:1,VIACSAB:2)"
  },
  "treeFracPrimDec": {
    "CCCma TS var name": null,
    "CCCma diag file": null,
    "CCCma check": "Vivek says, not providing",
    "CCCma comment": "Land cover data are input into the model. This is basically sum of fractional coverage of vegetation types 2, 4 and 5.",
    "MIPs (requesting)": "  AerChemMIP(2,2,2,2,2), CMIP(1,1,1,1,1,2,2,2,2,2), FAFMIP(2,2,2), GeoMIP(2,2,2), HighResMIP(2,2,2), RFMIP(2,2,2,2,2), VIACSAB(1,1,1,1), VolMIP(2,2)",
    "experiments": "  abrupt-4xCO2 (CMIP:1,AerChemMIP:2,CMIP:2,FAFMIP:2,GeoMIP:2,RFMIP:2), amip (CMIP:1,VIACSAB:1,AerChemMIP:2,CMIP:2,HighResMIP:2,RFMIP:2), 1pctCO2 (CMIP:1,AerChemMIP:2,CMIP:2,FAFMIP:2,RFMIP:2), historical (CMIP:1,VIACSAB:1,VIACSAB:1,AerChemMIP:2,CMIP:2,GeoMIP:2,HighResMIP:2,RFMIP:2,VolMIP:2), piControl (CMIP:1,VIACSAB:1,AerChemMIP:2,CMIP:2,FAFMIP:2,GeoMIP:2,HighResMIP:2,RFMIP:2,VolMIP:2)"
  },
  "treeFracPrimEver": {
    "CCCma TS var name": null,
    "CCCma diag file": null,
    "CCCma check": "Vivek says, not providing",
    "CCCma comment": "Land cover data are input into the model. This is basically sum of fractional coverage of vegetation types 1 and 3",
    "MIPs (requesting)": "  AerChemMIP(2,2,2,2,2), CMIP(1,1,1,1,1,2,2,2,2,2), FAFMIP(2,2,2), GeoMIP(2,2,2), HighResMIP(2,2,2), RFMIP(2,2,2,2,2), VIACSAB(1,1,1,1), VolMIP(2,2)",
    "experiments": "  abrupt-4xCO2 (CMIP:1,AerChemMIP:2,CMIP:2,FAFMIP:2,GeoMIP:2,RFMIP:2), amip (CMIP:1,VIACSAB:1,AerChemMIP:2,CMIP:2,HighResMIP:2,RFMIP:2), 1pctCO2 (CMIP:1,AerChemMIP:2,CMIP:2,FAFMIP:2,RFMIP:2), historical (CMIP:1,VIACSAB:1,VIACSAB:1,AerChemMIP:2,CMIP:2,GeoMIP:2,HighResMIP:2,RFMIP:2,VolMIP:2), piControl (CMIP:1,VIACSAB:1,AerChemMIP:2,CMIP:2,FAFMIP:2,GeoMIP:2,HighResMIP:2,RFMIP:2,VolMIP:2)"
  },
  "treeFracSecDec": {
    "CCCma TS var name": null,
    "CCCma diag file": null,
    "CCCma check": "Vivek says, not providing",
    "MIPs (requesting)": "  AerChemMIP(2,2,2,2,2), CMIP(1,1,1,1,1,2,2,2,2,2), FAFMIP(2,2,2), GeoMIP(2,2,2), HighResMIP(2,2,2), RFMIP(2,2,2,2,2), VIACSAB(1,1,1,1,2,2,2,2), VolMIP(2,2)",
    "experiments": "  abrupt-4xCO2 (CMIP:1,AerChemMIP:2,CMIP:2,FAFMIP:2,GeoMIP:2,RFMIP:2), amip (CMIP:1,VIACSAB:1,AerChemMIP:2,CMIP:2,HighResMIP:2,RFMIP:2,VIACSAB:2), 1pctCO2 (CMIP:1,AerChemMIP:2,CMIP:2,FAFMIP:2,RFMIP:2), historical (CMIP:1,VIACSAB:1,VIACSAB:1,AerChemMIP:2,CMIP:2,GeoMIP:2,HighResMIP:2,RFMIP:2,VIACSAB:2,VIACSAB:2,VolMIP:2), piControl (CMIP:1,VIACSAB:1,AerChemMIP:2,CMIP:2,FAFMIP:2,GeoMIP:2,HighResMIP:2,RFMIP:2,VIACSAB:2,VolMIP:2)"
  },
  "treeFracSecEver": {
    "CCCma TS var name": null,
    "CCCma diag file": null,
    "CCCma check": "Vivek says, not providing",
    "MIPs (requesting)": "  AerChemMIP(2,2,2,2,2), CMIP(1,1,1,1,1,2,2,2,2,2), FAFMIP(2,2,2), GeoMIP(2,2,2), HighResMIP(2,2,2), RFMIP(2,2,2,2,2), VIACSAB(1,1,1,1,2,2,2,2), VolMIP(2,2)",
    "experiments": "  abrupt-4xCO2 (CMIP:1,AerChemMIP:2,CMIP:2,FAFMIP:2,GeoMIP:2,RFMIP:2), amip (CMIP:1,VIACSAB:1,AerChemMIP:2,CMIP:2,HighResMIP:2,RFMIP:2,VIACSAB:2), 1pctCO2 (CMIP:1,AerChemMIP:2,CMIP:2,FAFMIP:2,RFMIP:2), historical (CMIP:1,VIACSAB:1,VIACSAB:1,AerChemMIP:2,CMIP:2,GeoMIP:2,HighResMIP:2,RFMIP:2,VIACSAB:2,VIACSAB:2,VolMIP:2), piControl (CMIP:1,VIACSAB:1,AerChemMIP:2,CMIP:2,FAFMIP:2,GeoMIP:2,HighResMIP:2,RFMIP:2,VIACSAB:2,VolMIP:2)"
  },
  "tsl": {
    "CCCma TS var name": "TG DATA_DESCRIPTION",
    "CCCma diag file": "gp",
    "CCCma optional deck": "maskocean",
    "CCCma hist var names": "TG",
    "CCCma check": "Vivek says - variable is TG. Why didn't it convert?",
    "MIPs (requesting)": "  AerChemMIP(2,2,2,2,2), C4MIP(2,2,2,2,2), CFMIP(2,2,2,2,2), CMIP(2,2,2,2,2), FAFMIP(2,2,2), GeoMIP(2,2,2), HighResMIP(2,2,2), LUMIP(2), PMIP(1,1,1,1,1), RFMIP(2,2,2,2,2), VIACSAB(1,1,1,1,1,2,2,2,2), VolMIP(2,2)",
    "experiments": "  abrupt-4xCO2 (PMIP:1,AerChemMIP:2,C4MIP:2,CFMIP:2,CMIP:2,FAFMIP:2,GeoMIP:2,RFMIP:2), amip (PMIP:1,VIACSAB:1,AerChemMIP:2,C4MIP:2,CFMIP:2,CMIP:2,HighResMIP:2,RFMIP:2,VIACSAB:2), 1pctCO2 (PMIP:1,VIACSAB:1,AerChemMIP:2,C4MIP:2,CFMIP:2,CMIP:2,FAFMIP:2,RFMIP:2), historical (PMIP:1,VIACSAB:1,VIACSAB:1,AerChemMIP:2,C4MIP:2,CFMIP:2,CMIP:2,GeoMIP:2,HighResMIP:2,LUMIP:2,RFMIP:2,VIACSAB:2,VIACSAB:2,VolMIP:2), piControl (PMIP:1,VIACSAB:1,AerChemMIP:2,C4MIP:2,CFMIP:2,CMIP:2,FAFMIP:2,GeoMIP:2,HighResMIP:2,RFMIP:2,VIACSAB:2,VolMIP:2)"
  }
}