{
    "Header": {
        "data_specs_version": "01.00.00",
        "cmor_version": "3.5",
        "table_id": "Table 6hrPt",
        "realm": "atmos",
        "table_date": "Apr 20, 2021",
        "missing_value": "1e20",
        "int_missing_value": "-999",
        "product": "model-output",
        "approx_interval": "0.250000",
        "generic_levels": "",
        "Conventions": "CF-1.8 SNAP"
    },
    "variable_entry": {
        "ta": {
            "frequency": "6hrPt",
            "modeling_realm": "atmos",
            "standard_name": "air_temperature",
            "units": "K",
            "cell_methods": "time: point",
            "cell_measures": "",
            "long_name": "Air Temperature",
            "comment": "Air Temperature",
            "dimensions": "longitude latitude snap34 time",
            "out_name": "ta",
            "type": "real",
            "positive": "",
            "valid_min": "",
            "valid_max": ""
        },
        "ua": {
            "frequency": "6hrPt",
            "modeling_realm": "atmos",
            "standard_name": "eastward_wind",
            "units": "m s-1",
            "cell_methods": "time: point",
            "cell_measures": "",
            "long_name": "Eastward Wind",
            "comment": "Zonal wind (positive in a eastward direction).",
            "dimensions": "longitude latitude snap34 time",
            "out_name": "ua",
            "type": "real",
            "positive": "",
            "valid_min": "",
            "valid_max": ""
        },
        "va": {
            "frequency": "6hrPt",
            "modeling_realm": "atmos",
            "standard_name": "northward_wind",
            "units": "m s-1",
            "cell_methods": "longitude: mean time: point",
            "cell_measures": "",
            "long_name": "Northward Wind",
            "comment": "Meridional wind (positive in a northward direction).",
            "dimensions": "longitude latitude snap34 time",
            "out_name": "va",
            "type": "real",
            "positive": "",
            "valid_min": "",
            "valid_max": ""
        },
        "wap": {
            "frequency": "6hrPt", 
            "modeling_realm": "atmos", 
            "standard_name": "lagrangian_tendency_of_air_pressure", 
            "units": "Pa s-1", 
            "cell_methods": "time: point", 
            "cell_measures": "area: areacella", 
            "long_name": "Omega (=dp/dt)", 
            "comment": "Omega (vertical velocity in pressure coordinates, positive downwards)", 
            "dimensions": "longitude latitude snap34 time", 
            "out_name": "wap", 
            "type": "real", 
            "positive": "", 
            "valid_min": "", 
            "valid_max": "", 
            "ok_min_mean_abs": "", 
            "ok_max_mean_abs": ""
        }, 
        "zg": {
            "frequency": "6hrPt",
            "modeling_realm": "atmos",
            "standard_name": "geopotential_height",
            "units": "m",
            "cell_methods": "time: point",
            "cell_measures": "",
            "long_name": "Geopotential Height",
            "comment": "Geopotential is the sum of the specific gravitational potential energy relative to the geoid and the specific centripetal potential energy. Geopotential height is the geopotential divided by the standard acceleration due to gravity. It is numerically similar to the altitude (or geometric height) and not to the quantity with standard name height, which is relative to the surface.",
            "dimensions": "longitude latitude snap34 time",
            "out_name": "zg",
            "type": "real",
            "positive": "",
            "valid_min": "",
            "valid_max": ""
        },
        "hus": {
            "frequency": "6hrPt", 
            "modeling_realm": "atmos", 
            "standard_name": "specific_humidity", 
            "units": "1", 
            "cell_methods": "area: mean time: point", 
            "cell_measures": "area: areacella", 
            "long_name": "Specific Humidity", 
            "comment": "Specific humidity is the mass fraction of water vapor in (moist) air.", 
            "dimensions": "longitude latitude snap34 time", 
            "out_name": "hus", 
            "type": "real", 
            "positive": "", 
            "valid_min": "", 
            "valid_max": "", 
            "ok_min_mean_abs": "", 
            "ok_max_mean_abs": ""
        }, 
        "ps": {
            "frequency": "6hrPt",
            "modeling_realm": "atmos",
            "standard_name": "surface_air_pressure",
            "units": "Pa",
            "cell_methods": "area: mean time: point",
            "cell_measures": "area: areacella",
            "long_name": "Surface Air Pressure",
            "comment": "surface pressure (not mean sea-level pressure), 2-D field to calculate the 3-D pressure field from hybrid coordinates",
            "dimensions": "longitude latitude time1",
            "out_name": "ps",
            "type": "real",
            "positive": "",
            "valid_min": "",
            "valid_max": ""
        },
        "psl": {
            "frequency": "6hrPt", 
            "modeling_realm": "atmos", 
            "standard_name": "air_pressure_at_mean_sea_level", 
            "units": "Pa", 
            "cell_methods": "area: mean time: point", 
            "cell_measures": "area: areacella", 
            "long_name": "Sea Level Pressure", 
            "comment": "Sea Level Pressure", 
            "dimensions": "longitude latitude time1", 
            "out_name": "psl", 
            "type": "real", 
            "positive": "", 
            "valid_min": "", 
            "valid_max": "", 
            "ok_min_mean_abs": "", 
            "ok_max_mean_abs": ""
        }, 
        "tas": {
            "frequency": "6hrPt",
            "modeling_realm": "atmos",
            "standard_name": "air_temperature",
            "units": "K",
            "cell_methods": "area: mean time: mean",
            "cell_measures": "area: areacella",
            "long_name": "Near-Surface Air Temperature",
            "comment": "near-surface (usually, 2 meter) air temperature",
            "dimensions": "longitude latitude time1 height2m",
            "out_name": "tas",
            "type": "real",
            "positive": "",
            "valid_min": "",
            "valid_max": ""
        },
        "uas": {
            "frequency": "6hrPt", 
            "modeling_realm": "atmos", 
            "standard_name": "eastward_wind", 
            "units": "m s-1", 
            "cell_methods": "area: mean time: mean", 
            "cell_measures": "area: areacella", 
            "long_name": "Eastward Near-Surface Wind", 
            "comment": "Eastward component of the near-surface (usually, 10 meters)  wind", 
            "dimensions": "longitude latitude time1 height10m", 
            "out_name": "uas", 
            "type": "real", 
            "positive": "", 
            "valid_min": "", 
            "valid_max": "", 
            "ok_min_mean_abs": "", 
            "ok_max_mean_abs": ""
        }, 
        "vas": {
            "frequency": "6hrPt", 
            "modeling_realm": "atmos", 
            "standard_name": "northward_wind", 
            "units": "m s-1", 
            "cell_methods": "area: mean time: mean", 
            "cell_measures": "area: areacella", 
            "long_name": "Northward Near-Surface Wind", 
            "comment": "Northward component of the near surface wind", 
            "dimensions": "longitude latitude time1 height10m", 
            "out_name": "vas", 
            "type": "real", 
            "positive": "", 
            "valid_min": "", 
            "valid_max": "", 
            "ok_min_mean_abs": "", 
            "ok_max_mean_abs": ""
        }, 
        "rlut": {
            "frequency": "6hrPt",
            "modeling_realm": "atmos",
            "standard_name": "toa_outgoing_longwave_flux",
            "units": "W m-2",
            "cell_methods": "area: mean time: mean",
            "cell_measures": "area: areacella",
            "long_name": "TOA Outgoing Longwave Radiation",
            "comment": "at the top of the atmosphere (to be compared with satellite measurements)",
            "dimensions": "longitude latitude time1",
            "out_name": "rlut",
            "type": "real",
            "positive": "up",
            "valid_min": "",
            "valid_max": ""
        },
        "tos": {
            "frequency": "6hrPt", 
            "modeling_realm": "ocean", 
            "standard_name": "sea_surface_temperature", 
            "units": "degC", 
            "cell_methods": "area: mean where sea time: mean", 
            "cell_measures": "area: areacello", 
            "long_name": "Sea Surface Temperature", 
            "comment": "Temperature of upper boundary of the liquid ocean, including temperatures below sea-ice and floating ice shelves.", 
            "dimensions": "longitude latitude time", 
            "out_name": "tos", 
            "type": "real", 
            "positive": "", 
            "valid_min": "", 
            "valid_max": "", 
            "ok_min_mean_abs": "", 
            "ok_max_mean_abs": ""
        },     
        "siconca": {
            "frequency": "6hrPt",
            "modeling_realm": "seaIce",
            "standard_name": "sea_ice_area_fraction",
            "units": "%",
            "cell_methods": "area: time: mean",
            "cell_measures": "area: areacella",
            "long_name": "Sea-Ice Area Percentage (Atmospheric Grid)",
            "comment": "Percentage of grid cell covered by sea ice",
            "dimensions": "longitude latitude time",
            "out_name": "siconca",
            "type": "real",
            "positive": "",
            "valid_min": "0.0 r",
            "valid_max": "100.0 r"
        },
        "siconc": {
            "frequency": "6hrPt", 
            "modeling_realm": "seaIce", 
            "standard_name": "sea_ice_area_fraction", 
            "units": "%", 
            "cell_methods": "area: mean where sea time: mean", 
            "cell_measures": "area: areacello", 
            "long_name": "Sea-Ice Area Percentage (Ocean Grid)", 
            "comment": "Percentage of grid cell covered by sea ice", 
            "dimensions": "longitude latitude time", 
            "out_name": "siconc", 
            "type": "real", 
            "positive": "", 
            "valid_min": "", 
            "valid_max": "", 
            "ok_min_mean_abs": "", 
            "ok_max_mean_abs": ""
        }, 
        "sithick": {
            "frequency": "6hrPt", 
            "modeling_realm": "seaIce", 
            "standard_name": "sea_ice_thickness", 
            "units": "m", 
            "cell_methods": "area: mean where sea_ice time: mean", 
            "cell_measures": "area: areacello", 
            "long_name": "Sea Ice Thickness", 
            "comment": "Actual (floe) thickness of sea ice (NOT volume divided by grid area as was done in CMIP5)", 
            "dimensions": "longitude latitude time", 
            "out_name": "sithick", 
            "type": "real", 
            "positive": "", 
            "valid_min": "", 
            "valid_max": "", 
            "ok_min_mean_abs": "", 
            "ok_max_mean_abs": ""
        }, 
        "snw": {
            "frequency": "6hrPt",
            "modeling_realm": "atmos",
            "standard_name": "surface_snow_amount",
            "units": "kg m-2",
            "cell_methods": "area: mean where land time: mean",
            "cell_measures": "area: areacella",
            "long_name": "Surface Snow Amount",
            "comment": "The mass of surface snow on the land portion of the grid cell divided by the land area in the grid cell; reported as missing where the land fraction is 0; excludes snow on vegetation canopy or on sea ice.",
            "dimensions": "longitude latitude time1",
            "out_name": "snw",
            "type": "real",
            "positive": "",
            "valid_min": "",
            "valid_max": ""
        },
        "snd": {
            "frequency": "6hrPt",
            "modeling_realm": "atmos",
            "standard_name": "surface_snow_thickness",
            "units": "m",
            "cell_methods": "area: mean where land time: mean",
            "cell_measures": "area: areacella",
            "long_name": "Snow Depth",
            "comment": "where land over land, this is computed as the mean thickness of snow in the land portion of the grid cell (averaging over the entire land portion, including the snow-free fraction).  Reported as 0.0 where the land fraction is 0.",
            "dimensions": "longitude latitude time1",
            "out_name": "snd",
            "type": "real",
            "positive": "",
            "valid_min": "",
            "valid_max": ""
        },
        "mrso": {
            "frequency": "6hrPt", 
            "modeling_realm": "land", 
            "standard_name": "mass_content_of_water_in_soil", 
            "units": "kg m-2", 
            "cell_methods": "area: mean where land time: mean", 
            "cell_measures": "area: areacella", 
            "long_name": "Total Soil Moisture Content", 
            "comment": "the mass per unit area  (summed over all soil layers) of water in all phases.", 
            "dimensions": "longitude latitude time", 
            "out_name": "mrso", 
            "type": "real", 
            "positive": "", 
            "valid_min": "", 
            "valid_max": "", 
            "ok_min_mean_abs": "", 
            "ok_max_mean_abs": ""
        }, 
        "mrsos": {
            "frequency": "6hrPt", 
            "modeling_realm": "land", 
            "standard_name": "mass_content_of_water_in_soil_layer", 
            "units": "kg m-2", 
            "cell_methods": "area: mean where land time: mean", 
            "cell_measures": "area: areacella", 
            "long_name": "Moisture in Upper Portion of Soil Column", 
            "comment": "The mass of water in all phases in the upper 10cm of the  soil layer.", 
            "dimensions": "longitude latitude time1 sdepth1", 
            "out_name": "mrsos", 
            "type": "real", 
            "positive": "", 
            "valid_min": "", 
            "valid_max": "", 
            "ok_min_mean_abs": "", 
            "ok_max_mean_abs": ""
        }
    }
}
