{
  "agessc": {
    "CCCma TS var name": "",
    "CCCma diag file": ""
  },
  "bigthetao": {
    "CCCma TS var name": "",
    "CCCma diag file": ""
  },
  "bigthetaoga": {
    "CCCma TS var name": "",
    "CCCma diag file": ""
  },
  "hfbasin": {
    "CCCma TS var name": "",
    "CCCma diag file": ""
  },
  "hfds": {
    "CCCma TS var name": "",
    "CCCma diag file": ""
  },
  "masscello": {
    "CCCma TS var name": "",
    "CCCma diag file": ""
  },
  "masso": {
    "CCCma TS var name": "",
    "CCCma diag file": ""
  },
  "msftmrho": {
    "CCCma TS var name": "",
    "CCCma diag file": ""
  },
  "msftmz": {
    "CCCma TS var name": "",
    "CCCma diag file": ""
  },
  "msftyrho": {
    "CCCma TS var name": "",
    "CCCma diag file": ""
  },
  "msftyz": {
    "CCCma TS var name": "",
    "CCCma diag file": ""
  },
  "sfdsi": {
    "CCCma TS var name": "",
    "CCCma diag file": ""
  },
  "sfriver": {
    "CCCma TS var name": "",
    "CCCma diag file": ""
  },
  "so": {
    "CCCma TS var name": "",
    "CCCma diag file": ""
  },
  "soga": {
    "CCCma TS var name": "",
    "CCCma diag file": ""
  },
  "sos": {
    "CCCma TS var name": "",
    "CCCma diag file": ""
  },
  "sosga": {
    "CCCma TS var name": "",
    "CCCma diag file": ""
  },
  "tauuo": {
    "CCCma TS var name": "",
    "CCCma diag file": ""
  },
  "tauvo": {
    "CCCma TS var name": "",
    "CCCma diag file": ""
  },
  "thetao": {
    "CCCma TS var name": "",
    "CCCma diag file": ""
  },
  "thetaoga": {
    "CCCma TS var name": "",
    "CCCma diag file": ""
  },
  "thkcello": {
    "CCCma TS var name": "",
    "CCCma diag file": ""
  },
  "tos": {
    "CCCma TS var name": "",
    "CCCma diag file": ""
  },
  "tosga": {
    "CCCma TS var name": "",
    "CCCma diag file": ""
  },
  "uo": {
    "CCCma TS var name": "",
    "CCCma diag file": ""
  },
  "vo": {
    "CCCma TS var name": "",
    "CCCma diag file": ""
  },
  "volcello": {
    "CCCma TS var name": "",
    "CCCma diag file": ""
  },
  "volo": {
    "CCCma TS var name": "",
    "CCCma diag file": ""
  },
  "wfo": {
    "CCCma TS var name": "",
    "CCCma diag file": ""
  },
  "wo": {
    "CCCma TS var name": "",
    "CCCma diag file": ""
  }
}