{
  "chlos": {
    "CCCma TS var name": null,
    "CCCma diag file": null,
    "priority": 3.0,
    "MIPs (requesting)": "  OMIP(3,3,3,3)",
    "experiments": "  abrupt-4xCO2 (OMIP:3), 1pctCO2 (OMIP:3), historical (OMIP:3), piControl (OMIP:3)"
  },
  "omldamax": {
    "CCCma TS var name": "omldamax",
    "CCCma diag file": "1d_grid_t",
    "CCCma units": "m",
    "CCCma hist file": "1d_grid_t_ar6",
    "CCCma check": "DY",
    "CCCma comment": "1. Added by DY (set key_diaar5). ",
    "MIPs (requesting)": "  CFMIP(1,1,1,1,1), CMIP(1,1,1,1,1), DAMIP(1,1), GMMIP(1), HighResMIP(1,1,1), VolMIP(1)",
    "experiments": "  abrupt-4xCO2 (CFMIP:1,CMIP:1), amip (CFMIP:1,CMIP:1,GMMIP:1,HighResMIP:1), 1pctCO2 (CFMIP:1,CMIP:1), historical (CFMIP:1,CMIP:1,DAMIP:1,HighResMIP:1), piControl (CFMIP:1,CMIP:1,DAMIP:1,HighResMIP:1,VolMIP:1)"
  },
  "phycos": {
    "CCCma TS var name": null,
    "CCCma diag file": null,
    "priority": 2.0,
    "MIPs (requesting)": "  C4MIP(2,2,2,2), OMIP(3,3,3,3)",
    "experiments": "  abrupt-4xCO2 (C4MIP:2,OMIP:3), 1pctCO2 (C4MIP:2,OMIP:3), historical (C4MIP:2,OMIP:3), piControl (C4MIP:2,OMIP:3)"
  },
  "sos": {
    "CCCma TS var name": " sos",
    "CCCma diag file": "1d_grid_t",
    "CCCma optional deck": " ",
    "CCCma units": 0.001,
    "CCCma hist file": "1d_grid_t_ar6",
    "CCCma check": "DY",
    "CCCma comment": " 1. Consistency between the document and nemo code checked by DY. ",
    "priority": 3.0,
    "MIPs (requesting)": "  OMIP(3,3,3,3)",
    "experiments": "  abrupt-4xCO2 (OMIP:3), 1pctCO2 (OMIP:3), historical (OMIP:3), piControl (OMIP:3)"
  },
  "sossq": {
    "CCCma TS var name": " sossq",
    "CCCma diag file": "1d_grid_t",
    "CCCma units": 1e-06,
    "CCCma hist file": "1d_grid_t_ar6",
    "CCCma check": "DY",
    "CCCma comment": " 1. Consistency between the document and nemo code checked by DY. ",
    "priority": 3.0,
    "MIPs (requesting)": "  OMIP(3,3,3,3)",
    "experiments": "  abrupt-4xCO2 (OMIP:3), 1pctCO2 (OMIP:3), historical (OMIP:3), piControl (OMIP:3)"
  },
  "tos": {
    "CCCma TS var name": " tos ",
    "CCCma diag file": "1d_grid_t",
    "CCCma optional deck": " ",
    "CCCma units": " degC ",
    "CCCma hist file": "1d_grid_t_ar6",
    "CCCma check": "DY",
    "CCCma comment": "1. Consistency between the document and nemo code checked by DY. ",
    "MIPs (requesting)": "  CFMIP(1,1,1,1,1), CMIP(1,1,1,1,1), CORDEX(1), DAMIP(1,1), GMMIP(1), HighResMIP(1,1,1), OMIP(3,3,3,3), VolMIP(1)",
    "experiments": "  abrupt-4xCO2 (CFMIP:1,CMIP:1,OMIP:3), amip (CFMIP:1,CMIP:1,GMMIP:1,HighResMIP:1), 1pctCO2 (CFMIP:1,CMIP:1,OMIP:3), historical (CFMIP:1,CMIP:1,DAMIP:1,HighResMIP:1,OMIP:3), piControl (CFMIP:1,CMIP:1,CORDEX:1,DAMIP:1,HighResMIP:1,VolMIP:1,OMIP:3)"
  },
  "tossq": {
    "CCCma TS var name": " tossq ",
    "CCCma diag file": "1d_grid_t",
    "CCCma optional deck": " ",
    "CCCma units": " degC2 ",
    "CCCma hist file": "1d_grid_t_ar6",
    "CCCma check": "DY",
    "CCCma comment": "1. Consistency between the document and nemo code checked by DY. ",
    "MIPs (requesting)": "  CFMIP(1,1,1,1,1), CMIP(1,1,1,1,1), DAMIP(1,1), GMMIP(1), HighResMIP(1,1,1), OMIP(3,3,3,3), VolMIP(1)",
    "experiments": "  abrupt-4xCO2 (CFMIP:1,CMIP:1,OMIP:3), amip (CFMIP:1,CMIP:1,GMMIP:1,HighResMIP:1), 1pctCO2 (CFMIP:1,CMIP:1,OMIP:3), historical (CFMIP:1,CMIP:1,DAMIP:1,HighResMIP:1,OMIP:3), piControl (CFMIP:1,CMIP:1,DAMIP:1,HighResMIP:1,VolMIP:1,OMIP:3)"
  }
}