{
  "agesno": {
    "CCCma TS var name": "",
    "CCCma diag file": ""
  },
  "albc": {
    "CCCma TS var name": "",
    "CCCma diag file": ""
  },
  "albsn": {
    "CCCma TS var name": "",
    "CCCma diag file": ""
  },
  "aod550volso4": {
    "CCCma TS var name": "",
    "CCCma diag file": ""
  },
  "ares": {
    "CCCma TS var name": "",
    "CCCma diag file": ""
  },
  "ccldncl": {
    "CCCma TS var name": "CTLN CLDL",
    "CCCma diag file": "dd",
    "CCCma optional deck": "mask_mltby1e6",
    "CCCma hist file": "gs",
    "CCCma hist var names": "CTLN CLDL",
    "CCCma hist var frequency": "ISRAD",
    "CCCma check": "Jason",
    "CCCma comment": "Needs xtrals cpp defined for output",
    "MIPs (requesting)": "  CFMIP(1,1,1,1,1)",
    "experiments": "  abrupt-4xCO2 (CFMIP:1), amip (CFMIP:1), 1pctCO2 (CFMIP:1), historical (CFMIP:1), piControl (CFMIP:1)"
  },
  "cldnci": {
    "CCCma TS var name": null,
    "CCCma diag file": null,
    "CCCma check": "N/A, Jason",
    "MIPs (requesting)": "  CFMIP(1,1,1,1,1)",
    "experiments": "  abrupt-4xCO2 (CFMIP:1), amip (CFMIP:1), 1pctCO2 (CFMIP:1), historical (CFMIP:1), piControl (CFMIP:1)"
  },
  "cldnvi": {
    "CCCma TS var name": "clln cldl",
    "CCCma diag file": "dd",
    "CCCma optional deck": "mask_mltby1e4",
    "CCCma hist file": "gs",
    "CCCma hist var names": "clln cldl",
    "CCCma hist var frequency": "ISRAD",
    "CCCma comment": "Needs xtrals cpp defined for output clln/cldl, , in cfday_cmip6.dk",
    "MIPs (requesting)": "  CFMIP(1,1,1,1,1)",
    "experiments": "  abrupt-4xCO2 (CFMIP:1), amip (CFMIP:1), 1pctCO2 (CFMIP:1), historical (CFMIP:1), piControl (CFMIP:1)"
  },
  "clivic": {
    "CCCma TS var name": null,
    "CCCma diag file": null,
    "CCCma check": "N/A, Jason",
    "MIPs (requesting)": "  CFMIP(1,1,1,1,1)",
    "experiments": "  abrupt-4xCO2 (CFMIP:1), amip (CFMIP:1), 1pctCO2 (CFMIP:1), historical (CFMIP:1), piControl (CFMIP:1)"
  },
  "clt": {
    "CCCma TS var name": "",
    "CCCma diag file": ""
  },
  "clwvic": {
    "CCCma TS var name": null,
    "CCCma diag file": null,
    "CCCma check": "N/A, Jason",
    "MIPs (requesting)": "  CFMIP(1,1,1,1,1)",
    "experiments": "  abrupt-4xCO2 (CFMIP:1), amip (CFMIP:1), 1pctCO2 (CFMIP:1), historical (CFMIP:1), piControl (CFMIP:1)"
  },
  "cnc": {
    "CCCma TS var name": "",
    "CCCma diag file": ""
  },
  "cw": {
    "CCCma TS var name": "",
    "CCCma diag file": ""
  },
  "dcw": {
    "CCCma TS var name": "",
    "CCCma diag file": ""
  },
  "dgw": {
    "CCCma TS var name": "",
    "CCCma diag file": ""
  },
  "dmlt": {
    "CCCma TS var name": "",
    "CCCma diag file": ""
  },
  "drivw": {
    "CCCma TS var name": "",
    "CCCma diag file": ""
  },
  "dslw": {
    "CCCma TS var name": "",
    "CCCma diag file": ""
  },
  "dsn": {
    "CCCma TS var name": "",
    "CCCma diag file": ""
  },
  "dsw": {
    "CCCma TS var name": "",
    "CCCma diag file": ""
  },
  "dtes": {
    "CCCma TS var name": "",
    "CCCma diag file": ""
  },
  "dtesn": {
    "CCCma TS var name": "",
    "CCCma diag file": ""
  },
  "ec": {
    "CCCma TS var name": "",
    "CCCma diag file": ""
  },
  "eow": {
    "CCCma TS var name": "",
    "CCCma diag file": ""
  },
  "es": {
    "CCCma TS var name": "",
    "CCCma diag file": ""
  },
  "esn": {
    "CCCma TS var name": "",
    "CCCma diag file": ""
  },
  "evspsbl": {
    "CCCma TS var name": "",
    "CCCma diag file": ""
  },
  "evspsblpot": {
    "CCCma TS var name": "",
    "CCCma diag file": ""
  },
  "hfdsl": {
    "CCCma TS var name": "",
    "CCCma diag file": ""
  },
  "hfdsn": {
    "CCCma TS var name": "",
    "CCCma diag file": ""
  },
  "hfdsnb": {
    "CCCma TS var name": "",
    "CCCma diag file": ""
  },
  "hfls": {
    "CCCma TS var name": "",
    "CCCma diag file": ""
  },
  "hfmlt": {
    "CCCma TS var name": "",
    "CCCma diag file": ""
  },
  "hfrs": {
    "CCCma TS var name": "",
    "CCCma diag file": ""
  },
  "hfsbl": {
    "CCCma TS var name": "",
    "CCCma diag file": ""
  },
  "hfss": {
    "CCCma TS var name": "",
    "CCCma diag file": ""
  },
  "hursminCrop": {
    "CCCma TS var name": null,
    "CCCma diag file": null,
    "CCCma check": "Vivek says, not provided. We don't do crop tiles separately in CanESM5.",
    "MIPs (requesting)": "  VIACSAB(1)",
    "experiments": "  historical (VIACSAB:1)"
  },
  "hus": {
    "CCCma TS var name": "SHUM",
    "CCCma diag file": "dp",
    "CCCma units": "-",
    "CCCma hist file": "ss",
    "CCCma hist var names": "ES",
    "CCCma hist var frequency": "Spectral at ISSP",
    "CCCma check": "Michael, OK",
    "CCCma comment": "daily_cmip6.dk",
    "MIPs (requesting)": "  VolMIP(1)",
    "experiments": "  piControl (VolMIP:1)"
  },
  "hus850": {
    "CCCma TS var name": "SHUM",
    "CCCma diag file": "dp",
    "CCCma hist file": "ss",
    "CCCma hist var names": "ES",
    "CCCma hist var frequency": "Spectral at ISSP",
    "CCCma check": "Michael, OK",
    "MIPs (requesting)": "  PMIP(1,1,1,1)",
    "experiments": "  amip (PMIP:1), 1pctCO2 (PMIP:1), historical (PMIP:1), piControl (PMIP:1)"
  },
  "jpdftaureicemodis": {
    "CCCma TS var name": "MDTI SUNL",
    "CCCma diag file": "dd",
    "CCCma optional deck": "cospmask_refftau",
    "CCCma hist var names": "MDTI SUNL",
    "CCCma check": "Jason",
    "MIPs (requesting)": "  CFMIP(1)",
    "experiments": "  amip (CFMIP:1)"
  },
  "jpdftaureliqmodis": {
    "CCCma TS var name": "MDTL SUNL",
    "CCCma diag file": "dd",
    "CCCma optional deck": "cospmask_refftau",
    "CCCma hist var names": "MDTL SUNL",
    "CCCma check": "Jason",
    "MIPs (requesting)": "  CFMIP(1)",
    "experiments": "  amip (CFMIP:1)"
  },
  "lai": {
    "CCCma TS var name": "CLAI",
    "CCCma diag file": null,
    "CCCma check": "Vivek says, yup we have this.",
    "MIPs (requesting)": "  C4MIP(1,1,1,1)",
    "experiments": "  abrupt-4xCO2 (C4MIP:1), 1pctCO2 (C4MIP:1), historical (C4MIP:1), piControl (C4MIP:1)"
  },
  "loadbc": {
    "CCCma TS var name": "vi03 vi04",
    "CCCma diag file": "dd",
    "CCCma optional deck": "addtwo",
    "CCCma hist file": "gs",
    "CCCma hist var names": "vi03 vi04",
    "CCCma check": "Jason/Knut",
    "CCCma comment": "vi03+vi04",
    "MIPs (requesting)": "  CFMIP(1,1,1,1,1)",
    "experiments": "  abrupt-4xCO2 (CFMIP:1), amip (CFMIP:1), 1pctCO2 (CFMIP:1), historical (CFMIP:1), piControl (CFMIP:1)"
  },
  "loaddust": {
    "CCCma TS var name": "vi09 vi10",
    "CCCma diag file": "dd",
    "CCCma optional deck": "addtwo",
    "CCCma hist file": "gs",
    "CCCma hist var names": "vi09 vi10",
    "CCCma check": "Jason/Knut",
    "CCCma comment": "vi09+vi10, in cfday_cmip6.dk",
    "MIPs (requesting)": "  CFMIP(1,1,1,1,1)",
    "experiments": "  abrupt-4xCO2 (CFMIP:1), amip (CFMIP:1), 1pctCO2 (CFMIP:1), historical (CFMIP:1), piControl (CFMIP:1)"
  },
  "loadnh4": {
    "CCCma TS var name": null,
    "CCCma diag file": null,
    "CCCma check": "N/A Jason/Knut",
    "MIPs (requesting)": "  CFMIP(1,1,1,1,1)",
    "experiments": "  abrupt-4xCO2 (CFMIP:1), amip (CFMIP:1), 1pctCO2 (CFMIP:1), historical (CFMIP:1), piControl (CFMIP:1)"
  },
  "loadno3": {
    "CCCma TS var name": null,
    "CCCma diag file": null,
    "CCCma check": "N/A Jason/Knut",
    "MIPs (requesting)": "  CFMIP(1,1,1,1,1)",
    "experiments": "  abrupt-4xCO2 (CFMIP:1), amip (CFMIP:1), 1pctCO2 (CFMIP:1), historical (CFMIP:1), piControl (CFMIP:1)"
  },
  "loadoa": {
    "CCCma TS var name": "vi05 vi06",
    "CCCma diag file": "dd",
    "CCCma optional deck": "addtwomltby1.4",
    "CCCma hist file": "gs",
    "CCCma hist var names": "vi05 vi06",
    "CCCma check": "Jason/Knut",
    "CCCma comment": "1.4*(vi05+vi06), in cfday_cmip6.dk",
    "MIPs (requesting)": "  CFMIP(1,1,1,1,1)",
    "experiments": "  abrupt-4xCO2 (CFMIP:1), amip (CFMIP:1), 1pctCO2 (CFMIP:1), historical (CFMIP:1), piControl (CFMIP:1)"
  },
  "loadpoa": {
    "CCCma TS var name": null,
    "CCCma diag file": null,
    "CCCma check": "N/A Jason/Knut",
    "MIPs (requesting)": "  CFMIP(1,1,1,1,1)",
    "experiments": "  abrupt-4xCO2 (CFMIP:1), amip (CFMIP:1), 1pctCO2 (CFMIP:1), historical (CFMIP:1), piControl (CFMIP:1)"
  },
  "loadso4": {
    "CCCma TS var name": "vi13",
    "CCCma diag file": "dd",
    "CCCma optional deck": "mltby3",
    "CCCma hist file": "gs",
    "CCCma hist var names": "vi13",
    "CCCma check": "Jason/Knut",
    "CCCma comment": "3.0*vi13, in cfday_cmip6.dk",
    "MIPs (requesting)": "  CFMIP(1,1,1,1,1)",
    "experiments": "  abrupt-4xCO2 (CFMIP:1), amip (CFMIP:1), 1pctCO2 (CFMIP:1), historical (CFMIP:1), piControl (CFMIP:1)"
  },
  "loadsoa": {
    "CCCma TS var name": null,
    "CCCma diag file": null,
    "CCCma check": "N/A Jason/Knut",
    "MIPs (requesting)": "  CFMIP(1,1,1,1,1)",
    "experiments": "  abrupt-4xCO2 (CFMIP:1), amip (CFMIP:1), 1pctCO2 (CFMIP:1), historical (CFMIP:1), piControl (CFMIP:1)"
  },
  "loadss": {
    "CCCma TS var name": "vi07 vi08",
    "CCCma diag file": "dd",
    "CCCma optional deck": "addtwo",
    "CCCma hist file": "gs",
    "CCCma hist var names": "vi07 vi08",
    "CCCma check": "Jason/Knut",
    "CCCma comment": "vi07+vi08, in cfday_cmip6.dk",
    "MIPs (requesting)": "  CFMIP(1,1,1,1,1)",
    "experiments": "  abrupt-4xCO2 (CFMIP:1), amip (CFMIP:1), 1pctCO2 (CFMIP:1), historical (CFMIP:1), piControl (CFMIP:1)"
  },
  "lwsnl": {
    "CCCma TS var name": "",
    "CCCma diag file": ""
  },
  "mlotst": {
    "CCCma TS var name": null,
    "CCCma diag file": null,
    "priority": 2.0,
    "MIPs (requesting)": "  DCPP(2), PAMIP(2)",
    "experiments": "  historical (DCPP:2,PAMIP:2)"
  },
  "mrfsofr": {
    "CCCma TS var name": "",
    "CCCma diag file": ""
  },
  "mrlqso": {
    "CCCma TS var name": "",
    "CCCma diag file": ""
  },
  "mrrob": {
    "CCCma TS var name": "",
    "CCCma diag file": ""
  },
  "mrros": {
    "CCCma TS var name": "",
    "CCCma diag file": ""
  },
  "mrsfl": {
    "CCCma TS var name": "WGF",
    "CCCma diag file": "dd",
    "CCCma hist var names": "WGF. IBUF(4) ={1,2,3}",
    "MIPs (requesting)": "  C4MIP(1,1,1,1)",
    "experiments": "  abrupt-4xCO2 (C4MIP:1), 1pctCO2 (C4MIP:1), historical (C4MIP:1), piControl (C4MIP:1)"
  },
  "mrsll": {
    "CCCma TS var name": "WGL",
    "CCCma diag file": "dd",
    "CCCma hist var names": "WGL. IBUF(4) ={1,2,3}",
    "MIPs (requesting)": "  C4MIP(1,1,1,1)",
    "experiments": "  abrupt-4xCO2 (C4MIP:1), 1pctCO2 (C4MIP:1), historical (C4MIP:1), piControl (C4MIP:1)"
  },
  "mrsol": {
    "CCCma TS var name": "WGF WGL",
    "CCCma diag file": "dd",
    "CCCma optional deck": "addtwo",
    "CCCma hist var names": "WGF WGL. IBUF(4) ={1,2,3}",
    "MIPs (requesting)": "  C4MIP(1,1,1,1)",
    "experiments": "  abrupt-4xCO2 (C4MIP:1), 1pctCO2 (C4MIP:1), historical (C4MIP:1), piControl (C4MIP:1)"
  },
  "mrsow": {
    "CCCma TS var name": "",
    "CCCma diag file": ""
  },
  "mrtws": {
    "CCCma TS var name": "",
    "CCCma diag file": ""
  },
  "nudgincsm": {
    "CCCma TS var name": "",
    "CCCma diag file": ""
  },
  "nudgincswe": {
    "CCCma TS var name": "",
    "CCCma diag file": ""
  },
  "parasolRefl": {
    "CCCma TS var name": "PL01 PL02 PL03 PL04 PL05 ML01 ML02 ML03 ML04 ML05",
    "CCCma diag file": "dd",
    "CCCma optional deck": "cospmask_parasolrefl",
    "CCCma hist file": "gs",
    "CCCma hist var names": "PL01 PL02 PL03 PL04 PL05 ML01 ML02 ML03 ML04 ML05",
    "CCCma check": "Jason",
    "MIPs (requesting)": "  CFMIP(1)",
    "experiments": "  amip (CFMIP:1)"
  },
  "pflw": {
    "CCCma TS var name": "",
    "CCCma diag file": ""
  },
  "prCrop": {
    "CCCma TS var name": null,
    "CCCma diag file": null,
    "CCCma check": "Vivek says, not provided. We don't do crop tiles separately in CanESM5.",
    "MIPs (requesting)": "  VIACSAB(1)",
    "experiments": "  historical (VIACSAB:1)"
  },
  "prhmax": {
    "CCCma TS var name": null,
    "CCCma diag file": null,
    "MIPs (requesting)": "  DCPP(1), PAMIP(1), PMIP(1,1,1,1)",
    "experiments": "  amip (PMIP:1), 1pctCO2 (PMIP:1), historical (DCPP:1,PAMIP:1,PMIP:1), piControl (PMIP:1)"
  },
  "prra": {
    "CCCma TS var name": "",
    "CCCma diag file": ""
  },
  "prrc": {
    "CCCma TS var name": "",
    "CCCma diag file": ""
  },
  "prrsn": {
    "CCCma TS var name": "",
    "CCCma diag file": ""
  },
  "prsnc": {
    "CCCma TS var name": "",
    "CCCma diag file": ""
  },
  "prsnsn": {
    "CCCma TS var name": "",
    "CCCma diag file": ""
  },
  "prveg": {
    "CCCma TS var name": "",
    "CCCma diag file": ""
  },
  "prw": {
    "CCCma TS var name": "PWAT",
    "CCCma diag file": "dd",
    "CCCma hist file": "gs",
    "CCCma hist var names": "PWAT",
    "CCCma check": "Jason",
    "MIPs (requesting)": "  CORDEX(1), DAMIP(1,1)",
    "experiments": "  piControl (CORDEX:1,DAMIP:1), historical (DAMIP:1)"
  },
  "qgwr": {
    "CCCma TS var name": "",
    "CCCma diag file": ""
  },
  "reffcclwtop": {
    "CCCma TS var name": null,
    "CCCma diag file": null,
    "CCCma check": "N/A, Jason",
    "MIPs (requesting)": "  CFMIP(1,1,1,1,1)",
    "experiments": "  abrupt-4xCO2 (CFMIP:1), amip (CFMIP:1), 1pctCO2 (CFMIP:1), historical (CFMIP:1), piControl (CFMIP:1)"
  },
  "reffsclwtop": {
    "CCCma TS var name": "rell cldl",
    "CCCma diag file": "dd",
    "CCCma optional deck": "mask_mltby1em6",
    "CCCma hist file": "gs",
    "CCCma hist var names": "rell cldl",
    "CCCma check": "Jason",
    "CCCma comment": "cpp->xtrals,rell/cldl, in cfday_cmip6.dk",
    "MIPs (requesting)": "  CFMIP(1,1,1,1,1)",
    "experiments": "  abrupt-4xCO2 (CFMIP:1), amip (CFMIP:1), 1pctCO2 (CFMIP:1), historical (CFMIP:1), piControl (CFMIP:1)"
  },
  "rivi": {
    "CCCma TS var name": "",
    "CCCma diag file": ""
  },
  "rivo": {
    "CCCma TS var name": "",
    "CCCma diag file": ""
  },
  "rls": {
    "CCCma TS var name": "",
    "CCCma diag file": ""
  },
  "rsdscsdiff": {
    "CCCma TS var name": "fssc fsdc",
    "CCCma diag file": "dd",
    "CCCma optional deck": "subtract",
    "CCCma hist file": "gs",
    "CCCma hist var names": "fssc fsdc",
    "CCCma check": "Jason",
    "CCCma comment": "fssc-fsdc, in cfday_cmip6.dk.daily_cmip6.dk",
    "MIPs (requesting)": "  CFMIP(1,1,1,1,1)",
    "experiments": "  abrupt-4xCO2 (CFMIP:1), amip (CFMIP:1), 1pctCO2 (CFMIP:1), historical (CFMIP:1), piControl (CFMIP:1)"
  },
  "rsdsdiff": {
    "CCCma TS var name": "fss fsd",
    "CCCma diag file": "dd",
    "CCCma optional deck": "subtract",
    "CCCma hist file": "gs",
    "CCCma hist var names": "fss fsd",
    "CCCma check": "Jason",
    "CCCma comment": "fss-fsd, in cfday_cmip6.dk, daily_cmip6.dk",
    "MIPs (requesting)": "  CFMIP(1,1,1,1,1)",
    "experiments": "  abrupt-4xCO2 (CFMIP:1), amip (CFMIP:1), 1pctCO2 (CFMIP:1), historical (CFMIP:1), piControl (CFMIP:1)"
  },
  "rss": {
    "CCCma TS var name": "",
    "CCCma diag file": ""
  },
  "rzwc": {
    "CCCma TS var name": "",
    "CCCma diag file": ""
  },
  "sbl": {
    "CCCma TS var name": "",
    "CCCma diag file": ""
  },
  "sblnosn": {
    "CCCma TS var name": "",
    "CCCma diag file": ""
  },
  "scldncl": {
    "CCCma TS var name": "ctln cldl",
    "CCCma diag file": "dd",
    "CCCma optional deck": "mask_mltby1e6",
    "CCCma hist file": "gs",
    "CCCma hist var names": "ctln cldl",
    "CCCma check": "Jason",
    "CCCma comment": "cpp->xtrals,ctln/cldl, in cfday_cmip6.dk",
    "MIPs (requesting)": "  CFMIP(1,1,1,1,1)",
    "experiments": "  abrupt-4xCO2 (CFMIP:1), amip (CFMIP:1), 1pctCO2 (CFMIP:1), historical (CFMIP:1), piControl (CFMIP:1)"
  },
  "snd": {
    "CCCma TS var name": null,
    "CCCma diag file": null,
    "CCCma check": "Should add, Jason",
    "priority": 3.0,
    "MIPs (requesting)": "  DCPP(3), PAMIP(3)",
    "experiments": "  historical (DCPP:3,PAMIP:3)"
  },
  "snm": {
    "CCCma TS var name": "",
    "CCCma diag file": ""
  },
  "snmsl": {
    "CCCma TS var name": "",
    "CCCma diag file": ""
  },
  "snrefr": {
    "CCCma TS var name": "",
    "CCCma diag file": ""
  },
  "snwc": {
    "CCCma TS var name": "",
    "CCCma diag file": ""
  },
  "sootsn": {
    "CCCma TS var name": "",
    "CCCma diag file": ""
  },
  "sw": {
    "CCCma TS var name": "",
    "CCCma diag file": ""
  },
  "t20d": {
    "CCCma TS var name": null,
    "CCCma diag file": null,
    "priority": 2.0,
    "MIPs (requesting)": "  DCPP(2), PAMIP(2)",
    "experiments": "  historical (DCPP:2,PAMIP:2)"
  },
  "ta": {
    "CCCma TS var name": "TEMP",
    "CCCma diag file": "dp",
    "CCCma units": "K",
    "CCCma hist file": "ss",
    "CCCma hist var names": "TEMP",
    "CCCma hist var frequency": "Spectral at ISSP",
    "CCCma check": "Michael, OK",
    "CCCma comment": "daily_cmip6.dk",
    "MIPs (requesting)": "  VolMIP(1)",
    "experiments": "  piControl (VolMIP:1)"
  },
  "ta500": {
    "CCCma TS var name": "TEMP",
    "CCCma diag file": "dp",
    "CCCma units": "K",
    "CCCma hist file": "ss",
    "CCCma hist var names": "TEMP",
    "CCCma hist var frequency": "Spectral at ISSP",
    "CCCma check": "Michael, OK",
    "MIPs (requesting)": "  PMIP(1,1,1,1)",
    "experiments": "  amip (PMIP:1), 1pctCO2 (PMIP:1), historical (PMIP:1), piControl (PMIP:1)"
  },
  "ta850": {
    "CCCma TS var name": "TEMP",
    "CCCma diag file": "dp",
    "CCCma units": "K",
    "CCCma hist file": "ss",
    "CCCma hist var names": "TEMP",
    "CCCma hist var frequency": "Spectral at ISSP",
    "CCCma check": "Michael, OK",
    "CCCma comment": "daily_cmip6.dk",
    "MIPs (requesting)": "  DCPP(1), PAMIP(1), PMIP(1,1,1,1)",
    "experiments": "  amip (PMIP:1), 1pctCO2 (PMIP:1), historical (DCPP:1,PAMIP:1,PMIP:1), piControl (PMIP:1)"
  },
  "tasmaxCrop": {
    "CCCma TS var name": null,
    "CCCma diag file": null,
    "CCCma check": "Vivek says, not provided. We don't do crop tiles separately in CanESM5.",
    "MIPs (requesting)": "  VIACSAB(1,1,1,1)",
    "experiments": "  1pctCO2 (VIACSAB:1), historical (VIACSAB:1,VIACSAB:1), amip (VIACSAB:1)"
  },
  "tasminCrop": {
    "CCCma TS var name": null,
    "CCCma diag file": null,
    "CCCma check": "Vivek says, not provided. We don't do crop tiles separately in CanESM5.",
    "MIPs (requesting)": "  VIACSAB(1,1,1,1)",
    "experiments": "  1pctCO2 (VIACSAB:1), historical (VIACSAB:1,VIACSAB:1), amip (VIACSAB:1)"
  },
  "tau": {
    "CCCma TS var name": "",
    "CCCma diag file": ""
  },
  "tauu": {
    "CCCma TS var name": "UFS",
    "CCCma diag file": "dd",
    "CCCma optional deck": "minus",
    "CCCma hist file": "gs",
    "CCCma hist var names": "UFS",
    "CCCma hist var frequency": "ISRAD",
    "CCCma check": "Done.",
    "MIPs (requesting)": "  DCPP(3), HighResMIP(1,1,1), PAMIP(3)",
    "experiments": "  piControl (HighResMIP:1), historical (HighResMIP:1,DCPP:3,PAMIP:3), amip (HighResMIP:1)"
  },
  "tauupbl": {
    "CCCma TS var name": null,
    "CCCma diag file": null,
    "CCCma check": "?",
    "CCCma comment": "NB: GMD paper says this is priority 2",
    "MIPs (requesting)": "  DynVarMIP(1.0,1.0,1.0,1.0)",
    "experiments": "  piControl (DynVarMIP:1.0), amip (DynVarMIP:1.0), historical (DynVarMIP:1.0), 1pctCO2 (DynVarMIP:1.0)"
  },
  "tauv": {
    "CCCma TS var name": "VFS",
    "CCCma diag file": "dd",
    "CCCma optional deck": "minus",
    "CCCma hist file": "gs",
    "CCCma hist var names": "VFS",
    "CCCma hist var frequency": "ISRAD",
    "CCCma check": "Done.",
    "MIPs (requesting)": "  DCPP(3), HighResMIP(1,1,1), PAMIP(3)",
    "experiments": "  piControl (HighResMIP:1), historical (HighResMIP:1,DCPP:3,PAMIP:3), amip (HighResMIP:1)"
  },
  "tauvpbl": {
    "CCCma TS var name": null,
    "CCCma diag file": null,
    "CCCma check": "?",
    "CCCma comment": "NB: GMD paper says this is priority 2",
    "MIPs (requesting)": "  DynVarMIP(1.0,1.0,1.0,1.0)",
    "experiments": "  piControl (DynVarMIP:1.0), amip (DynVarMIP:1.0), historical (DynVarMIP:1.0), 1pctCO2 (DynVarMIP:1.0)"
  },
  "tcs": {
    "CCCma TS var name": "",
    "CCCma diag file": ""
  },
  "tdps": {
    "CCCma TS var name": null,
    "CCCma diag file": null,
    "priority": 2.0,
    "MIPs (requesting)": "  DCPP(2), PAMIP(2)",
    "experiments": "  historical (DCPP:2,PAMIP:2)"
  },
  "tgs": {
    "CCCma TS var name": "",
    "CCCma diag file": ""
  },
  "tpf": {
    "CCCma TS var name": "",
    "CCCma diag file": ""
  },
  "tr": {
    "CCCma TS var name": "",
    "CCCma diag file": ""
  },
  "tran": {
    "CCCma TS var name": "",
    "CCCma diag file": ""
  },
  "ts": {
    "CCCma TS var name": "GT",
    "CCCma diag file": "dd",
    "CCCma hist file": "gs",
    "CCCma hist var names": "GT (aggregated over all tiles)",
    "CCCma hist var frequency": "ISRAD",
    "CCCma check": "Done.",
    "MIPs (requesting)": "  DAMIP(1,1), HighResMIP(1,1,1)",
    "experiments": "  piControl (DAMIP:1,HighResMIP:1), historical (DAMIP:1,HighResMIP:1), amip (HighResMIP:1)"
  },
  "tsl": {
    "CCCma TS var name": "TG DATA_DESCRIPTION",
    "CCCma diag file": null,
    "CCCma optional deck": "maskocean",
    "CCCma hist var names": "TG",
    "CCCma check": "Vivek says - it's TG. To be treated same as tsl in Lmon.",
    "priority": 2.0,
    "MIPs (requesting)": "  C4MIP(2,2,2,2)",
    "experiments": "  abrupt-4xCO2 (C4MIP:2), 1pctCO2 (C4MIP:2), historical (C4MIP:2), piControl (C4MIP:2)"
  },
  "tsland": {
    "CCCma TS var name": "",
    "CCCma diag file": ""
  },
  "tsn": {
    "CCCma TS var name": "",
    "CCCma diag file": ""
  },
  "tsns": {
    "CCCma TS var name": "",
    "CCCma diag file": ""
  },
  "ua": {
    "CCCma TS var name": "U",
    "CCCma diag file": "dp",
    "CCCma check": "Michael, OK",
    "CCCma comment": "daily_cmip6.dk",
    "MIPs (requesting)": "  HighResMIP(1,1,1), VolMIP(1)",
    "experiments": "  piControl (HighResMIP:1,VolMIP:1), historical (HighResMIP:1), amip (HighResMIP:1)"
  },
  "va": {
    "CCCma TS var name": "V",
    "CCCma diag file": "dp",
    "CCCma check": "Michael, OK",
    "CCCma comment": "daily_cmip6.dk",
    "MIPs (requesting)": "  HighResMIP(1,1,1), VolMIP(1)",
    "experiments": "  piControl (HighResMIP:1,VolMIP:1), historical (HighResMIP:1), amip (HighResMIP:1)"
  },
  "wap": {
    "CCCma TS var name": "OMEG",
    "CCCma diag file": "dp",
    "CCCma units": "Pa s-1",
    "CCCma hist file": "gs",
    "CCCma hist var names": "OMET",
    "CCCma hist var frequency": "ISGG",
    "CCCma check": "Michael, OK",
    "CCCma comment": "daily_cmip6.dk",
    "MIPs (requesting)": "  VolMIP(1)",
    "experiments": "  piControl (VolMIP:1)"
  },
  "wtd": {
    "CCCma TS var name": "",
    "CCCma diag file": ""
  },
  "zg": {
    "CCCma TS var name": "PHI",
    "CCCma diag file": "dp",
    "CCCma optional deck": "divbyg",
    "CCCma units": "m",
    "CCCma hist file": "ss",
    "CCCma hist var names": "PHIS",
    "CCCma hist var frequency": "ISSP",
    "CCCma check": "Michael, OK",
    "CCCma comment": "PHI/9.80616",
    "MIPs (requesting)": "  DAMIP(1,1), VolMIP(1)",
    "experiments": "  piControl (DAMIP:1,VolMIP:1), historical (DAMIP:1)"
  },
  "zmla": {
    "CCCma TS var name": null,
    "CCCma diag file": null,
    "MIPs (requesting)": "  PMIP(1,1,1,1)",
    "experiments": "  amip (PMIP:1), 1pctCO2 (PMIP:1), historical (PMIP:1), piControl (PMIP:1)"
  }
}