{
  "ccb": {
    "CCCma TS var name": "BCD CDCB",
    "CCCma diag file": "site",
    "CCCma optional deck": "maskcdcb",
    "CCCma hist file": "site",
    "CCCma hist var names": "BCD CDCB",
    "CCCma check": "Jason",
    "MIPs (requesting)": "  AerChemMIP(1,1,1), CFMIP(1)",
    "experiments": "  piControl (AerChemMIP:1), historical (AerChemMIP:1), amip (AerChemMIP:1,CFMIP:1)"
  },
  "cct": {
    "CCCma TS var name": "TCD CDCB",
    "CCCma diag file": "site",
    "CCCma optional deck": "maskcdcb",
    "CCCma hist file": "site",
    "CCCma hist var names": "TCD CDCB",
    "CCCma check": "Jason",
    "MIPs (requesting)": "  AerChemMIP(1,1,1), CFMIP(1)",
    "experiments": "  piControl (AerChemMIP:1), historical (AerChemMIP:1), amip (AerChemMIP:1,CFMIP:1)"
  },
  "ci": {
    "CCCma TS var name": "CDCB",
    "CCCma diag file": "site",
    "CCCma hist file": "site",
    "CCCma hist var names": "CDCB",
    "CCCma check": "Jason",
    "MIPs (requesting)": "  AerChemMIP(1,1,1), CFMIP(1)",
    "experiments": "  piControl (AerChemMIP:1), historical (AerChemMIP:1), amip (AerChemMIP:1,CFMIP:1)"
  },
  "cl": {
    "CCCma TS var name": "CLD",
    "CCCma diag file": "site",
    "CCCma hist file": "site",
    "CCCma hist var names": "CLD",
    "CCCma check": "Jason",
    "MIPs (requesting)": "  AerChemMIP(1,1,1), CFMIP(1)",
    "experiments": "  piControl (AerChemMIP:1), historical (AerChemMIP:1), amip (AerChemMIP:1,CFMIP:1)"
  },
  "cli": {
    "CCCma TS var name": "CIC",
    "CCCma diag file": "site",
    "CCCma hist file": "site",
    "CCCma hist var names": "CIC",
    "CCCma check": "Jason",
    "MIPs (requesting)": "  AerChemMIP(1,1,1), CFMIP(1)",
    "experiments": "  piControl (AerChemMIP:1), historical (AerChemMIP:1), amip (AerChemMIP:1,CFMIP:1)"
  },
  "clivi": {
    "CCCma TS var name": "CICT",
    "CCCma diag file": "site",
    "CCCma hist file": "site",
    "CCCma hist var names": "CICT",
    "CCCma check": "Jason",
    "MIPs (requesting)": "  AerChemMIP(1,1,1), CFMIP(1)",
    "experiments": "  piControl (AerChemMIP:1), historical (AerChemMIP:1), amip (AerChemMIP:1,CFMIP:1)"
  },
  "clt": {
    "CCCma TS var name": "CLDT",
    "CCCma diag file": "site",
    "CCCma hist file": "site",
    "CCCma hist var names": "CLDT",
    "CCCma check": "Jason",
    "MIPs (requesting)": "  AerChemMIP(1,1,1), CFMIP(1)",
    "experiments": "  piControl (AerChemMIP:1), historical (AerChemMIP:1), amip (AerChemMIP:1,CFMIP:1)"
  },
  "clw": {
    "CCCma TS var name": "CLW",
    "CCCma diag file": "site",
    "CCCma hist file": "site",
    "CCCma hist var names": "CLW",
    "CCCma check": "Jason",
    "MIPs (requesting)": "  AerChemMIP(1,1,1), CFMIP(1)",
    "experiments": "  piControl (AerChemMIP:1), historical (AerChemMIP:1), amip (AerChemMIP:1,CFMIP:1)"
  },
  "clwvi": {
    "CCCma TS var name": "CLWT CICT",
    "CCCma diag file": "site",
    "CCCma optional deck": "addtwo",
    "CCCma hist file": "site",
    "CCCma hist var names": "CLWT CICT",
    "CCCma check": "Jason",
    "MIPs (requesting)": "  AerChemMIP(1,1,1), CFMIP(1)",
    "experiments": "  piControl (AerChemMIP:1), historical (AerChemMIP:1), amip (AerChemMIP:1,CFMIP:1)"
  },
  "edt": {
    "CCCma TS var name": "RKH",
    "CCCma diag file": "site",
    "CCCma hist file": "site",
    "CCCma hist var names": "RKH",
    "CCCma check": "Jason",
    "MIPs (requesting)": "  AerChemMIP(1,1,1), CFMIP(1)",
    "experiments": "  piControl (AerChemMIP:1), historical (AerChemMIP:1), amip (AerChemMIP:1,CFMIP:1)"
  },
  "evspsbl": {
    "CCCma TS var name": "QFS",
    "CCCma diag file": "site",
    "CCCma hist file": "site",
    "CCCma hist var names": "QFS",
    "CCCma check": "Jason",
    "MIPs (requesting)": "  AerChemMIP(1,1,1), CFMIP(1)",
    "experiments": "  piControl (AerChemMIP:1), historical (AerChemMIP:1), amip (AerChemMIP:1,CFMIP:1)"
  },
  "evu": {
    "CCCma TS var name": "RKM",
    "CCCma diag file": "site",
    "CCCma hist file": "site",
    "CCCma hist var names": "RKM",
    "CCCma check": "Jason",
    "MIPs (requesting)": "  AerChemMIP(1,1,1), CFMIP(1)",
    "experiments": "  piControl (AerChemMIP:1), historical (AerChemMIP:1), amip (AerChemMIP:1,CFMIP:1)"
  },
  "fco2antt": {
    "CCCma TS var name": null,
    "CCCma diag file": null,
    "CCCma check": "N/A (Jason)",
    "MIPs (requesting)": "  AerChemMIP(1,1,1), CFMIP(1)",
    "experiments": "  piControl (AerChemMIP:1), historical (AerChemMIP:1), amip (AerChemMIP:1,CFMIP:1)"
  },
  "fco2fos": {
    "CCCma TS var name": null,
    "CCCma diag file": null,
    "CCCma check": "N/A (Jason)",
    "MIPs (requesting)": "  AerChemMIP(1,1,1), CFMIP(1)",
    "experiments": "  piControl (AerChemMIP:1), historical (AerChemMIP:1), amip (AerChemMIP:1,CFMIP:1)"
  },
  "fco2nat": {
    "CCCma TS var name": null,
    "CCCma diag file": null,
    "CCCma check": "N/A (Jason)",
    "MIPs (requesting)": "  AerChemMIP(1,1,1), CFMIP(1)",
    "experiments": "  piControl (AerChemMIP:1), historical (AerChemMIP:1), amip (AerChemMIP:1,CFMIP:1)"
  },
  "hfls": {
    "CCCma TS var name": "HFL",
    "CCCma diag file": "site",
    "CCCma hist file": "site",
    "CCCma hist var names": "HFL",
    "CCCma check": "Jason",
    "MIPs (requesting)": "  AerChemMIP(1,1,1), CFMIP(1)",
    "experiments": "  piControl (AerChemMIP:1), historical (AerChemMIP:1), amip (AerChemMIP:1,CFMIP:1)"
  },
  "hfss": {
    "CCCma TS var name": "HFS",
    "CCCma diag file": "site",
    "CCCma hist file": "site",
    "CCCma hist var names": "HFS",
    "CCCma check": "Jason",
    "MIPs (requesting)": "  AerChemMIP(1,1,1), CFMIP(1)",
    "experiments": "  piControl (AerChemMIP:1), historical (AerChemMIP:1), amip (AerChemMIP:1,CFMIP:1)"
  },
  "hur": {
    "CCCma TS var name": "RH",
    "CCCma diag file": "site",
    "CCCma hist file": "site",
    "CCCma hist var names": "RH",
    "CCCma check": "Jason",
    "MIPs (requesting)": "  AerChemMIP(1,1,1), CFMIP(1)",
    "experiments": "  piControl (AerChemMIP:1), historical (AerChemMIP:1), amip (AerChemMIP:1,CFMIP:1)"
  },
  "hurs": {
    "CCCma TS var name": "SRH",
    "CCCma diag file": "site",
    "CCCma hist file": "site",
    "CCCma hist var names": "SRH",
    "CCCma check": "Jason",
    "MIPs (requesting)": "  AerChemMIP(1,1,1), CFMIP(1)",
    "experiments": "  piControl (AerChemMIP:1), historical (AerChemMIP:1), amip (AerChemMIP:1,CFMIP:1)"
  },
  "hus": {
    "CCCma TS var name": "Q",
    "CCCma diag file": "site",
    "CCCma hist file": "site",
    "CCCma hist var names": "Q",
    "CCCma check": "Jason",
    "MIPs (requesting)": "  AerChemMIP(1,1,1), CFMIP(1)",
    "experiments": "  piControl (AerChemMIP:1), historical (AerChemMIP:1), amip (AerChemMIP:1,CFMIP:1)"
  },
  "huss": {
    "CCCma TS var name": "SQ",
    "CCCma diag file": "site",
    "CCCma hist file": "site",
    "CCCma hist var names": "SQ",
    "CCCma check": "Jason",
    "MIPs (requesting)": "  AerChemMIP(1,1,1), CFMIP(1)",
    "experiments": "  piControl (AerChemMIP:1), historical (AerChemMIP:1), amip (AerChemMIP:1,CFMIP:1)"
  },
  "latitude": {
    "CCCma TS var name": "GLAT",
    "CCCma diag file": "site",
    "CCCma hist file": "site",
    "CCCma hist var names": "GLAT",
    "CCCma check": "Jason",
    "MIPs (requesting)": "  AerChemMIP(1,1,1), CFMIP(1)",
    "experiments": "  piControl (AerChemMIP:1), historical (AerChemMIP:1), amip (AerChemMIP:1,CFMIP:1)"
  },
  "longitude": {
    "CCCma TS var name": "GLON",
    "CCCma diag file": "site",
    "CCCma hist file": "site",
    "CCCma hist var names": "GLON",
    "CCCma check": "Jason",
    "MIPs (requesting)": "  AerChemMIP(1,1,1), CFMIP(1)",
    "experiments": "  piControl (AerChemMIP:1), historical (AerChemMIP:1), amip (AerChemMIP:1,CFMIP:1)"
  },
  "mc": {
    "CCCma TS var name": "DMC",
    "CCCma diag file": "site",
    "CCCma hist file": "site",
    "CCCma hist var names": "DMC",
    "CCCma check": "Jason",
    "MIPs (requesting)": "  AerChemMIP(1,1,1), CFMIP(1)",
    "experiments": "  piControl (AerChemMIP:1), historical (AerChemMIP:1), amip (AerChemMIP:1,CFMIP:1)"
  },
  "pfull": {
    "CCCma TS var name": "PRSF",
    "CCCma diag file": "site",
    "CCCma hist file": "site",
    "CCCma hist var names": "PRSF",
    "CCCma check": "Jason",
    "MIPs (requesting)": "  AerChemMIP(1,1,1), CFMIP(1)",
    "experiments": "  piControl (AerChemMIP:1), historical (AerChemMIP:1), amip (AerChemMIP:1,CFMIP:1)"
  },
  "phalf": {
    "CCCma TS var name": "PRSH",
    "CCCma diag file": "site",
    "CCCma hist file": "site",
    "CCCma hist var names": "PRSH",
    "CCCma check": "Jason",
    "MIPs (requesting)": "  AerChemMIP(1,1,1), CFMIP(1)",
    "experiments": "  piControl (AerChemMIP:1), historical (AerChemMIP:1), amip (AerChemMIP:1,CFMIP:1)"
  },
  "pr": {
    "CCCma TS var name": "PCP",
    "CCCma diag file": "site",
    "CCCma hist file": "site",
    "CCCma hist var names": "PCP",
    "CCCma check": "Jason",
    "MIPs (requesting)": "  AerChemMIP(1,1,1), CFMIP(1)",
    "experiments": "  piControl (AerChemMIP:1), historical (AerChemMIP:1), amip (AerChemMIP:1,CFMIP:1)"
  },
  "prc": {
    "CCCma TS var name": "PCPC",
    "CCCma diag file": "site",
    "CCCma hist file": "site",
    "CCCma hist var names": "PCPC",
    "CCCma check": "Jason",
    "MIPs (requesting)": "  AerChemMIP(1,1,1), CFMIP(1)",
    "experiments": "  piControl (AerChemMIP:1), historical (AerChemMIP:1), amip (AerChemMIP:1,CFMIP:1)"
  },
  "prsn": {
    "CCCma TS var name": "PCPN",
    "CCCma diag file": "site",
    "CCCma hist file": "site",
    "CCCma hist var names": "PCPN",
    "CCCma check": "Jason",
    "MIPs (requesting)": "  AerChemMIP(1,1,1), CFMIP(1)",
    "experiments": "  piControl (AerChemMIP:1), historical (AerChemMIP:1), amip (AerChemMIP:1,CFMIP:1)"
  },
  "prw": {
    "CCCma TS var name": "PWAT",
    "CCCma diag file": "site",
    "CCCma hist file": "site",
    "CCCma hist var names": "PWAT",
    "CCCma check": "Jason",
    "MIPs (requesting)": "  AerChemMIP(1,1,1), CFMIP(1)",
    "experiments": "  piControl (AerChemMIP:1), historical (AerChemMIP:1), amip (AerChemMIP:1,CFMIP:1)"
  },
  "ps": {
    "CCCma TS var name": "PS",
    "CCCma diag file": "site",
    "CCCma hist file": "site",
    "CCCma hist var names": "PS",
    "CCCma check": "Jason",
    "MIPs (requesting)": "  AerChemMIP(1,1,1), CFMIP(1)",
    "experiments": "  piControl (AerChemMIP:1), historical (AerChemMIP:1), amip (AerChemMIP:1,CFMIP:1)"
  },
  "psl": {
    "CCCma TS var name": "PMSL",
    "CCCma diag file": "site",
    "CCCma hist file": "site",
    "CCCma hist var names": "PMSL",
    "CCCma check": "Jason",
    "MIPs (requesting)": "  AerChemMIP(1,1,1), CFMIP(1)",
    "experiments": "  piControl (AerChemMIP:1), historical (AerChemMIP:1), amip (AerChemMIP:1,CFMIP:1)"
  },
  "rld": {
    "CCCma TS var name": "FLAD",
    "CCCma diag file": "site",
    "CCCma hist file": "site",
    "CCCma hist var names": "FLAD",
    "CCCma check": "Jason",
    "MIPs (requesting)": "  AerChemMIP(1,1,1), CFMIP(1)",
    "experiments": "  piControl (AerChemMIP:1), historical (AerChemMIP:1), amip (AerChemMIP:1,CFMIP:1)"
  },
  "rldcs": {
    "CCCma TS var name": "FLCD",
    "CCCma diag file": "site",
    "CCCma hist file": "site",
    "CCCma hist var names": "FLCD",
    "CCCma check": "Jason",
    "MIPs (requesting)": "  AerChemMIP(1,1,1), CFMIP(1)",
    "experiments": "  piControl (AerChemMIP:1), historical (AerChemMIP:1), amip (AerChemMIP:1,CFMIP:1)"
  },
  "rlds": {
    "CCCma TS var name": "FDL",
    "CCCma diag file": "site",
    "CCCma hist file": "site",
    "CCCma hist var names": "FDL",
    "CCCma check": "Jason",
    "MIPs (requesting)": "  AerChemMIP(1,1,1), CFMIP(1)",
    "experiments": "  piControl (AerChemMIP:1), historical (AerChemMIP:1), amip (AerChemMIP:1,CFMIP:1)"
  },
  "rldscs": {
    "CCCma TS var name": "FDLC",
    "CCCma diag file": "site",
    "CCCma hist file": "site",
    "CCCma hist var names": "FDLC",
    "CCCma check": "Jason",
    "MIPs (requesting)": "  AerChemMIP(1,1,1), CFMIP(1)",
    "experiments": "  piControl (AerChemMIP:1), historical (AerChemMIP:1), amip (AerChemMIP:1,CFMIP:1)"
  },
  "rlu": {
    "CCCma TS var name": "FLAU",
    "CCCma diag file": "site",
    "CCCma hist file": "site",
    "CCCma hist var names": "FLAU",
    "CCCma check": "Jason",
    "MIPs (requesting)": "  AerChemMIP(1,1,1), CFMIP(1)",
    "experiments": "  piControl (AerChemMIP:1), historical (AerChemMIP:1), amip (AerChemMIP:1,CFMIP:1)"
  },
  "rlucs": {
    "CCCma TS var name": "FLCU",
    "CCCma diag file": "site",
    "CCCma hist file": "site",
    "CCCma hist var names": "FLCU",
    "CCCma check": "Jason",
    "MIPs (requesting)": "  AerChemMIP(1,1,1), CFMIP(1)",
    "experiments": "  piControl (AerChemMIP:1), historical (AerChemMIP:1), amip (AerChemMIP:1,CFMIP:1)"
  },
  "rlus": {
    "CCCma TS var name": "FDL FLG",
    "CCCma diag file": "site",
    "CCCma optional deck": "subtract",
    "CCCma hist file": "site",
    "CCCma hist var names": "FDL FLG",
    "CCCma check": "Jason",
    "MIPs (requesting)": "  AerChemMIP(1,1,1), CFMIP(1)",
    "experiments": "  piControl (AerChemMIP:1), historical (AerChemMIP:1), amip (AerChemMIP:1,CFMIP:1)"
  },
  "rlut": {
    "CCCma TS var name": "OLR",
    "CCCma diag file": "site",
    "CCCma hist file": "site",
    "CCCma hist var names": "OLR",
    "CCCma check": "Jason",
    "MIPs (requesting)": "  AerChemMIP(1,1,1), CFMIP(1)",
    "experiments": "  piControl (AerChemMIP:1), historical (AerChemMIP:1), amip (AerChemMIP:1,CFMIP:1)"
  },
  "rlutcs": {
    "CCCma TS var name": "OLRC",
    "CCCma diag file": "site",
    "CCCma hist file": "site",
    "CCCma hist var names": "OLRC",
    "CCCma check": "Jason",
    "MIPs (requesting)": "  AerChemMIP(1,1,1), CFMIP(1)",
    "experiments": "  piControl (AerChemMIP:1), historical (AerChemMIP:1), amip (AerChemMIP:1,CFMIP:1)"
  },
  "rsd": {
    "CCCma TS var name": "FSAD",
    "CCCma diag file": "site",
    "CCCma hist file": "site",
    "CCCma hist var names": "FSAD",
    "CCCma check": "Jason",
    "MIPs (requesting)": "  AerChemMIP(1,1,1), CFMIP(1)",
    "experiments": "  piControl (AerChemMIP:1), historical (AerChemMIP:1), amip (AerChemMIP:1,CFMIP:1)"
  },
  "rsdcs": {
    "CCCma TS var name": "FSCD",
    "CCCma diag file": "site",
    "CCCma hist file": "site",
    "CCCma hist var names": "FSCD",
    "CCCma check": "Jason",
    "MIPs (requesting)": "  AerChemMIP(1,1,1), CFMIP(1)",
    "experiments": "  piControl (AerChemMIP:1), historical (AerChemMIP:1), amip (AerChemMIP:1,CFMIP:1)"
  },
  "rsds": {
    "CCCma TS var name": "FSS",
    "CCCma diag file": "site",
    "CCCma hist file": "site",
    "CCCma hist var names": "FSS",
    "CCCma check": "Jason",
    "MIPs (requesting)": "  AerChemMIP(1,1,1), CFMIP(1)",
    "experiments": "  piControl (AerChemMIP:1), historical (AerChemMIP:1), amip (AerChemMIP:1,CFMIP:1)"
  },
  "rsdscs": {
    "CCCma TS var name": "FSSC",
    "CCCma diag file": "site",
    "CCCma hist file": "site",
    "CCCma hist var names": "FSSC",
    "CCCma check": "Jason",
    "MIPs (requesting)": "  AerChemMIP(1,1,1), CFMIP(1)",
    "experiments": "  piControl (AerChemMIP:1), historical (AerChemMIP:1), amip (AerChemMIP:1,CFMIP:1)"
  },
  "rsdt": {
    "CCCma TS var name": "FSO",
    "CCCma diag file": "site",
    "CCCma hist file": "site",
    "CCCma hist var names": "FSO",
    "CCCma check": "Jason",
    "MIPs (requesting)": "  AerChemMIP(1,1,1), CFMIP(1)",
    "experiments": "  piControl (AerChemMIP:1), historical (AerChemMIP:1), amip (AerChemMIP:1,CFMIP:1)"
  },
  "rsu": {
    "CCCma TS var name": "FSAU",
    "CCCma diag file": "site",
    "CCCma hist file": "site",
    "CCCma hist var names": "FSAU",
    "CCCma check": "Jason",
    "MIPs (requesting)": "  AerChemMIP(1,1,1), CFMIP(1)",
    "experiments": "  piControl (AerChemMIP:1), historical (AerChemMIP:1), amip (AerChemMIP:1,CFMIP:1)"
  },
  "rsucs": {
    "CCCma TS var name": "FSCU",
    "CCCma diag file": "site",
    "CCCma hist file": "site",
    "CCCma hist var names": "FSCU",
    "CCCma check": "Jason",
    "MIPs (requesting)": "  AerChemMIP(1,1,1), CFMIP(1)",
    "experiments": "  piControl (AerChemMIP:1), historical (AerChemMIP:1), amip (AerChemMIP:1,CFMIP:1)"
  },
  "rsus": {
    "CCCma TS var name": "FSS FSG",
    "CCCma diag file": "site",
    "CCCma optional deck": "subtract",
    "CCCma hist file": "site",
    "CCCma hist var names": "FSS FSG",
    "CCCma check": "Jason",
    "MIPs (requesting)": "  AerChemMIP(1,1,1), CFMIP(1)",
    "experiments": "  piControl (AerChemMIP:1), historical (AerChemMIP:1), amip (AerChemMIP:1,CFMIP:1)"
  },
  "rsuscs": {
    "CCCma TS var name": "FSSC FSGC",
    "CCCma diag file": "site",
    "CCCma optional deck": "subtract",
    "CCCma hist file": "site",
    "CCCma hist var names": "FSSC FSGC",
    "CCCma check": "Jason",
    "MIPs (requesting)": "  AerChemMIP(1,1,1), CFMIP(1)",
    "experiments": "  piControl (AerChemMIP:1), historical (AerChemMIP:1), amip (AerChemMIP:1,CFMIP:1)"
  },
  "rsut": {
    "CCCma TS var name": "FSR",
    "CCCma diag file": "site",
    "CCCma hist file": "site",
    "CCCma hist var names": "FSR",
    "CCCma check": "Jason",
    "MIPs (requesting)": "  AerChemMIP(1,1,1), CFMIP(1)",
    "experiments": "  piControl (AerChemMIP:1), historical (AerChemMIP:1), amip (AerChemMIP:1,CFMIP:1)"
  },
  "rsutcs": {
    "CCCma TS var name": "FSRC",
    "CCCma diag file": "site",
    "CCCma hist file": "site",
    "CCCma hist var names": "FSRC",
    "CCCma check": "Jason",
    "MIPs (requesting)": "  AerChemMIP(1,1,1), CFMIP(1)",
    "experiments": "  piControl (AerChemMIP:1), historical (AerChemMIP:1), amip (AerChemMIP:1,CFMIP:1)"
  },
  "rtmt": {
    "CCCma TS var name": "BALT",
    "CCCma diag file": "site",
    "CCCma hist file": "site",
    "CCCma hist var names": "BALT",
    "CCCma check": "Jason",
    "MIPs (requesting)": "  AerChemMIP(1,1,1), CFMIP(1)",
    "experiments": "  piControl (AerChemMIP:1), historical (AerChemMIP:1), amip (AerChemMIP:1,CFMIP:1)"
  },
  "sbl": {
    "CCCma TS var name": "QFN QFVF",
    "CCCma diag file": "site",
    "CCCma optional deck": "addtwo",
    "CCCma hist file": "site",
    "CCCma hist var names": "QFN QFVF",
    "CCCma check": "Jason",
    "MIPs (requesting)": "  AerChemMIP(1,1,1), CFMIP(1)",
    "experiments": "  piControl (AerChemMIP:1), historical (AerChemMIP:1), amip (AerChemMIP:1,CFMIP:1)"
  },
  "sci": {
    "CCCma TS var name": "CSCB",
    "CCCma diag file": "site",
    "CCCma hist file": "site",
    "CCCma hist var names": "CSCB",
    "CCCma check": "Jason",
    "MIPs (requesting)": "  AerChemMIP(1,1,1), CFMIP(1)",
    "experiments": "  piControl (AerChemMIP:1), historical (AerChemMIP:1), amip (AerChemMIP:1,CFMIP:1)"
  },
  "sfcWind": {
    "CCCma TS var name": "WS",
    "CCCma diag file": "site",
    "CCCma hist file": "site",
    "CCCma hist var names": "WS",
    "CCCma check": "Jason",
    "MIPs (requesting)": "  AerChemMIP(1,1,1), CFMIP(1)",
    "experiments": "  piControl (AerChemMIP:1), historical (AerChemMIP:1), amip (AerChemMIP:1,CFMIP:1)"
  },
  "ta": {
    "CCCma TS var name": "T",
    "CCCma diag file": "site",
    "CCCma hist file": "site",
    "CCCma hist var names": "T",
    "CCCma check": "Jason",
    "MIPs (requesting)": "  AerChemMIP(1,1,1), CFMIP(1)",
    "experiments": "  piControl (AerChemMIP:1), historical (AerChemMIP:1), amip (AerChemMIP:1,CFMIP:1)"
  },
  "tas": {
    "CCCma TS var name": "ST",
    "CCCma diag file": "site",
    "CCCma hist file": "site",
    "CCCma hist var names": "ST",
    "CCCma check": "Jason",
    "MIPs (requesting)": "  AerChemMIP(1,1,1), CFMIP(1)",
    "experiments": "  piControl (AerChemMIP:1), historical (AerChemMIP:1), amip (AerChemMIP:1,CFMIP:1)"
  },
  "tauu": {
    "CCCma TS var name": "UFS",
    "CCCma diag file": "site",
    "CCCma hist file": "site",
    "CCCma hist var names": "UFS",
    "CCCma check": "Jason",
    "MIPs (requesting)": "  AerChemMIP(1,1,1), CFMIP(1)",
    "experiments": "  piControl (AerChemMIP:1), historical (AerChemMIP:1), amip (AerChemMIP:1,CFMIP:1)"
  },
  "tauv": {
    "CCCma TS var name": "VFS",
    "CCCma diag file": "site",
    "CCCma hist file": "site",
    "CCCma hist var names": "VFS",
    "CCCma check": "Jason",
    "MIPs (requesting)": "  AerChemMIP(1,1,1), CFMIP(1)",
    "experiments": "  piControl (AerChemMIP:1), historical (AerChemMIP:1), amip (AerChemMIP:1,CFMIP:1)"
  },
  "tnhus": {
    "CCCma TS var name": null,
    "CCCma diag file": null,
    "CCCma check": "N/A (Jason)",
    "MIPs (requesting)": "  AerChemMIP(1,1,1), CFMIP(1)",
    "experiments": "  piControl (AerChemMIP:1), historical (AerChemMIP:1), amip (AerChemMIP:1,CFMIP:1)"
  },
  "tnhusa": {
    "CCCma TS var name": null,
    "CCCma diag file": null,
    "CCCma check": "N/A (Jason)",
    "MIPs (requesting)": "  AerChemMIP(1,1,1), CFMIP(1)",
    "experiments": "  piControl (AerChemMIP:1), historical (AerChemMIP:1), amip (AerChemMIP:1,CFMIP:1)"
  },
  "tnhusc": {
    "CCCma TS var name": "QTPM QTPC",
    "CCCma diag file": "site",
    "CCCma optional deck": "addtwo",
    "CCCma hist file": "site",
    "CCCma hist var names": "QTPM QTPC",
    "CCCma check": "Jason",
    "MIPs (requesting)": "  AerChemMIP(1,1,1), CFMIP(1)",
    "experiments": "  piControl (AerChemMIP:1), historical (AerChemMIP:1), amip (AerChemMIP:1,CFMIP:1)"
  },
  "tnhusd": {
    "CCCma TS var name": null,
    "CCCma diag file": null,
    "CCCma check": "N/A (Jason)",
    "MIPs (requesting)": "  AerChemMIP(1,1,1), CFMIP(1)",
    "experiments": "  piControl (AerChemMIP:1), historical (AerChemMIP:1), amip (AerChemMIP:1,CFMIP:1)"
  },
  "tnhusmp": {
    "CCCma TS var name": "QTP",
    "CCCma diag file": "site",
    "CCCma hist file": "site",
    "CCCma hist var names": "QTP",
    "CCCma check": "Jason",
    "MIPs (requesting)": "  AerChemMIP(1,1,1), CFMIP(1)",
    "experiments": "  piControl (AerChemMIP:1), historical (AerChemMIP:1), amip (AerChemMIP:1,CFMIP:1)"
  },
  "tnhusscpbl": {
    "CCCma TS var name": "QTPP QTPV",
    "CCCma diag file": "site",
    "CCCma optional deck": "addtwo",
    "CCCma hist file": "site",
    "CCCma hist var names": "QTPP QTPV",
    "CCCma check": "Jason",
    "MIPs (requesting)": "  AerChemMIP(1,1,1), CFMIP(1)",
    "experiments": "  piControl (AerChemMIP:1), historical (AerChemMIP:1), amip (AerChemMIP:1,CFMIP:1)"
  },
  "tnt": {
    "CCCma TS var name": null,
    "CCCma diag file": null,
    "CCCma check": "N/A (Jason)",
    "MIPs (requesting)": "  AerChemMIP(1,1,1), CFMIP(1)",
    "experiments": "  piControl (AerChemMIP:1), historical (AerChemMIP:1), amip (AerChemMIP:1,CFMIP:1)"
  },
  "tnta": {
    "CCCma TS var name": null,
    "CCCma diag file": null,
    "CCCma check": "N/A (Jason)",
    "MIPs (requesting)": "  AerChemMIP(1,1,1), CFMIP(1)",
    "experiments": "  piControl (AerChemMIP:1), historical (AerChemMIP:1), amip (AerChemMIP:1,CFMIP:1)"
  },
  "tntc": {
    "CCCma TS var name": "TTPM TTPC",
    "CCCma diag file": "site",
    "CCCma optional deck": "addtwo",
    "CCCma hist file": "site",
    "CCCma hist var names": "TTPM TTPC",
    "CCCma check": "Jason",
    "MIPs (requesting)": "  AerChemMIP(1,1,1), CFMIP(1)",
    "experiments": "  piControl (AerChemMIP:1), historical (AerChemMIP:1), amip (AerChemMIP:1,CFMIP:1)"
  },
  "tntmp": {
    "CCCma TS var name": "TTP",
    "CCCma diag file": "site",
    "CCCma hist file": "site",
    "CCCma hist var names": "TTP",
    "CCCma check": "Jason",
    "MIPs (requesting)": "  AerChemMIP(1,1,1), CFMIP(1)",
    "experiments": "  piControl (AerChemMIP:1), historical (AerChemMIP:1), amip (AerChemMIP:1,CFMIP:1)"
  },
  "tntr": {
    "CCCma TS var name": "TTPS TTPL",
    "CCCma diag file": "site",
    "CCCma optional deck": "addtwo",
    "CCCma hist file": "site",
    "CCCma hist var names": "TTPS TTPL",
    "CCCma check": "Jason",
    "MIPs (requesting)": "  AerChemMIP(1,1,1), CFMIP(1)",
    "experiments": "  piControl (AerChemMIP:1), historical (AerChemMIP:1), amip (AerChemMIP:1,CFMIP:1)"
  },
  "tntscpbl": {
    "CCCma TS var name": "TTPP TTPV",
    "CCCma diag file": "site",
    "CCCma optional deck": "addtwo",
    "CCCma hist file": "site",
    "CCCma hist var names": "TTPP TTPV",
    "CCCma check": "Jason",
    "MIPs (requesting)": "  AerChemMIP(1,1,1), CFMIP(1)",
    "experiments": "  piControl (AerChemMIP:1), historical (AerChemMIP:1), amip (AerChemMIP:1,CFMIP:1)"
  },
  "ts": {
    "CCCma TS var name": "GT",
    "CCCma diag file": "site",
    "CCCma hist file": "site",
    "CCCma hist var names": "GT",
    "CCCma check": "Jason",
    "MIPs (requesting)": "  AerChemMIP(1,1,1), CFMIP(1)",
    "experiments": "  piControl (AerChemMIP:1), historical (AerChemMIP:1), amip (AerChemMIP:1,CFMIP:1)"
  },
  "ua": {
    "CCCma TS var name": "U",
    "CCCma diag file": "site",
    "CCCma hist file": "site",
    "CCCma hist var names": "U",
    "CCCma check": "Jason",
    "MIPs (requesting)": "  AerChemMIP(1,1,1), CFMIP(1)",
    "experiments": "  piControl (AerChemMIP:1), historical (AerChemMIP:1), amip (AerChemMIP:1,CFMIP:1)"
  },
  "uas": {
    "CCCma TS var name": "SU",
    "CCCma diag file": "site",
    "CCCma hist file": "site",
    "CCCma hist var names": "SU",
    "CCCma check": "Jason",
    "MIPs (requesting)": "  AerChemMIP(1,1,1), CFMIP(1)",
    "experiments": "  piControl (AerChemMIP:1), historical (AerChemMIP:1), amip (AerChemMIP:1,CFMIP:1)"
  },
  "va": {
    "CCCma TS var name": "V",
    "CCCma diag file": "site",
    "CCCma hist file": "site",
    "CCCma hist var names": "V",
    "CCCma check": "Jason",
    "MIPs (requesting)": "  AerChemMIP(1,1,1), CFMIP(1)",
    "experiments": "  piControl (AerChemMIP:1), historical (AerChemMIP:1), amip (AerChemMIP:1,CFMIP:1)"
  },
  "vas": {
    "CCCma TS var name": "SV",
    "CCCma diag file": "site",
    "CCCma hist file": "site",
    "CCCma hist var names": "SV",
    "CCCma check": "Jason",
    "MIPs (requesting)": "  AerChemMIP(1,1,1), CFMIP(1)",
    "experiments": "  piControl (AerChemMIP:1), historical (AerChemMIP:1), amip (AerChemMIP:1,CFMIP:1)"
  },
  "wap": {
    "CCCma TS var name": "OMET",
    "CCCma diag file": "site",
    "CCCma hist file": "site",
    "CCCma hist var names": "OMET",
    "CCCma check": "Jason",
    "MIPs (requesting)": "  AerChemMIP(1,1,1), CFMIP(1)",
    "experiments": "  piControl (AerChemMIP:1), historical (AerChemMIP:1), amip (AerChemMIP:1,CFMIP:1)"
  },
  "zg": {
    "CCCma TS var name": "ZG",
    "CCCma diag file": "site",
    "CCCma hist file": "site",
    "CCCma hist var names": "ZG",
    "CCCma check": "Jason",
    "MIPs (requesting)": "  AerChemMIP(1,1,1), CFMIP(1)",
    "experiments": "  piControl (AerChemMIP:1), historical (AerChemMIP:1), amip (AerChemMIP:1,CFMIP:1)"
  }
}